0.475193 0.443753
-0.0305816 -0.0198374
-0.0438612 -0.0357587
-0.0356044 -0.0268546
-0.100214 -0.0878117
-0.0622942 -0.0535015
-0.119112 -0.107721
-0.0688375 -0.058825
-0.109198 -0.0974014
-0.0778094 -0.0684192
-0.07925 -0.0786107
-0.0460561 -0.0356554
-0.103412 -0.0994619
-0.0756049 -0.068839
-0.110629 -0.108503
-0.0677859 -0.0603169
-0.128477 -0.126261
-0.0645249 -0.035076
-0.128588 -0.125636
-0.0417646 -0.0309285
1.30413 1.22681
-0.0305392 -0.0198279
-0.0836436 -0.0828899
-0.0311838 -0.0225581
-0.266342 -0.257912
-0.0707012 -0.0615611
-0.309689 -0.302517
-0.0900865 -0.0787117
-0.214957 -0.210177
-0.117897 -0.110724
-0.0811205 -0.076754
-0.0512371 -0.0437343
-0.127483 -0.136777
-0.217339 -0.208923
-0.140814 -0.134866
-0.136467 -0.131647
-0.0558763 -0.0410835
-0.120991 -0.0997796
-0.129804 -0.120328
-0.246198 -0.231386
2.18385 2.08572
-0.0304944 -0.0198131
-0.0761875 -0.0752168
-0.0278105 -0.0260201
-0.482235 -0.481054
-0.113211 -0.105894
-0.41562 -0.418463
-0.110175 -0.101631
-0.297235 -0.3001
-0.154975 -0.147191
-0.299957 -0.297033
-0.0822416 -0.0748028
-0.220143 -0.228145
-0.0996031 -0.0949574
-0.248491 -0.249688
-0.139699 -0.136242
-0.30038 -0.310719
-0.088201 -0.0835044
-0.130124 -0.137441
-0.0795689 -0.0815211
3.04699 2.95614
-0.0304518 -0.0197835
-0.188254 -0.185071
-0.0340729 -0.0130657
-0.561848 -0.56126
-0.103661 -0.0916204
-0.621031 -0.617771
-0.171115 -0.157452
-0.386977 -0.382426
-0.19821 -0.185423
-0.178027 -0.16373
-0.113594 -0.108843
-0.225809 -0.223823
-0.347602 -0.355433
-0.241822 -0.24208
-0.243642 -0.245571
-0.197834 -0.176417
-0.284303 -0.271698
-0.198422 -0.176912
-0.486566 -0.487734
3.84671 3.81409
-0.0304145 -0.0197263
-0.153537 -0.144286
-0.0323661 -0.0338368
-0.806075 -0.806252
-0.163337 -0.159302
-0.702216 -0.707828
-0.182448 -0.176997
-0.593456 -0.60022
-0.196036 -0.190151
-0.537558 -0.544396
-0.119705 -0.113464
-0.500013 -0.513613
-0.189938 -0.191109
-0.424448 -0.427072
-0.264851 -0.264595
-0.349483 -0.345416
-0.127237 -0.119619
-0.237049 -0.236692
-0.23248 -0.240686
4.62854 4.65141
-0.0303665 -0.01966
-0.194146 -0.178459
-0.0345687 -0.0377035
-0.944527 -0.942918
-0.190062 -0.187977
-0.799094 -0.804164
-0.238027 -0.234434
-0.665696 -0.672384
-0.247914 -0.243998
-0.568866 -0.577108
-0.176209 -0.173341
-0.505555 -0.521382
-0.280374 -0.280479
-0.391075 -0.396978
-0.364296 -0.373543
-0.361086 -0.358937
-0.251059 -0.249203
-0.230953 -0.232838
-0.253598 -0.259068
5.41683 5.46446
-0.0303166 -0.0196285
-0.348975 -0.336374
-0.0410462 -0.0223481
-0.931643 -0.926993
-0.156509 -0.149106
-0.976524 -0.968612
-0.354157 -0.346345
-0.589388 -0.58513
-0.360331 -0.366877
-0.195036 -0.177805
-0.189228 -0.171599
-0.37493 -0.382884
-0.671127 -0.681453
-0.234248 -0.240889
-0.527627 -0.541329
-0.362079 -0.360146
-0.665129 -0.660627
-0.264122 -0.267179
-0.762257 -0.735116
6.2159 6.25335
-0.0302842 -0.0195826
-0.398851 -0.384882
-0.0430632 -0.0245103
-1.04227 -1.03412
-0.173146 -0.167355
-1.07409 -1.06276
-0.423171 -0.417716
-0.654338 -0.652978
-0.457073 -0.46688
-0.240126 -0.220993
-0.23766 -0.219084
-0.42206 -0.428133
-0.78954 -0.792904
-0.214165 -0.223226
-0.637947 -0.649472
-0.412875 -0.412339
-0.623166 -0.61128
-0.318967 -0.317474
-0.647954 -0.622156
7.02271 7.01567
-0.0302402 -0.0195464
-0.447035 -0.432235
-0.04487 -0.026074
-1.14752 -1.1352
-0.188562 -0.184304
-1.16297 -1.14743
-0.493529 -0.490073
-0.719388 -0.721364
-0.58081 -0.58965
-0.314307 -0.295843
-0.314157 -0.29628
-0.448688 -0.456418
-0.903765 -0.901321
-0.208923 -0.212223
-0.733951 -0.74279
-0.428239 -0.427591
-0.602363 -0.591319
-0.290742 -0.287791
-0.525378 -0.509411
7.83156 7.75427
-0.0302101 -0.0195164
-0.492534 -0.479081
-0.0467609 -0.0270968
-1.24763 -1.23065
-0.202797 -0.200067
-1.24535 -1.22401
-0.564894 -0.56283
-0.769185 -0.772858
-0.722707 -0.729964
-0.394701 -0.385018
-0.416179 -0.402378
-0.442313 -0.450264
-0.986618 -0.980897
-0.203035 -0.205824
-0.802527 -0.798377
-0.419369 -0.415752
-0.592319 -0.575942
-0.267947 -0.263214
-0.371289 -0.370383
-0.369939 -0.378142
-0.36362 -0.354836
-0.389728 -0.386611
-0.36385 -0.355844
-0.492583 -0.49356
-0.380874 -0.373401
-0.421814 -0.420091
-0.417151 -0.419489
-0.377768 -0.370033
-0.424198 -0.422559
-0.395561 -0.410945
-0.364085 -0.367119
-0.511668 -0.514824
-0.368653 -0.361273
-0.608679 -0.616317
-0.450998 -0.444384
-0.494103 -0.491691
-0.433395 -0.437227
-0.39395 -0.384811
-0.412555 -0.413543
-0.419136 -0.434238
-0.363139 -0.365932
-0.456896 -0.468146
-0.36383 -0.356877
-0.739891 -0.749071
-0.41415 -0.409942
-0.523851 -0.530747
-0.489183 -0.496814
-0.421421 -0.419496
-0.508477 -0.517254
-0.449278 -0.452628
-0.362904 -0.365746
-0.497271 -0.512384
-0.36483 -0.357995
-0.852282 -0.862121
-0.42933 -0.4265
-0.574703 -0.584867
-0.515692 -0.52829
-0.451344 -0.453114
-0.556893 -0.572692
-0.485318 -0.470185
-0.365248 -0.36836
-0.7562 -0.772032
-0.380733 -0.37518
-0.967258 -0.981616
-0.536158 -0.532141
-0.703966 -0.708311
-0.523369 -0.52961
-0.49683 -0.497784
-0.573941 -0.581753
-0.513392 -0.478144
-0.365978 -0.36919
-0.839094 -0.856273
-0.38573 -0.380808
-1.08318 -1.09631
-0.552752 -0.549286
-0.777614 -0.783538
-0.554868 -0.560491
-0.550109 -0.55397
-0.630391 -0.635903
-0.523802 -0.4824
-0.366884 -0.370205
-0.921426 -0.939179
-0.3913 -0.387002
-1.19506 -1.20537
-0.566173 -0.56317
-0.851497 -0.857923
-0.587863 -0.592707
-0.611546 -0.617115
-0.678382 -0.681568
-0.506968 -0.474526
-0.362917 -0.365992
-0.711651 -0.71033
-0.376046 -0.370612
-1.23902 -1.23397
-0.488461 -0.490344
-0.770005 -0.787276
-0.613148 -0.63066
-0.59222 -0.608285
-0.765092 -0.770794
-0.496892 -0.474116
-0.363086 -0.355264
-0.77481 -0.764832
-0.380902 -0.375871
-1.32217 -1.31173
-0.505147 -0.507983
-0.812556 -0.829477
-0.640193 -0.656104
-0.624675 -0.642969
-0.809266 -0.809896
-0.514353 -0.474481
-0.363199 -0.35465
-0.839558 -0.820237
-0.386547 -0.3819
-1.39734 -1.3833
-0.523228 -0.526867
-0.850399 -0.865781
-0.668285 -0.681468
-0.653866 -0.673708
-0.845846 -0.840299
-0.681873 -0.692237
-0.684118 -0.681707
-0.73802 -0.738468
-0.685674 -0.683265
-0.927405 -0.90789
-0.716286 -0.714267
-0.813168 -0.81349
-0.777711 -0.777192
-0.709273 -0.707235
-0.741686 -0.74385
-0.706746 -0.72532
-0.684579 -0.682261
-0.725069 -0.733589
-0.680827 -0.679443
-0.881409 -0.899091
-0.712533 -0.715839
-0.786568 -0.806842
-0.706922 -0.710937
-0.707718 -0.713164
-0.736926 -0.743953
-0.738332 -0.764548
-0.688632 -0.686473
-0.968816 -0.977062
-0.712479 -0.711556
-1.00949 -1.02448
-0.769681 -0.767165
-0.880167 -0.884471
-0.707936 -0.706932
-0.756954 -0.765845
-0.724543 -0.72978
-0.749294 -0.777854
-0.691157 -0.689121
-1.0563 -1.06609
-0.722803 -0.722261
-1.10885 -1.12668
-0.781248 -0.779848
-0.951199 -0.95705
-0.719166 -0.719918
-0.814898 -0.820249
-0.750795 -0.757949
-0.7627 -0.785714
-0.693819 -0.691928
-1.13959 -1.14977
-0.733451 -0.733381
-1.20341 -1.22252
-0.786728 -0.786194
-1.02401 -1.03054
-0.732379 -0.733819
-0.891349 -0.891115
-0.770647 -0.778501
-0.773206 -0.789679
-0.696618 -0.694924
-1.2181 -1.22796
-0.744 -0.744374
-1.29224 -1.31163
-0.788104 -0.78829
-1.09581 -1.1023
-0.748155 -0.74885
-0.981744 -0.978707
-0.78198 -0.782442
-0.773948 -0.790746
-0.699528 -0.698034
-1.29119 -1.30094
-0.754422 -0.755179
-1.3736 -1.39278
-0.78692 -0.787843
-1.16305 -1.16938
-0.767854 -0.768057
-1.07813 -1.07075
-0.786357 -0.792542
-0.73352 -0.760295
-0.688511 -0.686439
-1.1911 -1.17612
-0.694967 -0.694208
-1.99329 -1.96546
-0.879198 -0.881157
-1.62738 -1.60467
-1.08314 -1.08216
-1.22677 -1.22032
-0.959509 -0.965985
-0.760419 -0.787733
-0.706025 -0.704981
-1.42131 -1.43176
-0.775122 -0.776774
-1.51057 -1.52769
-0.781473 -0.783532
-1.26845 -1.27366
-0.820879 -0.81216
-1.24705 -1.23331
-0.802514 -0.812676
-0.777731 -0.784904
-0.709699 -0.708844
-1.47848 -1.49031
-0.785845 -0.788023
-1.56406 -1.57986
-0.778455 -0.7809
-1.30111 -1.30574
-0.851794 -0.839903
-1.30721 -1.29052
-0.822216 -0.832947
-1.29171 -1.31748
-1.29669 -1.30792
-1.34087 -1.35364
-1.29517 -1.30681
-1.40589 -1.42042
-1.30528 -1.31669
-1.35459 -1.3665
-1.30116 -1.31211
-1.345 -1.35721
-1.30123 -1.31364
-1.31531 -1.32718
-1.29845 -1.30978
-1.39421 -1.40535
-1.29653 -1.3082
-1.50847 -1.52456
-1.31581 -1.32817
-1.40708 -1.41904
-1.3099 -1.32131
-1.36905 -1.38059
-1.31983 -1.33274
-1.34032 -1.32676
-1.29694 -1.30824
-1.35107 -1.35245
-1.29475 -1.30631
-1.7402 -1.75473
-1.30008 -1.31204
-1.4856 -1.49864
-1.42924 -1.4439
-1.42309 -1.44017
-1.41502 -1.42745
-1.36155 -1.34734
-1.30308 -1.31482
-1.50053 -1.50346
-1.30606 -1.31784
-1.69739 -1.71325
-1.33373 -1.34818
-1.49793 -1.5077
-1.33507 -1.34856
-1.38721 -1.3923
-1.42119 -1.42316
-1.36255 -1.34448
-1.30579 -1.31689
-1.55429 -1.55059
-1.31323 -1.32499
-1.78784 -1.8021
-1.34026 -1.35629
-1.53823 -1.54462
-1.3509 -1.36561
-1.39143 -1.387
-1.4929 -1.50059
-1.33705 -1.31665
-1.29808 -1.30934
-1.40759 -1.39167
-1.30772 -1.31956
-2.05213 -2.05617
-1.31179 -1.32427
-1.68824 -1.69611
-1.54755 -1.55879
-1.56487 -1.58135
-1.48658 -1.49798
-1.33251 -1.32579
-1.31186 -1.3238
-1.65592 -1.63765
-1.33173 -1.34383
-1.95812 -1.96649
-1.34854 -1.38393
-1.61766 -1.61819
-1.38811 -1.4081
-1.39344 -1.36891
-1.62778 -1.63945
-1.30415 -1.31361
-1.31522 -1.32725
-1.70133 -1.67655
-1.34314 -1.35549
-2.03813 -2.04171
-1.35096 -1.38706
-1.65499 -1.6541
-1.41167 -1.4356
-1.39141 -1.35987
-1.6757 -1.68959
-1.27087 -1.29949
-1.31856 -1.33073
-1.74227 -1.71108
-1.35493 -1.36766
-2.11466 -2.11241
-1.35286 -1.39006
-1.69038 -1.6891
-1.44022 -1.46696
-1.39258 -1.35538
-1.71653 -1.72519
-1.24199 -1.28561
-1.32217 -1.33444
-1.78033 -1.74335
-1.36827 -1.38143
-2.18501 -2.17655
-1.35568 -1.39332
-1.72466 -1.72456
-1.47636 -1.50367
-1.39914 -1.35824
-1.75943 -1.76432
0.38872 0.383316
0.307927 0.317303
0.231171 0.235091
0.304976 0.31159
0.26535 0.271363
0.236267 0.230763
0.294519 0.303896
0.210615 0.216859
0.258564 0.267892
0.248829 0.256637
0.374717 0.355926
0.276527 0.284195
0.154581 0.153479
0.247413 0.239084
0.242282 0.24706
0.115308 0.102288
0.284272 0.290904
0.196809 0.190457
0.132091 0.138062
0.239563 0.245712
0.419818 0.391927
0.244768 0.250836
0.0920883 0.0866413
0.195857 0.176802
0.211596 0.214445
0.0114827 -0.00480167
0.274967 0.278619
0.152437 0.136374
0.00658952 0.0104637
0.217005 0.220989
0.479355 0.448741
0.211213 0.215648
0.0369444 0.0275283
0.145325 0.120092
0.181183 0.181745
-0.0890428 -0.107203
0.265779 0.267299
0.0922449 0.0705406
-0.104963 -0.10327
0.188754 0.19042
0.5123 0.48546
0.176746 0.179139
-0.0157633 -0.0275785
0.0938117 0.0643519
0.151626 0.149816
-0.186406 -0.205433
0.25578 0.255879
0.0216723 -0.000758472
-0.196976 -0.197926
0.155377 0.154503
0.511019 0.490062
0.141097 0.141742
-0.0685784 -0.0821274
0.0400217 0.00761222
0.123817 0.11948
-0.278483 -0.297496
0.24312 0.241997
-0.0559768 -0.0743468
-0.260365 -0.26471
0.11512 0.110585
1.3149 1.31722
0.219332 0.212024
0.243548 0.247362
-0.374116 -0.38402
0.0160622 0.0136656
-0.762278 -0.785885
0.233703 0.234939
-0.701017 -0.715981
-0.0688654 -0.0659344
0.225346 0.22764
0.445712 0.432069
0.0707496 0.0679412
-0.164961 -0.17987
-0.07377 -0.108274
0.07361 0.0650678
-0.449713 -0.46629
0.216924 0.214488
-0.21 -0.215486
-0.329951 -0.342635
0.0194397 0.0080875
0.403417 0.390984
0.0374406 0.0328635
-0.208369 -0.222875
-0.131484 -0.165774
0.0503645 0.0407208
-0.527481 -0.542156
0.205619 0.203031
-0.286502 -0.284473
-0.3449 -0.361675
-0.0329253 -0.0458219
0.353046 0.339595
0.0011225 -0.00497111
-0.256157 -0.26925
-0.196462 -0.229357
0.030123 0.0193382
-0.595656 -0.607641
0.189679 0.186817
-0.35916 -0.350771
-0.344333 -0.361983
-0.0984154 -0.111302
0.676214 0.670244
0.674657 0.673955
0.596409 0.595409
0.673344 0.670889
0.628154 0.62492
0.611766 0.609286
0.642744 0.640079
0.568642 0.565495
0.652975 0.649633
0.611077 0.606984
0.665963 0.647264
0.636569 0.634363
0.53348 0.527259
0.609643 0.601668
0.607658 0.603747
0.475431 0.469607
0.631518 0.628648
0.511247 0.500597
0.498338 0.494065
0.627858 0.626193
0.710138 0.680325
0.590101 0.586439
0.482755 0.473342
0.530683 0.516603
0.57914 0.575911
0.345505 0.337036
0.628662 0.621964
0.470365 0.457215
0.370929 0.365161
0.634422 0.630324
0.825895 0.78753
0.542678 0.537277
0.435486 0.423546
0.454123 0.434275
0.548981 0.545687
0.216252 0.205405
0.623674 0.614215
0.401385 0.385339
0.260301 0.252192
0.633477 0.627819
0.972765 0.931993
0.495485 0.488069
0.388846 0.375797
0.376916 0.353568
0.52031 0.515016
0.0888412 0.0759376
0.614467 0.603577
0.315019 0.297139
0.163471 0.152648
0.624059 0.613405
1.10511 1.06643
0.449146 0.439446
0.343324 0.330963
0.296646 0.271603
0.494357 0.486897
-0.0350412 -0.0494172
0.602849 0.591386
0.218212 0.201596
0.0843342 0.0714161
0.605666 0.605398
1.51911 1.5205
0.648902 0.642896
0.64175 0.649734
-0.166275 -0.172885
0.348513 0.339137
-0.176682 -0.207854
0.438592 0.42824
-0.0312926 -0.0433878
0.14563 0.155975
0.522482 0.525581
1.21442 1.18003
0.359444 0.345292
0.257414 0.247482
0.132182 0.105341
0.450091 0.440545
-0.267933 -0.2838
0.575165 0.563974
0.0146633 0.00700806
-0.0317972 -0.0451757
0.546042 0.543955
1.18745 1.1537
0.314982 0.300073
0.216752 0.208274
0.0488444 0.02251
0.432571 0.422707
-0.375083 -0.390729
0.561415 0.550581
-0.0868057 -0.0850853
-0.0749071 -0.0875178
0.503004 0.500141
1.12484 1.09106
0.27134 0.25628
0.177085 0.170686
-0.0331969 -0.0583065
0.41855 0.408603
-0.475085 -0.490269
0.547774 0.537476
-0.184079 -0.172347
-0.109473 -0.12182
0.452012 0.447873
0.483305 0.452203
-0.030387 -0.019659
-0.0354597 -0.0320757
-0.0406186 -0.0335604
-0.091134 -0.0893489
-0.0616175 -0.0530313
-0.130664 -0.126471
-0.0687933 -0.0607542
-0.100782 -0.0968611
-0.0709784 -0.0626161
-0.0871946 -0.076816
-0.0391959 -0.0292368
-0.0963906 -0.0855997
-0.0779162 -0.0674578
-0.140222 -0.128791
-0.0773034 -0.0653829
-0.15665 -0.151299
-0.051003 -0.0580811
-0.157042 -0.151594
-0.0436663 -0.0319304
1.32041 1.24289
-0.030413 -0.01973
-0.0548433 -0.0694151
-0.0368929 -0.0308494
-0.232429 -0.241034
-0.0716877 -0.0629665
-0.314749 -0.318588
-0.0848362 -0.0776974
-0.169354 -0.1635
-0.096138 -0.0890499
-0.118616 -0.118761
-0.0530162 -0.044785
-0.139837 -0.116246
-0.203152 -0.201068
-0.163624 -0.1572
-0.189899 -0.183833
-0.0525278 -0.0536036
-0.105706 -0.12045
-0.0874656 -0.0818275
-0.165133 -0.173719
2.21095 2.11502
-0.030448 -0.0197908
-0.0543195 -0.0546519
-0.0270353 -0.0144117
-0.39565 -0.402921
-0.116634 -0.111908
-0.417074 -0.421361
-0.113636 -0.106002
-0.287572 -0.294324
-0.156463 -0.151178
-0.292895 -0.305712
-0.0663077 -0.0598796
-0.19808 -0.202008
-0.109789 -0.105656
-0.33768 -0.339184
-0.178822 -0.176176
-0.331362 -0.336449
-0.091749 -0.0880739
-0.179677 -0.181229
-0.121532 -0.117807
3.09029 3.00429
-0.0304888 -0.0198356
-0.123102 -0.145506
-0.0389127 -0.0497794
-0.491974 -0.505176
-0.105162 -0.103231
-0.610351 -0.618801
-0.151514 -0.151157
-0.288752 -0.294691
-0.158119 -0.165252
-0.225891 -0.240869
-0.0911352 -0.0913604
-0.236559 -0.235179
-0.329796 -0.332238
-0.325344 -0.324057
-0.395033 -0.396308
-0.130364 -0.150241
-0.233997 -0.256427
-0.12964 -0.141682
-0.25698 -0.273379
3.91627 3.88696
-0.0305271 -0.0198572
-0.102884 -0.094775
-0.0327962 -0.0205282
-0.673993 -0.684923
-0.170255 -0.169929
-0.707543 -0.71545
-0.198576 -0.194225
-0.514838 -0.535129
-0.210407 -0.210786
-0.461851 -0.482702
-0.10176 -0.0994219
-0.482989 -0.497075
-0.224454 -0.224345
-0.437467 -0.448165
-0.290107 -0.298075
-0.29109 -0.304722
-0.106868 -0.11621
-0.208963 -0.216601
-0.241577 -0.252692
4.71984 4.75451
-0.0305825 -0.0198889
-0.134413 -0.113831
-0.0357215 -0.0237343
-0.797599 -0.80788
-0.197582 -0.199682
-0.810093 -0.817958
-0.25819 -0.256274
-0.577535 -0.600241
-0.261301 -0.265697
-0.501678 -0.524311
-0.156081 -0.157909
-0.538687 -0.554261
-0.310954 -0.319701
-0.534537 -0.542982
-0.477786 -0.485313
-0.343108 -0.350716
-0.245324 -0.259304
-0.25361 -0.261654
-0.3585 -0.371453
5.53325 5.60201
-0.0306363 -0.0199456
-0.244842 -0.249128
-0.0423101 -0.0592174
-0.834551 -0.845317
-0.152652 -0.154168
-0.944498 -0.94897
-0.296862 -0.300719
-0.435425 -0.454718
-0.268136 -0.276463
-0.269724 -0.299806
-0.121504 -0.147841
-0.454569 -0.450514
-0.85406 -0.85808
-0.342162 -0.332994
-0.823857 -0.81314
-0.289469 -0.293701
-0.503804 -0.507199
-0.248519 -0.237636
-0.391019 -0.417203
6.36374 6.43128
-0.0306751 -0.0199946
-0.285438 -0.282822
-0.0432201 -0.0623896
-0.941051 -0.949351
-0.166557 -0.169312
-1.03813 -1.03904
-0.354424 -0.359285
-0.469048 -0.488185
-0.322308 -0.334819
-0.293037 -0.322818
-0.147456 -0.172082
-0.45256 -0.455381
-0.955272 -0.958647
-0.330145 -0.31497
-0.917982 -0.901248
-0.3063 -0.309817
-0.543051 -0.544094
-0.318152 -0.313115
-0.404659 -0.418619
7.20404 7.2337
-0.0307293 -0.0200424
-0.324988 -0.31602
-0.0441024 -0.0657553
-1.04365 -1.04873
-0.179269 -0.18322
-1.12425 -1.12032
-0.417614 -0.423546
-0.495844 -0.515036
-0.389411 -0.408865
-0.319418 -0.347483
-0.197909 -0.221196
-0.416048 -0.420395
-0.956121 -0.966248
-0.295753 -0.286403
-0.943028 -0.922273
-0.286994 -0.289221
-0.646236 -0.645922
-0.333357 -0.331619
-0.427197 -0.437948
8.05364 8.01604
-0.030765 -0.0200815
-0.363915 -0.349057
-0.0453805 -0.0695186
-1.1427 -1.14387
-0.190765 -0.195871
-1.19957 -1.18921
-0.486117 -0.493083
-0.517867 -0.53715
-0.47275 -0.497234
-0.343861 -0.366845
-0.273155 -0.296841
-0.374334 -0.378369
-0.940792 -0.953048
-0.25676 -0.25044
-0.926377 -0.909646
-0.254689 -0.258073
-0.710445 -0.713907
-0.359124 -0.358765
-0.448771 -0.452034
-0.343652 -0.349123
-0.36372 -0.35513
-0.410482 -0.406509
-0.365552 -0.357491
-0.566656 -0.563318
-0.390004 -0.382168
-0.46329 -0.45913
-0.454285 -0.445183
-0.388441 -0.380565
-0.441258 -0.436605
-0.319384 -0.339725
-0.364848 -0.345076
-0.51128 -0.513423
-0.369325 -0.362909
-0.634153 -0.636018
-0.433181 -0.429093
-0.487113 -0.485808
-0.433028 -0.428596
-0.390589 -0.387355
-0.424895 -0.417503
-0.283612 -0.3152
-0.3648 -0.345233
-0.532003 -0.538444
-0.368843 -0.361694
-0.941323 -0.942954
-0.440677 -0.435571
-0.631578 -0.634435
-0.581178 -0.577877
-0.466685 -0.462783
-0.531885 -0.533024
-0.254413 -0.2789
-0.365518 -0.346095
-0.603293 -0.611453
-0.371011 -0.364307
-1.10491 -1.10527
-0.463069 -0.459158
-0.711719 -0.717061
-0.629753 -0.624403
-0.520976 -0.519578
-0.592343 -0.600123
-0.219791 -0.234393
-0.368685 -0.349407
-0.745609 -0.757504
-0.383682 -0.378845
-1.02151 -1.02733
-0.503589 -0.503804
-0.690556 -0.6981
-0.531159 -0.532576
-0.483823 -0.484001
-0.602127 -0.594944
-0.16946 -0.177185
-0.370119 -0.350868
-0.822334 -0.833859
-0.389651 -0.385299
-1.1432 -1.14746
-0.517284 -0.518429
-0.762762 -0.772748
-0.562701 -0.564734
-0.532649 -0.533825
-0.641262 -0.635462
-0.102673 -0.111072
-0.371601 -0.352337
-0.897501 -0.90741
-0.39629 -0.392518
-1.2607 -1.26176
-0.527855 -0.529742
-0.835535 -0.847274
-0.592921 -0.595285
-0.588693 -0.590503
-0.662138 -0.65749
-0.017351 -0.0320296
-0.368499 -0.34911
-0.920982 -0.92547
-0.385775 -0.380842
-1.61815 -1.59316
-0.544963 -0.545473
-0.997419 -1.00701
-0.810367 -0.802676
-0.77444 -0.778833
-0.872777 -0.8838
0.0709938 0.0496
-0.369241 -0.360799
-1.00518 -1.00529
-0.391255 -0.386802
-1.70403 -1.67142
-0.565883 -0.567426
-1.05964 -1.06803
-0.859858 -0.852645
-0.831401 -0.83565
-0.930441 -0.936584
0.172275 0.137723
-0.370058 -0.36231
-1.08772 -1.08262
-0.397338 -0.393379
-1.76722 -1.731
-0.588374 -0.591142
-1.11917 -1.12579
-0.908016 -0.902174
-0.881984 -0.885312
-0.984456 -0.985967
-0.65711 -0.663021
-0.683976 -0.681634
-0.690571 -0.692087
-0.68304 -0.680947
-0.755417 -0.782846
-0.694181 -0.693062
-0.704032 -0.708572
-0.715913 -0.718571
-0.692392 -0.691158
-0.692125 -0.692623
-0.641604 -0.658919
-0.684835 -0.682607
-0.853031 -0.854596
-0.695672 -0.693807
-1.04685 -1.047
-0.763059 -0.759153
-0.873894 -0.86643
-0.780747 -0.778269
-0.744904 -0.741374
-0.737323 -0.746763
-0.624149 -0.634472
-0.687694 -0.685656
-0.944356 -0.951994
-0.708743 -0.708565
-1.00253 -1.01652
-0.769609 -0.775273
-0.874681 -0.879756
-0.704166 -0.705505
-0.752192 -0.753804
-0.719483 -0.722608
-0.595381 -0.606617
-0.689503 -0.687613
-1.02786 -1.03561
-0.718679 -0.719045
-1.10183 -1.11815
-0.783635 -0.790289
-0.944504 -0.951102
-0.714527 -0.715003
-0.819545 -0.826673
-0.749382 -0.754028
-0.559919 -0.56964
-0.691525 -0.68976
-1.10796 -1.11457
-0.72921 -0.730043
-1.19636 -1.21377
-0.791537 -0.799192
-1.01536 -1.02258
-0.725606 -0.726079
-0.912362 -0.924755
-0.777766 -0.78361
-0.509118 -0.523063
-0.693835 -0.692181
-1.18395 -1.189
-0.74039 -0.741696
-1.28593 -1.30337
-0.795041 -0.803387
-1.08449 -1.0915
-0.736689 -0.738451
-1.02047 -1.03304
-0.800741 -0.814138
-0.44391 -0.466871
-0.696487 -0.69498
-1.25551 -1.259
-0.752079 -0.75378
-1.36944 -1.38603
-0.795303 -0.804208
-1.14794 -1.15411
-0.747624 -0.750474
-1.12894 -1.14042
-0.820296 -0.827508
-0.321211 -0.359517
-0.683989 -0.68204
-0.815506 -0.800376
-0.685437 -0.68477
-1.22815 -1.23702
-0.735327 -0.74056
-0.883021 -0.946489
-0.849219 -0.857871
-0.875844 -0.89403
-0.838288 -0.856539
-0.286812 -0.3272
-0.703006 -0.701966
-1.3846 -1.38425
-0.776728 -0.778804
-1.51126 -1.52438
-0.791449 -0.801334
-1.24062 -1.2448
-0.767101 -0.779889
-1.27818 -1.28741
-0.861694 -0.866139
-0.197459 -0.244424
-0.706963 -0.706183
-1.44154 -1.44026
-0.789873 -0.791984
-1.56851 -1.5794
-0.789044 -0.799608
-1.26392 -1.26873
-0.775199 -0.791589
-1.30143 -1.30936
-0.889064 -0.894789
-1.2713 -1.28991
-1.29599 -1.30697
-1.32833 -1.34203
-1.29637 -1.30783
-1.37515 -1.3915
-1.30669 -1.31803
-1.3612 -1.37622
-1.3 -1.31116
-1.37338 -1.38636
-1.29937 -1.31036
-1.24723 -1.25724
-1.29717 -1.30825
-1.36616 -1.38111
-1.29746 -1.30904
-1.45149 -1.47166
-1.32181 -1.33348
-1.42712 -1.44391
-1.30935 -1.32069
-1.43765 -1.44831
-1.31207 -1.32424
-1.22867 -1.21621
-1.29585 -1.30692
-1.3564 -1.36106
-1.2951 -1.30686
-1.63654 -1.66224
-1.3135 -1.32524
-1.44146 -1.46053
-1.46431 -1.47787
-1.48005 -1.48993
-1.37754 -1.39551
-1.20656 -1.17513
-1.29977 -1.31088
-1.44773 -1.45955
-1.30357 -1.31542
-1.60371 -1.62681
-1.35071 -1.36229
-1.53757 -1.55191
-1.34432 -1.35527
-1.54491 -1.54041
-1.38577 -1.41383
-1.17046 -1.13027
-1.30126 -1.31328
-1.49184 -1.49751
-1.30855 -1.32062
-1.67699 -1.69953
-1.36299 -1.37358
-1.58081 -1.59182
-1.3709 -1.38123
-1.58337 -1.57063
-1.43911 -1.46385
-1.10263 -1.06307
-1.29558 -1.30653
-1.41228 -1.39211
-1.29995 -1.31263
-1.90195 -1.92136
-1.33755 -1.34929
-1.59158 -1.60874
-1.56997 -1.58464
-1.61875 -1.62772
-1.45333 -1.47216
-1.05753 -1.03122
-1.30466 -1.31641
-1.5797 -1.57041
-1.32231 -1.33518
-1.8209 -1.83803
-1.38172 -1.37354
-1.64751 -1.64914
-1.44158 -1.44838
-1.61918 -1.59803
-1.53291 -1.55568
-0.994752 -0.983834
-1.30655 -1.31856
-1.62091 -1.60522
-1.33082 -1.34425
-1.8908 -1.9031
-1.38845 -1.37969
-1.67119 -1.66812
-1.48583 -1.48927
-1.62112 -1.59863
-1.56795 -1.5869
-0.931958 -0.936656
-1.30843 -1.32069
-1.6594 -1.63799
-1.34007 -1.35392
-1.95631 -1.96251
-1.39332 -1.38354
-1.6893 -1.68181
-1.53333 -1.53503
-1.61851 -1.59596
-1.59729 -1.61885
-0.878011 -0.894934
-1.31044 -1.32291
-1.69506 -1.66819
-1.35063 -1.36494
-2.01833 -2.01735
-1.39734 -1.38607
-1.70269 -1.691
-1.58502 -1.58676
-1.61237 -1.59134
-1.62652 -1.64763
0.393726 0.386606
0.308308 0.317584
0.253378 0.258779
0.291657 0.299327
0.270796 0.277285
0.193223 0.210037
0.287668 0.297476
0.19769 0.208046
0.27571 0.28198
0.26756 0.273571
0.396287 0.376411
0.279811 0.287497
0.198483 0.199597
0.190266 0.200073
0.265683 0.270301
-0.0146277 -0.00115028
0.285397 0.292777
0.171034 0.176861
0.192947 0.198199
0.260839 0.267405
0.447095 0.422615
0.251432 0.257579
0.154072 0.15107
0.0988694 0.10903
0.246465 0.249082
-0.187869 -0.177696
0.276018 0.281315
0.102957 0.107311
0.110192 0.114473
0.243361 0.249421
0.507922 0.484316
0.221809 0.226234
0.11556 0.108553
0.0095819 0.0171726
0.226046 0.226733
-0.353704 -0.345398
0.26265 0.266322
0.0110638 0.0156972
0.0318421 0.0347392
0.221118 0.2269
0.542133 0.524316
0.191644 0.194225
0.0793009 0.0692111
-0.0799314 -0.0740401
0.206144 0.204838
-0.512169 -0.504375
0.246026 0.248513
-0.0948901 -0.088294
-0.0356298 -0.0346807
0.194984 0.200189
0.543931 0.534047
0.161066 0.161689
0.0438116 0.0320389
-0.170306 -0.164591
0.187532 0.184274
-0.659248 -0.650913
0.226037 0.227664
-0.206424 -0.195387
-0.0924556 -0.0942099
0.163334 0.167177
1.3609 1.40771
0.245229 0.240164
0.241215 0.231794
-0.191669 -0.197286
0.0936409 0.0922107
-0.403554 -0.432694
0.246692 0.248503
-0.393818 -0.406945
-0.15768 -0.164123
0.212491 0.211844
0.484786 0.483937
0.100537 0.0968924
-0.023699 -0.0369468
-0.351184 -0.34221
0.151227 0.145002
-0.928093 -0.915386
0.180757 0.180544
-0.43545 -0.4121
-0.167474 -0.173851
0.0768712 0.0777593
0.443321 0.443973
0.0712951 0.0655337
-0.0564827 -0.0692425
-0.438491 -0.42691
0.133756 0.12685
-1.04813 -1.03237
0.157683 0.156323
-0.548817 -0.518417
-0.184333 -0.192022
0.0221249 0.0215483
0.397285 0.396785
0.0409367 0.0328565
-0.0886001 -0.0996271
-0.530193 -0.515054
0.118089 0.110943
-1.14645 -1.12746
0.13143 0.12888
-0.642247 -0.603418
-0.208296 -0.21796
-0.0438207 -0.0473629
0.686836 0.679565
0.674541 0.673815
0.604146 0.595403
0.666947 0.665039
0.628911 0.626219
0.593123 0.591151
0.638416 0.640638
0.580588 0.585653
0.645588 0.646091
0.590932 0.589852
0.690956 0.66799
0.638336 0.636222
0.547679 0.535357
0.582342 0.574575
0.618591 0.612518
0.413833 0.408482
0.629324 0.62727
0.480409 0.481388
0.446944 0.448252
0.622472 0.620332
0.742392 0.713868
0.594552 0.590274
0.504456 0.48914
0.482582 0.467758
0.597246 0.586828
0.256297 0.247825
0.621923 0.614906
0.418222 0.410578
0.24584 0.248036
0.627189 0.624419
0.86747 0.835612
0.54994 0.543136
0.464445 0.446405
0.384481 0.364625
0.573658 0.55986
0.104402 0.0932426
0.609371 0.599721
0.327588 0.318664
0.0433966 0.0449461
0.620869 0.618432
1.0278 0.995164
0.505872 0.496372
0.426734 0.406914
0.286972 0.263809
0.55203 0.536993
-0.0448954 -0.0580814
0.592311 0.581865
0.21819 0.209345
-0.130028 -0.129112
0.603755 0.60558
1.17229 1.13995
0.462164 0.449967
0.390302 0.369897
0.186021 0.161398
0.532351 0.516661
-0.189993 -0.204291
0.572968 0.562043
0.0992002 0.0915125
-0.26204 -0.262383
0.573171 0.564107
1.52798 1.53551
0.658856 0.638002
0.65385 0.64724
0.0341466 0.0206931
0.504574 0.496106
-0.363589 -0.386362
0.51443 0.502916
-0.0300682 -0.0458808
0.137408 0.122078
0.557633 0.547167
1.28791 1.25664
0.374992 0.359255
0.322047 0.301708
-0.0256268 -0.0502206
0.498633 0.480954
-0.467842 -0.481202
0.527696 0.516092
-0.150932 -0.150465
-0.418129 -0.419975
0.468554 0.459783
1.25643 1.22454
0.332111 0.315244
0.289248 0.26985
-0.136675 -0.159711
0.48401 0.465236
-0.599399 -0.610733
0.503511 0.491277
-0.275011 -0.266737
-0.460581 -0.463114
0.398002 0.388743
1.18619 1.15358
0.29001 0.272277
0.257108 0.239015
-0.249572 -0.270806
0.470231 0.450631
-0.725705 -0.734196
0.47759 0.464644
-0.39365 -0.376218
-0.491387 -0.494255
0.32093 0.311147
-4.15225e-09 -0.018461
-1.04971e-09 -0.0189388
-0.00720175 -0.0256322
-0.00605411 -0.0247464
-0.0171957 -0.0350533
-0.00934776 -0.0277022
-0.0315142 -0.0501726
-0.013816 -0.0325168
-0.0195566 -0.0374724
-0.0119128 -0.0301987
-0.0236712 -0.0425792
-0.00590835 -0.0245299
-0.0245772 -0.0432436
-0.0179499 -0.0369071
-0.023831 -0.0413121
-0.0109039 -0.029206
-0.0361531 -0.0542469
-0.0122599 -0.0313768
-0.0326296 -0.0499818
-0.00685113 -0.0259004
-7.36611e-09 -0.019429
-3.63473e-09 -0.0189131
-0.0283755 -0.0464156
-0.00639368 -0.0251976
-0.0600078 -0.0765707
-0.0114314 -0.0298306
-0.0950329 -0.11391
-0.0176723 -0.0362678
-0.0577259 -0.0764488
-0.0260064 -0.0444313
-0.0451052 -0.0640192
-0.0107335 -0.0292975
-0.03057 -0.048959
-0.0553359 -0.0742561
-0.0329796 -0.0509618
-0.0364865 -0.0543374
-0.011422 -0.0299354
-0.0500624 -0.0703871
-0.0244472 -0.0427406
-0.051733 -0.0690775
-1.43214e-09 -0.0195303
-3.83525e-09 -0.0189375
-0.027594 -0.0454515
-0.0019195 -0.0205785
-0.115604 -0.132032
-0.0243275 -0.04257
-0.124785 -0.143304
-0.0216061 -0.0399226
-0.089142 -0.107355
-0.048135 -0.067084
-0.0927399 -0.109899
-0.0155338 -0.0339707
-0.0691646 -0.0883828
-0.0286234 -0.0475843
-0.0704886 -0.0873651
-0.0360815 -0.0538442
-0.0981206 -0.116766
-0.0227448 -0.0413058
-0.0480075 -0.0654944
-0.0323829 -0.0508625
1.16528e-08 -0.0203838
-1.46296e-08 -0.0189696
-0.0797875 -0.0972782
-0.00992182 -0.0287244
-0.153981 -0.169631
-0.020772 -0.038976
-0.218609 -0.238633
-0.035715 -0.0539742
-0.11991 -0.138438
-0.0586758 -0.0773319
-0.0881627 -0.106555
-0.0273214 -0.0453622
-0.0691171 -0.0877926
-0.100175 -0.11939
-0.0630588 -0.0796992
-0.0845243 -0.101327
-0.0390916 -0.0569419
-0.0831013 -0.100478
-0.0431355 -0.0609836
-0.104819 -0.120483
1.90797e-08 -0.0209286
-9.62597e-09 -0.0189517
-0.059631 -0.0764703
-0.00360824 -0.0220592
-0.228971 -0.245832
-0.0387359 -0.0568728
-0.240302 -0.260081
-0.0388149 -0.0566344
-0.182641 -0.201462
-0.0574759 -0.0760819
-0.151383 -0.167069
-0.021409 -0.0389999
-0.163058 -0.183039
-0.0554013 -0.0740754
-0.115391 -0.13093
-0.0674518 -0.0837933
-0.111604 -0.129103
-0.0317002 -0.0498437
-0.0736762 -0.0922985
-0.0788216 -0.0972342
3.75551e-08 -0.0213363
-1.33316e-08 -0.0189469
-0.076296 -0.0926026
-0.00459855 -0.0230671
-0.287351 -0.304484
-0.046411 -0.0644272
-0.287691 -0.307981
-0.0542124 -0.0718826
-0.208897 -0.227916
-0.0710578 -0.0894433
-0.162217 -0.177655
-0.0355712 -0.052515
-0.168514 -0.188285
-0.0896702 -0.108447
-0.121957 -0.136474
-0.109893 -0.124886
-0.119779 -0.138554
-0.0751575 -0.0930889
-0.0667466 -0.0846299
-0.108557 -0.126228
1.24728e-07 -0.0224039
-4.59145e-08 -0.0189504
-0.167057 -0.183447
-0.0165542 -0.0354036
-0.313673 -0.328979
-0.0355785 -0.0533089
-0.390148 -0.410864
-0.0820508 -0.100337
-0.166526 -0.182913
-0.0894776 -0.106796
-0.100071 -0.116314
-0.0492919 -0.0659117
-0.0982331 -0.115409
-0.248019 -0.26791
-0.0826515 -0.101207
-0.236131 -0.25441
-0.0560589 -0.07278
-0.224366 -0.244023
-0.0965775 -0.115996
-0.194279 -0.209696
1.87741e-07 -0.0227917
-6.08847e-08 -0.0189471
-0.199527 -0.215322
-0.0187802 -0.0376518
-0.37215 -0.387381
-0.0403987 -0.0580692
-0.442266 -0.462984
-0.101234 -0.119632
-0.17439 -0.190434
-0.104637 -0.121253
-0.108834 -0.124815
-0.0626733 -0.078929
-0.0965146 -0.113105
-0.304592 -0.323694
-0.084648 -0.103426
-0.303095 -0.321955
-0.0668158 -0.0835287
-0.227124 -0.246513
-0.125635 -0.144839
-0.204324 -0.221183
2.59691e-07 -0.0235222
-7.7217e-08 -0.0189415
-0.233822 -0.248858
-0.0210114 -0.0398735
-0.432914 -0.448034
-0.0450722 -0.0626144
-0.490739 -0.511686
-0.12185 -0.140538
-0.182507 -0.198565
-0.128122 -0.143887
-0.123021 -0.139351
-0.0859951 -0.102144
-0.0915052 -0.107726
-0.350911 -0.369159
-0.087608 -0.106713
-0.351241 -0.371932
-0.0737531 -0.0905075
-0.248158 -0.266584
-0.116 -0.134612
-0.198549 -0.215978
3.4516e-07 -0.0238508
-9.62721e-08 -0.0189631
-0.26994 -0.284502
-0.0232574 -0.0420938
-0.495671 -0.510959
-0.0496411 -0.0671158
-0.534811 -0.555993
-0.143587 -0.162551
-0.190898 -0.207062
-0.162942 -0.178127
-0.139118 -0.156232
-0.126189 -0.142183
-0.0839629 -0.100001
-0.383483 -0.401531
-0.0922905 -0.111792
-0.376306 -0.398222
-0.0772913 -0.0940596
-0.280262 -0.29871
-0.115211 -0.133694
-0.165454 -0.183109
-0.000147524 -0.0184658
-1.96493e-05 -0.018536
-0.0156232 -0.0340515
-0.00127567 -0.0196846
-0.0554018 -0.0736042
-0.00692488 -0.0253239
-0.0218255 -0.0393582
-0.0239973 -0.0420978
-0.0050464 -0.0233488
-0.0267702 -0.045354
-0.000582765 -0.0186767
-0.000216005 -0.0188337
-0.0470619 -0.0645789
-0.00389523 -0.0223792
-0.0745862 -0.0910481
-0.0286534 -0.0473082
-0.0407478 -0.0588343
-0.0336072 -0.052201
-0.0106201 -0.0289538
-0.0364572 -0.0554104
-0.000492687 -0.0183933
-0.000120036 -0.0187168
-0.0588486 -0.0772496
-0.0030059 -0.0214171
-0.185715 -0.205406
-0.0206156 -0.0386943
-0.0636527 -0.0803697
-0.0602442 -0.0781129
-0.021531 -0.0391697
-0.0629096 -0.0813751
-0.000643382 -0.0184493
-0.000194244 -0.0187603
-0.0844935 -0.102837
-0.00413025 -0.0224996
-0.256032 -0.276722
-0.0270237 -0.0451454
-0.0861406 -0.102654
-0.0751301 -0.092984
-0.0339766 -0.0512979
-0.0844966 -0.102936
-0.0013374 -0.0189468
-0.000848357 -0.0193822
-0.137349 -0.15446
-0.0111842 -0.0297385
-0.214979 -0.231566
-0.0604435 -0.079451
-0.116889 -0.135418
-0.0729498 -0.0917321
-0.0503237 -0.0686661
-0.122676 -0.142592
-0.00149616 -0.0189244
-0.00112281 -0.0196174
-0.171285 -0.188352
-0.0140186 -0.0325699
-0.269181 -0.286025
-0.0672932 -0.086369
-0.14699 -0.165763
-0.0851877 -0.104017
-0.0728684 -0.0913267
-0.148169 -0.168343
-0.00159989 -0.0188882
-0.00143246 -0.019904
-0.207228 -0.224193
-0.0170866 -0.0356536
-0.326518 -0.343483
-0.0730375 -0.0921783
-0.17883 -0.197884
-0.0970839 -0.11593
-0.100255 -0.118817
-0.168486 -0.188651
-0.000943098 -0.0182237
-0.000667723 -0.0192125
-0.21408 -0.231521
-0.0110693 -0.0294538
-0.556707 -0.583897
-0.052741 -0.0705554
-0.182816 -0.199764
-0.136061 -0.154188
-0.103255 -0.119729
-0.169067 -0.187616
-0.00091784 -0.0181121
-0.000841986 -0.0193942
-0.253323 -0.270461
-0.0135026 -0.0319372
-0.630249 -0.662207
-0.0600909 -0.0776626
-0.206969 -0.224042
-0.153843 -0.17226
-0.122131 -0.138526
-0.186401 -0.204624
-0.000853913 -0.0178697
-0.00104121 -0.0195349
-0.29437 -0.311299
-0.0162326 -0.0346769
-0.697554 -0.737483
-0.0681405 -0.0856032
-0.230401 -0.247516
-0.172066 -0.190859
-0.140778 -0.157196
-0.202456 -0.219889
-0.0002055 -0.018304
-3.00672e-05 -0.0183646
-0.015015 -0.0331932
-0.00104547 -0.0192653
-0.0566326 -0.0739653
-0.00801294 -0.0261592
-0.0225411 -0.0397749
-0.0252071 -0.0433613
-0.00557024 -0.0237301
-0.0187548 -0.037155
-0.000870002 -0.0187557
-0.000245872 -0.0186689
-0.0444969 -0.0626822
-0.00281231 -0.0210528
-0.0982201 -0.115233
-0.020598 -0.0389693
-0.0463837 -0.0629918
-0.0274583 -0.0457478
-0.0154241 -0.0334929
-0.0259772 -0.0438544
-0.0033903 -0.021115
-0.00125727 -0.0195296
-0.105275 -0.122565
-0.0129694 -0.0313676
-0.107416 -0.123189
-0.0386002 -0.0572831
-0.0753788 -0.0936492
-0.0144735 -0.0329083
-0.0489649 -0.0674128
-0.027751 -0.0460561
-0.00437931 -0.0218774
-0.00187753 -0.020049
-0.145314 -0.162633
-0.0178929 -0.0362776
-0.146471 -0.162068
-0.0451038 -0.0638365
-0.107011 -0.125535
-0.0186507 -0.0370111
-0.0816504 -0.100301
-0.0424918 -0.060836
-0.00523959 -0.0225211
-0.00255384 -0.020691
-0.187175 -0.204522
-0.0230678 -0.0415103
-0.186253 -0.201881
-0.0490312 -0.0677838
-0.141202 -0.159902
-0.0224622 -0.0407132
-0.125034 -0.144138
-0.055061 -0.0734006
-0.00597439 -0.0228856
-0.00329936 -0.0213896
-0.230604 -0.247983
-0.0284283 -0.0469739
-0.226169 -0.241912
-0.0512464 -0.0700032
-0.176692 -0.195629
-0.0262509 -0.044481
-0.178158 -0.197845
-0.0638023 -0.0820824
-0.006562 -0.0230858
-0.00412522 -0.022199
-0.275565 -0.293097
-0.0339746 -0.0525929
-0.265293 -0.281167
-0.0523765 -0.0711604
-0.211716 -0.230741
-0.0303952 -0.0485707
-0.236543 -0.257073
-0.0691042 -0.0872979
-0.00148119 -0.0186183
-0.000758486 -0.0191633
-0.173823 -0.190464
-0.00753533 -0.0256901
-0.547643 -0.569102
-0.0491778 -0.0671556
-0.219709 -0.229628
-0.122735 -0.141438
-0.16368 -0.181109
-0.115759 -0.133693
-0.00708217 -0.0229046
-0.00612634 -0.0241475
-0.368555 -0.387014
-0.0457609 -0.0646061
-0.337521 -0.353767
-0.0534532 -0.0721963
-0.273735 -0.292704
-0.0406247 -0.0586061
-0.339455 -0.361626
-0.0781403 -0.095975
-0.00690569 -0.0223071
-0.00735131 -0.0253656
-0.415658 -0.435504
-0.0522143 -0.0711407
-0.369278 -0.385632
-0.0539024 -0.0726219
-0.298379 -0.317321
-0.0469154 -0.0647051
-0.369785 -0.392469
-0.0862876 -0.103825
-0.000981921 -0.0185957
-0.000202291 -0.0186035
-0.0187041 -0.0362399
-0.00101811 -0.0188314
-0.0345203 -0.0513267
-0.00496268 -0.0227108
-0.0305192 -0.048275
-0.00337354 -0.0213422
-0.0355985 -0.0538572
-0.00415306 -0.0220019
-0.00221169 -0.019751
-0.000667971 -0.0186731
-0.0405752 -0.057655
-0.00243473 -0.0201483
-0.0691117 -0.085264
-0.0118358 -0.0296976
-0.063038 -0.0810528
-0.00920001 -0.0270107
-0.0688731 -0.087416
-0.0137674 -0.0314608
-0.000360948 -0.0176544
-0.000153822 -0.0187399
-0.0392853 -0.0560533
-0.00191146 -0.0196149
-0.161486 -0.177014
-0.00820546 -0.0259354
-0.0713153 -0.0875949
-0.0625808 -0.0805382
-0.0712287 -0.0893101
-0.0571038 -0.0752311
-0.0042142 -0.0214174
-0.0019896 -0.0197969
-0.0866948 -0.103116
-0.00730803 -0.0250608
-0.142907 -0.158458
-0.0266544 -0.0447783
-0.124705 -0.143354
-0.0258752 -0.0438389
-0.123521 -0.14242
-0.051793 -0.0691832
-0.00494896 -0.0220433
-0.00281895 -0.0206375
-0.11133 -0.127335
-0.0107306 -0.0284104
-0.182682 -0.198198
-0.0340605 -0.0522747
-0.152288 -0.171243
-0.0365929 -0.0545589
-0.141877 -0.160772
-0.0766629 -0.0939925
-0.000564829 -0.0174718
-0.000433228 -0.0187394
-0.0815498 -0.0969019
-0.00628449 -0.0239371
-0.324783 -0.33986
-0.0197706 -0.0374497
-0.155082 -0.170842
-0.112053 -0.130076
-0.146071 -0.164806
-0.103942 -0.122147
-0.00580664 -0.0224379
-0.00479384 -0.0225289
-0.163712 -0.178856
-0.019621 -0.0372036
-0.269198 -0.284744
-0.0477792 -0.0662014
-0.200797 -0.22032
-0.0618091 -0.0797812
-0.16023 -0.179033
-0.124646 -0.14186
-0.00591714 -0.0223599
-0.00594752 -0.0236167
-0.19115 -0.205781
-0.0251677 -0.0427771
-0.316044 -0.331598
-0.054069 -0.0725519
-0.221578 -0.241452
-0.0762879 -0.0941292
-0.161076 -0.179763
-0.145639 -0.162481
-0.00589427 -0.0221681
-0.00714861 -0.0248236
-0.21852 -0.232622
-0.0312568 -0.0488374
-0.364171 -0.379892
-0.0597742 -0.0783292
-0.239818 -0.260008
-0.0913044 -0.109186
-0.158812 -0.177281
-0.166445 -0.182869
-0.0057861 -0.0219556
-0.00849321 -0.0261199
-0.246709 -0.260342
-0.0382908 -0.0558811
-0.413803 -0.429773
-0.0654952 -0.084062
-0.256637 -0.277046
-0.107091 -0.124927
-0.153303 -0.171401
-0.189687 -0.20538
-0.0120214 -0.0309742
-0.00222807 -0.0210832
-0.0209964 -0.0398285
-0.00484475 -0.0234546
-0.0167872 -0.0358321
-0.0239083 -0.0419547
-0.010516 -0.0298386
-0.0513862 -0.0726987
-0.0160474 -0.0351182
-0.0194931 -0.0385679
-0.0480898 -0.0673147
-0.00966599 -0.0284131
-0.0409953 -0.0598346
-0.0234852 -0.0411526
-0.02089 -0.0401269
-0.0622414 -0.0789671
-0.0155927 -0.0351371
-0.0490864 -0.0682411
-0.0538098 -0.0740812
-0.0257124 -0.0450931
-0.0813407 -0.101128
-0.0175521 -0.0361997
-0.0584739 -0.0775203
-0.0424774 -0.0595113
-0.0286759 -0.0479307
-0.100763 -0.116996
-0.0193785 -0.0388829
-0.0682847 -0.0868637
-0.0905428 -0.112023
-0.0346014 -0.05414
-0.111187 -0.131717
-0.0262771 -0.0448662
-0.0746178 -0.0938336
-0.0628957 -0.0793992
-0.0368875 -0.0561875
-0.142958 -0.158921
-0.0225956 -0.0420565
-0.0959741 -0.113799
-0.124174 -0.146479
-0.0442437 -0.0639224
-0.1383 -0.159792
-0.0356133 -0.05431
-0.0903047 -0.10977
-0.0849413 -0.101198
-0.0451615 -0.0645347
-0.18846 -0.204278
-0.0257611 -0.0450446
-0.1304 -0.147507
-0.152036 -0.174864
-0.0548341 -0.0745567
-0.163575 -0.186013
-0.0455216 -0.0642629
-0.106121 -0.125868
-0.108929 -0.124857
-0.053245 -0.0728108
-0.235799 -0.251555
-0.029547 -0.0487274
-0.171739 -0.188075
-0.171068 -0.194073
-0.0671915 -0.0870883
-0.00337462 -0.0231219
-0.024458 -0.0429165
-0.0368178 -0.0556208
-0.184474 -0.203023
-0.0840564 -0.103907
-0.270624 -0.288445
-0.0208998 -0.0396792
-0.285887 -0.302885
-0.159613 -0.181222
-0.0442054 -0.0643221
-0.200063 -0.224167
-0.0663923 -0.085395
-0.136701 -0.157095
-0.161791 -0.177403
-0.0686719 -0.0885832
-0.335367 -0.350781
-0.0371068 -0.0561515
-0.268208 -0.282871
-0.191233 -0.214556
-0.0975566 -0.117893
-0.210488 -0.235065
-0.0770007 -0.0961721
-0.151488 -0.172176
-0.189689 -0.205179
-0.0758626 -0.0959389
-0.38589 -0.401015
-0.040419 -0.0594596
-0.321243 -0.335063
-0.193441 -0.216855
-0.115155 -0.135681
-0.21803 -0.242966
-0.0884207 -0.107772
-0.166812 -0.187684
-0.221235 -0.236441
-0.0827373 -0.102985
-0.432331 -0.447426
-0.045273 -0.0643122
-0.374188 -0.387707
-0.192931 -0.215952
-0.134586 -0.155547
-0.0078893 -0.0269875
-0.00181904 -0.0208838
-0.0208084 -0.0404231
-0.00279278 -0.0217114
-0.0176468 -0.0369008
-0.0164425 -0.0348246
-0.0156097 -0.0349462
-0.0478625 -0.0695753
-0.0101469 -0.0294878
-0.0247197 -0.0443507
-0.0331312 -0.0524024
-0.00998376 -0.0289408
-0.0378929 -0.0570658
-0.0176826 -0.0358956
-0.0211167 -0.0404033
-0.04511 -0.0618139
-0.0232226 -0.0429843
-0.0625034 -0.0825057
-0.0617252 -0.0823715
-0.0199806 -0.0397354
-0.0614249 -0.0810015
-0.0204641 -0.039316
-0.0520544 -0.0714554
-0.0382533 -0.0556949
-0.027376 -0.0466356
-0.0765865 -0.092305
-0.0261532 -0.0458889
-0.0741836 -0.0931872
-0.114014 -0.135828
-0.0193161 -0.0390356
-0.0857643 -0.105849
-0.0317512 -0.0505508
-0.0656622 -0.0853169
-0.0606704 -0.0775215
-0.0346686 -0.0540233
-0.113132 -0.128334
-0.0285107 -0.0481853
-0.0957913 -0.113867
-0.166856 -0.189725
-0.0203196 -0.0399625
-0.103543 -0.124545
-0.0435911 -0.0623839
-0.0789478 -0.0989693
-0.0849577 -0.10137
-0.0418667 -0.0613192
-0.15477 -0.169729
-0.0311744 -0.0507643
-0.125755 -0.143183
-0.215894 -0.23951
-0.0232549 -0.0427832
-0.115393 -0.137494
-0.0559016 -0.0747879
-0.0917854 -0.112077
-0.111781 -0.127666
-0.0487616 -0.0682832
-0.200421 -0.215426
-0.033891 -0.0533747
-0.162183 -0.179196
-0.256386 -0.280781
-0.0285087 -0.0480376
-0.0180599 -0.0376771
-0.0118165 -0.0307017
-0.0190595 -0.0377087
-0.211088 -0.231466
-0.0744835 -0.0943061
-0.247165 -0.263621
-0.0566615 -0.0759724
-0.186363 -0.20454
-0.230042 -0.255573
-0.046445 -0.0662817
-0.12906 -0.152786
-0.0814084 -0.100535
-0.116573 -0.13737
-0.172751 -0.187651
-0.0615258 -0.0812803
-0.300409 -0.316014
-0.0393662 -0.0587332
-0.250104 -0.266458
-0.307221 -0.331929
-0.0467999 -0.0663275
-0.132809 -0.156715
-0.0944883 -0.113593
-0.128778 -0.149756
-0.206935 -0.221209
-0.0673569 -0.0873436
-0.353134 -0.369191
-0.0420102 -0.0612124
-0.299219 -0.315134
-0.321408 -0.345973
-0.0597718 -0.0792939
-0.134778 -0.158408
-0.107638 -0.126862
-0.141048 -0.162195
-0.243293 -0.256971
-0.0727903 -0.0928856
-0.406848 -0.423612
-0.044686 -0.0638775
-0.350082 -0.365612
-0.331419 -0.355795
-0.0749104 -0.0945397
0.00703081 0.00731167
0.000153744 0.000132083
0.0115311 0.00953708
0.0114994 0.00954333
0.0149419 0.00580542
0.00654721 0.00678528
0.0243624 0.0188038
0.0106589 0.00903194
0.0240009 0.00837694
0.0154967 0.0128001
0.0253385 0.0215489
0.00482343 0.00425694
0.0266115 0.0144565
0.0163829 0.0147121
0.0459478 0.0248303
0.020281 2.52778e-05
0.037135 0.0374119
0.0021628 0.0114338
0.0527131 0.0290297
0.00410447 0.00424347
0.0141478 0.013976
8.40664e-05 6.05556e-05
0.0411124 0.0373811
0.0121708 0.00952778
0.0454343 0.0328124
0.00955198 0.00877125
0.0695844 0.0594217
0.0132514 0.00926167
0.0357948 0.0226815
0.0190996 0.0132304
0.037208 0.0179935
0.0146515 0.013224
0.0351235 0.0271943
0.0753129 0.0716304
0.0363976 0.0359753
0.0278685 0.0278017
0.0123832 0.0140318
0.0272316 0.0371499
0.0164841 0.0166097
0.0252784 0.0133907
0.0235138 0.0254476
1.6733e-05 4.16667e-07
0.0235243 0.024426
0.00954872 0.0283571
-0.0818805 -0.07132
-0.00917731 -0.0078075
-0.0335225 -0.0324625
-0.00588341 -0.00589389
-0.023582 -0.0205026
0.0116584 0.0141892
-0.0436901 -0.0264465
-0.0156419 -0.0135106
0.0496292 0.0450285
0.0107746 0.0135785
-0.00800368 -0.00652111
-0.0124518 -0.0119407
-0.0143759 -0.0172426
-0.0042554 -0.00301861
0.0313526 0.0318569
0.0116296 0.0095032
0.0375829 0.0418339
-4.62639e-05 -5.61111e-05
0.0937585 0.111185
0.0161904 0.0290843
0.0953762 0.0839178
0.0169755 0.00682556
0.139353 0.126512
0.0290655 0.0182964
0.0716653 0.0571865
0.0291574 0.0321568
0.0532722 0.0524797
0.037025 0.0301525
0.0750006 0.0743925
0.11626 0.109878
0.0709864 0.0702861
0.0647311 0.0639564
0.023146 0.0229138
0.0400908 0.0412078
0.00087512 0.00663319
0.0219534 0.0196456
0.0604196 0.0632699
-0.000115151 -0.000135278
0.0358358 0.0563436
0.0112994 0.0284831
-0.134679 -0.120525
-0.0148243 -0.0128604
-0.0604576 -0.0577999
-0.0121508 -0.0125443
-0.0333954 -0.0206706
0.0223384 0.0228607
-0.0949289 -0.0781383
-0.0220073 -0.0189218
0.0876196 0.0794658
0.00345571 0.0102394
-0.133366 -0.125688
-0.0878346 -0.07366
-0.0942918 -0.0915674
-0.0327212 -0.0205382
-0.0690525 -0.0653022
-0.089193 -0.0835064
0.0792813 0.0895256
-0.000200257 -0.000211111
0.0436623 0.0731339
0.0125196 0.0288307
-0.156356 -0.14035
-0.0188401 -0.0165206
-0.0680088 -0.0644975
-0.0161322 -0.0165011
-0.0301693 -0.0144228
0.0264834 0.0268365
-0.10842 -0.0910932
-0.0329245 -0.0282526
0.0728832 0.0651094
-0.00144393 0.00430778
-0.171741 -0.153113
-0.1529 -0.131308
-0.084505 -0.0837918
-0.0516442 -0.0421881
-0.0563341 -0.0514919
-0.109324 -0.101565
0.10115 0.119529
-0.000286753 -0.000296667
0.174549 0.227526
0.0253484 0.0357333
0.153834 0.14137
0.0284688 0.0182806
0.210729 0.195177
0.0685269 0.0587265
0.114156 0.106611
0.0775667 0.0782972
0.0892148 0.0880958
0.0684602 0.0639174
0.0289791 0.0285049
-0.00953159 -0.00868819
-0.0320501 -0.0343507
-0.00616663 -0.00179583
0.0536312 0.0546824
0.0525091 0.0491071
0.0143529 0.00480847
0.0282642 0.0221753
0.128412 0.154607
-0.000368126 -0.000375278
0.204696 0.264194
0.0282602 0.0375262
0.169704 0.157122
0.0321967 0.0219443
0.228293 0.212194
0.0827637 0.0738689
0.123399 0.116628
0.0998693 0.0969807
0.0992937 0.0986463
0.0730653 0.0724492
0.0322255 0.0335861
-0.0463033 -0.0438517
-0.0470858 -0.0455899
-0.043523 -0.0317453
0.0664642 0.0671743
-0.0364277 -0.0361581
-0.00677107 -0.0186867
0.0124906 0.00641444
0.157581 0.189426
-0.000428034 -0.000445694
0.237044 0.30051
0.0310771 0.0389531
0.183497 0.170896
0.0355886 0.0253403
0.24319 0.226372
0.0970903 0.0890511
0.12988 0.123239
0.121619 0.112713
0.0991394 0.100164
0.0752588 0.0773572
0.047806 0.0487364
-0.0405371 -0.0375883
-0.0343829 -0.0333868
-0.0452149 -0.0327864
0.081302 0.0827914
-0.103208 -0.104709
-0.0155577 -0.0279714
0.00430126 0.00164042
0.193005 0.227462
-0.000483856 -0.000507222
0.271605 0.336415
0.0334647 0.0394656
0.195879 0.183167
0.0385443 0.0284997
0.256134 0.238053
0.11069 0.103376
0.135613 0.128369
0.142018 0.129536
0.0875742 0.0882711
0.0768099 0.0806853
0.0557223 0.057426
-0.044255 -0.0391203
-0.0231349 -0.0238664
-0.0475436 -0.0471636
0.0922645 0.0939229
-0.125618 -0.129831
-0.0121373 -0.0177167
-0.019688 -0.00512694
0.0230021 0.0254556
-3.56686e-05 -0.000179861
-0.0116853 -0.010956
-0.00209754 -0.00185597
-0.012841 -0.0140485
-0.000729327 -0.000761111
0.00382283 0.00377486
-0.00550347 -0.0113972
0.000774836 0.000743333
-0.0104459 -0.0111079
0.0664261 0.0620606
-0.000576644 0.0185856
-0.000319353 -0.000496528
7.82104e-05 0.000455278
0.00054086 -0.000969167
-0.0252126 -0.0216471
-0.0180547 -0.0169435
-0.0169118 0.00243931
-0.00228128 0.00731125
-0.00921536 -0.00383
0.118386 0.104494
-0.00129916 0.0175929
-0.0393192 -0.0392169
-0.00449996 -0.00462083
-0.0282901 -0.0286999
0.00352687 0.00312486
0.0180191 0.0169749
-0.00572295 -0.00862264
0.00715114 0.00695792
0.0109996 0.00828306
0.171722 0.152398
-0.00206978 0.0167636
-0.0543166 -0.0544451
-0.00495286 -0.00492208
-0.0308405 -0.0317021
0.0067057 0.00632819
0.0294186 0.0275389
-0.00288222 -0.00904389
0.0118101 0.0116303
0.0395126 0.0364686
0.232572 0.205403
-0.00275113 0.0159126
0.00267648 0.00218306
-0.00313598 -0.00294569
0.00655691 0.00507819
-0.0460524 -0.0418133
-0.0362212 -0.0356444
-0.0310507 -0.0142411
-0.00412695 0.000129167
-0.0146398 0.000681667
0.300932 0.261926
-0.00332414 0.0152581
0.00506687 0.00448958
-0.00511981 -0.00514861
0.00986188 0.00831556
-0.0483467 -0.0441932
-0.0386854 -0.0384525
-0.0320695 -0.0163335
-0.00651851 -0.00355583
-0.00750835 0.00777681
0.367762 0.323158
-0.00377404 0.0147101
0.00755502 0.00709514
-0.00753969 -0.00770736
0.0130736 0.0112853
-0.049329 -0.0453811
-0.0393085 -0.0400094
-0.0325049 -0.0177126
-0.0111007 -0.00876708
0.00318265 0.0181961
0.429135 0.387831
-0.00424742 0.0147521
-0.112198 -0.110455
-0.00464127 -0.00481181
-0.0230543 -0.0291303
0.0274011 0.0265831
0.0931059 0.0877524
0.0201147 0.00943625
0.0340027 0.0335415
0.142901 0.138615
0.499972 0.458797
-0.00460825 -0.00544667
-0.123041 -0.121362
-0.00415309 -0.00447417
-0.0175546 -0.0262478
0.0361044 0.0350824
0.112312 0.106136
0.0240795 0.0139146
0.040263 0.0395193
0.160577 0.15274
0.605547 0.536026
-0.00502732 -0.00559792
-0.131456 -0.129969
-0.003486 -0.00392278
-0.010509 -0.0223185
0.0465226 0.0450836
0.131596 0.124946
0.0271961 0.018429
0.0473922 0.0462237
0.172079 0.160029
0.0212848 0.0250876
2.72954e-05 -3.97222e-05
0.00305649 0.00293361
0.00013957 -5.20833e-05
-0.00691325 0.000114306
0.000282427 -0.000822083
-0.000131873 -0.000103889
-0.00336028 0.00190194
0.00108032 0.00124986
-0.00320263 -0.00297375
0.0602363 0.0599318
0.000223297 9.04167e-05
0.0240756 0.0230204
0.00111204 0.000749583
0.0687284 0.0582636
0.00126137 0.000303889
0.0541561 0.0322071
0.00662764 0.00488986
0.0102248 0.00603458
-0.00497134 0.00939944
0.102506 0.11566
0.00231875 0.0021725
0.0979217 0.0943488
0.0100693 0.00936306
0.112285 0.107983
0.0334758 0.0212357
0.0680356 0.0644279
0.00484888 0.00450667
0.0413744 0.0251972
0.00377819 0.00254833
0.13774 0.152816
0.00363879 0.00348556
0.124003 0.119739
0.013338 0.0124007
0.142231 0.136436
0.0397539 0.0274153
0.090969 0.086126
0.00736328 0.0106893
0.0706127 0.0529447
0.00570969 0.00440417
0.181517 0.19315
0.00497766 0.00485403
0.147571 0.14229
0.0162342 0.0150972
0.170591 0.163322
0.0443573 0.031681
0.111884 0.105911
0.0127192 0.026679
0.106861 0.0953196
0.00582794 0.00586514
0.234921 0.238279
0.00624144 0.00610236
0.168815 0.162466
0.0184737 0.0171851
0.197417 0.188984
0.0479652 0.0350015
0.130289 0.123265
0.0205575 0.0250281
0.145387 0.134808
0.0041069 0.0169436
0.294952 0.289257
0.00741499 0.0072625
0.187691 0.18039
0.0200344 0.0186804
0.222611 0.213385
0.0511459 0.0380985
0.146105 0.138509
0.0304641 0.0292107
0.181085 0.168939
0.00197421 0.00433333
0.360998 0.347267
0.0018412 0.00177514
0.0142398 0.0074875
-0.00351262 -0.00162611
-0.024721 -0.00773667
0.00897627 0.0106606
0.00631511 0.00955694
-0.0329472 -0.0292797
-0.0225307 -0.0149325
0.0159362 0.0191599
0.420346 0.410784
0.00967247 0.00935583
0.218299 0.208454
0.0215213 0.02045
0.266459 0.257243
0.0573441 0.0444387
0.168212 0.160635
0.0523584 0.0409785
0.221077 0.211833
-0.00150669 -0.00391042
0.513592 0.481571
0.0108982 0.0104865
0.230461 0.218571
0.0218731 0.0214626
0.285103 0.276781
0.0607758 0.0479311
0.174322 0.167142
0.0629138 0.0480082
0.224733 0.220835
-0.00134401 -0.00454611
0.0173093 0.0242076
0.000485402 0.000666111
0.00858458 0.00848319
0.000320262 0.000475556
0.0142007 0.0136153
-0.00133914 -0.00109792
-0.00447642 -0.00386444
0.000744057 0.000614167
-0.0144938 -0.0140368
0.000956362 0.00176236
0.0593376 0.0613119
0.000714796 0.000960972
0.0197141 0.0186511
0.0012071 0.00129861
0.027405 0.0258399
-0.00326359 -0.00269236
-0.00705596 -0.00499153
0.00107351 0.00101181
-0.024451 -0.0234925
0.000286132 0.00166403
0.097536 0.0961682
0.00087239 0.00109042
0.0345379 0.0492399
0.00377402 0.00358403
-0.0745685 -0.0656151
0.00509412 0.00515139
-0.0189144 -0.0150343
0.0170696 0.017389
0.0102688 0.0113831
-0.00716246 -0.00416861
0.134442 0.152631
0.00156688 0.00207028
0.0438873 0.03784
0.00494951 0.00478972
0.0492056 0.0457146
-0.0060753 -0.00505278
0.00430952 0.00330944
0.00122519 0.00193458
-0.0393909 -0.0359268
0.00017646 0.00430514
0.168395 0.189291
0.00209156 0.00143889
0.0547922 0.0476476
0.00728888 0.0070775
0.0593548 0.0552524
-0.0070866 -0.00626556
0.0166198 0.0144301
0.00250559 0.00383431
-0.0409728 -0.0378578
0.00798012 0.0125026
0.205412 0.220373
0.0020309 0.00236722
0.0833034 0.0904314
0.00691563 0.00658528
-0.116411 -0.100625
0.00890859 0.00969931
-0.0364092 -0.0314808
0.0556387 0.0589739
0.0407689 0.0460976
-0.00434732 0.00290778
0.239916 0.258986
0.00341345 0.00367319
0.0738396 0.0669978
0.0123774 0.0122192
0.0763446 0.0719479
-0.00860709 0.00193583
0.0494622 0.0432837
0.011564 0.0146911
-0.0315162 -0.029669
0.0433695 0.0467319
0.267629 0.289299
0.00430962 0.00452222
0.0838113 0.0768636
0.0153645 0.0152492
0.084051 0.0796868
-0.00858252 0.00374167
0.0679301 0.0600331
0.0209038 0.0261415
-0.0205272 -0.018324
0.0655112 0.0621192
0.292903 0.317937
0.00533953 0.00563736
0.0953879 0.0875278
0.0184503 0.018355
0.0899445 0.0861265
-0.00764031 0.00472847
0.0861139 0.07698
0.0347003 0.0413425
-0.00596869 -0.00256194
0.0887249 0.0751933
0.314846 0.341729
0.00649469 0.00679847
0.106958 0.0978526
0.0214242 0.0213901
0.0948147 0.0920032
-0.0062609 0.00527236
0.101082 0.0915276
0.0523992 0.0590849
0.0103795 0.0157944
0.111767 0.0949943
0.000391184 -0.000831389
0.000290117 0.000235417
0.0110442 0.0112356
-0.00182791 -0.00131806
0.00282112 0.00378639
-0.000426596 0.00106389
0.000475722 0.000937222
0.00931046 0.0107225
0.005632 0.00664417
0.0083273 0.00892778
0.00581598 0.00598208
0.00169307 0.00175306
0.0198829 0.0205392
-0.00914018 -0.00799972
0.00792684 0.00917931
-0.0095386 -0.00800972
0.00246901 0.00392653
0.00770035 0.003845
0.0150166 0.0164279
0.0059751 0.00671653
0.00451417 0.00981
0.00282469 0.00293375
0.0267177 0.0279504
-0.0173495 -0.0145392
0.0113142 0.013079
-0.0185399 -0.01687
0.00308403 0.00527333
0.00466396 0.000388333
0.0245667 0.0264329
0.00663256 0.00782333
0.00100682 0.0105231
0.00396306 0.00392347
0.0327304 0.0345214
-0.0253413 -0.0210856
0.0141265 0.0164356
-0.0265552 -0.0245006
0.00333432 0.00587486
0.00100136 -0.00228472
0.0336321 0.0358067
0.00856666 0.00994528
-0.00232867 0.0105018
0.00506851 0.00481833
0.0385381 0.0405222
-0.0320273 -0.0268117
0.0166982 0.0197769
-0.0337269 -0.031216
0.00312702 0.00584333
-0.00292325 -0.00585944
0.0416748 0.0440471
0.0116622 0.0126482
-0.00695825 0.00886986
0.00577639 0.0053325
0.0443581 0.0464282
-0.0404615 -0.0345644
0.0186981 0.0226308
-0.0455201 -0.0423064
0.00274823 0.00555181
-0.00984301 -0.013116
0.0524469 0.0549711
0.0176367 0.0176861
0.0559751 0.116962
0.0558855 0.0560828
0.067465 0.0824097
0.12339 0.124493
0.0390513 0.0406179
0.190572 0.188722
0.0415958 0.0396869
0.202915 0.20274
0.098293 0.103738
0.0332765 0.0315658
-0.00875852 0.0115486
0.00774416 0.00705292
0.0561876 0.0574522
-0.0477261 -0.0417946
0.0202581 0.0253115
-0.0586029 -0.0542249
0.00129169 0.00371069
-0.0237919 -0.0291786
0.0576659 0.0607192
0.0282896 0.0259457
-0.00684984 0.0146318
0.00925146 0.00847194
0.0617107 0.0625869
-0.0454145 -0.0398314
0.0201799 0.0251935
-0.0578813 -0.0531287
0.000256735 0.00243
-0.0298027 -0.0362943
0.0551565 0.058859
0.0313642 0.0281389
-0.00832502 0.0127588
0.00960492 0.00860264
0.0679612 0.0682992
-0.0532295 -0.0472736
0.0198146 0.025069
-0.0731984 -0.0676732
-0.000387996 0.00150278
-0.0416035 -0.0482094
0.0596425 0.0630756
0.0348505 0.0313839
2.89256e-05 -0.000333194
-0.00328257 -0.00332778
-0.0262828 -0.022594
-0.0038976 -0.00409278
-0.011439 -0.0109668
-0.0285053 -0.0277047
-0.00602796 0.00335417
0.00842841 0.0160539
0.00161516 0.00076375
-0.00352098 -0.00355667
-0.0149023 -0.016269
-0.0147392 -0.0145483
-0.0431871 -0.040484
-0.0254339 -0.0262858
-0.0185209 -0.0185768
-0.086645 -0.0802222
0.00177137 0.00349736
-0.0185856 -0.0145853
0.00317927 0.00527194
0.00160755 0.00419486
-0.034822 -0.0313135
-0.0280395 -0.0275022
-0.0561537 -0.0532033
-0.0501872 -0.0505113
-0.0285553 -0.0275038
-0.133713 -0.126275
0.00920925 0.0101906
-0.0311969 -0.0283176
0.0332391 0.0389236
0.00655931 0.00702069
-0.0500854 -0.0411131
-0.0412283 -0.0405915
-0.068471 -0.0654271
-0.0728808 -0.0711622
-0.0372043 -0.0339569
-0.175981 -0.167622
0.0146086 0.0159732
-0.0481162 -0.04192
0.0582568 0.0641287
0.0093954 0.00891042
-0.060314 -0.0482915
-0.054185 -0.0537685
-0.0805952 -0.077054
-0.0934522 -0.0893318
-0.0438934 -0.0395818
-0.217086 -0.20788
0.0173809 0.0195215
-0.0680819 -0.0587589
0.068735 0.0734168
0.0124518 0.00958903
-0.0682995 -0.0554304
-0.0669192 -0.0670003
-0.0922715 -0.0880693
-0.113567 -0.106877
-0.0499657 -0.0456167
-0.257293 -0.24748
0.0179484 0.0205974
-0.0875675 -0.0776971
0.0693162 0.0720731
0.0168579 0.01057
0.0399615 0.0628764
0.0289332 0.0494897
0.0636555 0.100943
0.0933251 0.0875499
0.0038141 0.00523833
0.244518 0.245476
0.0237241 0.0185115
0.136278 0.131992
-0.0199222 -0.0305101
-0.0124809 0.00457194
-0.0837208 -0.0724957
-0.091704 -0.0922231
-0.114273 -0.108482
-0.155244 -0.142111
-0.0607527 -0.0559943
-0.332078 -0.320961
0.0156905 0.0187018
-0.124115 -0.115905
0.0663833 0.0664968
0.0284001 0.0216853
-0.0912519 -0.0811022
-0.103317 -0.103871
-0.124888 -0.118035
-0.177338 -0.160734
-0.06493 -0.0597237
-0.365789 -0.353615
0.0149768 0.0179874
-0.141457 -0.134719
0.0660734 0.0650513
0.0340863 0.0304974
-0.0980213 -0.0889147
-0.114379 -0.114779
-0.135345 -0.127326
-0.198995 -0.179422
-0.067923 -0.0622401
-0.396273 -0.382642
0.0152146 0.0187457
-0.157712 -0.152124
0.0661646 0.0642947
0.038587 0.0360092
-2.531e-05 0
-1.26588e-07 0
-0.000522357 -0.00053125
0.000363023 0.000409444
-0.000740763 -0.000789306
-0.000656405 -0.000732361
-0.00199135 -0.0019425
-0.000187737 -0.000259306
-0.00151051 -0.00153569
0.00153792 0.00152139
-0.000159414 -1.80556e-05
0.000476003 0.000367361
-0.00203441 -0.00201653
0.00145379 0.00126875
-0.00267191 -0.002655
0.00131852 0.00133806
0.00026617 4.86111e-05
0.000345247 0.000308472
-0.00640215 -0.00633736
0.000360064 0.000398472
-8.13869e-05 -8.22222e-05
-1.39784e-07 0
-0.00303815 -0.00312431
0.0011947 0.00119528
-0.00366666 -0.00375944
-0.000988314 -0.00109583
-0.00877335 -0.00835319
-0.000752775 -0.000781944
-0.00224015 -0.00245153
0.00079346 0.000773056
0.00501137 0.00479306
-0.00103441 -0.00119694
0.000445758 0.000420694
-0.00429477 -0.00428736
-8.75153e-06 -0.000134306
-0.0040266 -0.00418472
-0.00111982 -0.00112778
0.00459305 0.00481778
0.00139294 0.00159847
-0.0084783 -0.00838847
-0.000154811 0
-1.74098e-07 1.94444e-06
0.00216847 0.00247639
0.00253256 0.00255444
-0.00316822 -0.00340722
-0.00329516 -0.00338861
-0.00217456 -0.00239556
-0.000952703 -0.000989861
0.00166183 0.00166181
0.0046441 0.00479181
0.00653191 0.00631097
0.00497092 0.00504681
0.00185428 0.00238125
0.0101053 0.0102401
-0.00546577 -0.00556333
-0.00146456 -0.00132986
-0.0144384 -0.0143199
-0.0107934 -0.0108358
-0.014813 -0.0146686
-0.0114468 -0.0115237
-0.000225691 -0.000225972
-1.44297e-07 -2.77778e-07
-0.008537 -0.00913694
0.00298259 0.00296167
-0.0134118 -0.0131871
-0.0016692 -0.00171583
-0.0230808 -0.0211572
-0.000113342 -7.90278e-05
-0.00269331 -0.00301597
-0.000648457 -0.000799583
0.0128454 0.0123474
0.000151628 0.00015125
-0.00312524 -0.00349931
-0.0145213 -0.0145389
-0.0142352 -0.0142061
-0.0131252 -0.0133071
-0.0037059 -0.00391306
-0.0186139 -0.01833
0.00438872 0.00488597
-0.0222493 -0.0221982
-0.000306673 -0.000310278
-1.68653e-07 -4.30556e-06
3.8581e-05 0.00137514
0.00446432 0.00447194
-0.00649285 -0.00723694
-0.00361621 -0.00373792
-0.00109676 -0.00215944
-0.00516292 -0.00517806
-0.00135237 -0.00126069
0.0118065 0.0120172
0.0214161 0.0200494
0.0126011 0.0127683
0.0272236 0.0263733
0.0227908 0.0229579
0.00610081 0.00596139
0.00891131 0.00919861
-0.00269532 -0.00299153
-0.0122821 -0.0122746
-0.00607962 -0.00554278
-0.0250868 -0.0255436
-0.00040497 -0.000397639
-1.44884e-07 1.25e-06
-0.000967738 0.000946111
0.0052848 0.0053
-0.00775106 -0.00883264
-0.00358366 -0.00360611
0.00149318 5.98611e-05
-0.00908378 -0.00911694
-0.00595162 -0.00581625
0.0170061 0.0171644
0.0185804 0.0168514
0.0146742 0.0149296
0.0468024 0.0453644
0.0287805 0.02897
-0.00145246 -0.00111833
0.010116 0.0103565
0.000731277 -7.26389e-05
-0.0222437 -0.0219047
0.0126221 0.0132369
-0.0564873 -0.056144
-0.000485387 -0.000486528
-1.10393e-07 -6.94444e-07
-0.0138348 -0.0156687
0.00594239 0.00591194
-0.0308394 -0.0296962
-0.00269007 -0.00282583
-0.0373624 -0.0328193
0.0126712 0.0127606
0.00121321 0.000665833
-0.0129221 -0.0131425
-0.0267769 -0.0276976
-0.00402464 -0.00382097
-0.0176979 -0.0177483
-0.0205736 -0.0208749
-0.0204315 -0.0202993
-0.00217614 -0.00159931
-0.00295774 -0.00294181
-0.0161987 -0.0172736
0.00731386 0.00744625
-0.0350032 -0.0345093
-0.0005824 -0.000588611
-8.35522e-08 -5.55556e-07
-0.0156927 -0.0175935
0.00700726 0.00695847
-0.036775 -0.0354707
-0.00234831 -0.00249431
-0.0386342 -0.0337314
0.0203982 0.0204135
7.82348e-05 -0.000370417
-0.017551 -0.0176532
-0.0427053 -0.0440607
-0.00498473 -0.00478403
-0.027924 -0.0277567
-0.0210131 -0.0224257
-0.0216318 -0.0219189
0.00521076 0.0054075
0.000325503 2.56944e-05
0.018776 0.0176951
-0.00221114 -0.00288306
-0.0318713 -0.0305263
-0.00068725 -0.000685694
-3.41008e-08 -1.25e-06
-0.0177522 -0.0195399
0.00810988 0.00808083
-0.0425395 -0.041159
-0.00158305 -0.00175917
-0.038106 -0.0330846
0.0292854 0.0292
-0.00326383 -0.003465
-0.021307 -0.0212683
-0.0507137 -0.0523476
-0.00273971 -0.00272111
-0.0319166 -0.0316278
-0.0138927 -0.0156685
-0.0147875 -0.0153367
-0.00603807 -0.00472681
0.00727895 0.00684306
0.083657 0.080904
-0.0029486 -0.00337083
-0.0146603 -0.013851
-0.00078128 -0.000775694
-1.84961e-08 8.33333e-07
-0.0198316 -0.021329
0.0092008 0.00917931
-0.0477332 -0.0465465
-0.00029482 -0.000504722
-0.0355148 -0.0305279
0.0389092 0.0387582
-0.00755502 -0.0076325
-0.0253158 -0.0250122
-0.0496674 -0.0513515
0.00484874 0.00451861
-0.0256343 -0.0254726
0.0015434 -0.000384583
-0.000508133 -0.00120917
-0.0538345 -0.0500444
0.0224445 0.0218842
0.117739 0.112819
0.00709887 0.00690111
0.00375271 0.00337292
0.00241416 0.00242
-0.000117915 -0.000148472
-0.00675082 -0.00673056
0.000602144 0.000627222
-0.0102197 -0.0101032
-0.00108291 -0.00103903
-0.0001387 -7.26389e-05
-0.0043969 -0.00425375
-0.00134652 -0.001385
-0.0111887 -0.011246
0.00503063 0.00499111
-0.000219857 -0.000210417
-0.00802396 -0.00811806
0.000281773 0.000290972
-0.00311561 -0.00311736
-0.00432604 -0.00429722
-4.44303e-06 -9.27778e-05
-0.00708359 -0.00679861
-0.00418013 -0.00419806
0.000685125 0.000654861
0.00949758 0.00957931
-0.000379409 -0.000406806
-0.0237712 -0.0238276
0.000332645 0.000339028
-0.0241038 -0.0230932
-0.00298276 -0.00284514
-0.000756526 -0.000282917
-0.00616992 -0.00590236
-0.00833681 -0.00841639
0.00554753 0.00497403
0.0133118 0.0135515
-0.000477519 -0.000499167
-0.0338768 -0.0337515
0.00011071 0.000130139
-0.0265512 -0.0251551
-0.00336773 -0.0031925
-0.00139244 -0.000745694
-0.00623426 -0.00590611
-0.0139191 -0.0140357
0.0192938 0.0177213
0.0142629 0.0143611
-0.000428537 -0.000404306
-0.0206771 -0.0213997
-0.000537169 -0.000441944
-0.00373957 -0.00364597
-0.00851025 -0.00834333
-0.010538 -0.0106108
-0.00475358 -0.00426694
-0.013323 -0.0133785
0.0070309 0.00688625
0.0172605 0.0173272
-0.00045722 -0.000438889
-0.0240977 -0.0250439
-0.000693802 -0.000548333
-0.00348819 -0.00334139
-0.0101986 -0.0100179
-0.015373 -0.0153051
-0.00364038 -0.00320208
-0.0165117 -0.0166188
0.010601 0.0104068
0.0201488 0.0200944
-0.000473299 -0.000450556
-0.0266908 -0.0279931
-0.000829202 -0.000628194
-0.00340653 -0.00314222
-0.0125043 -0.0123119
-0.0203762 -0.0200857
-0.00268157 -0.00230875
-0.0192945 -0.0194431
0.0174756 0.017254
0.0276471 0.0274737
-0.000755034 -0.000719861
-0.0751709 -0.0739274
-0.000481852 -0.000478056
0.00348305 0.00515569
-0.00680293 -0.00648792
-0.0041375 -0.00276431
-0.009648 -0.0101024
-0.0477727 -0.047251
0.0651766 0.0595133
0.0303017 0.0303525
-0.000854031 -0.000804306
-0.0832396 -0.0818686
-0.000628095 -0.000616528
0.017455 0.0202569
-0.00831619 -0.00800792
-0.00479134 -0.00327722
-0.00984748 -0.0106675
-0.0561519 -0.0552583
0.0822905 0.0764767
0.032264 0.0328592
-0.000996129 -0.000956111
-0.0894618 -0.0882217
-0.000801699 -0.0007575
0.0303924 0.0361181
-0.00984329 -0.00954472
-0.00583612 -0.00426917
-0.0089689 -0.0102283
-0.0629981 -0.0616686
0.105112 0.0991224
0.000793319 0.000824583
-6.68789e-05 -9.44444e-05
-0.00280712 -0.00277931
0.000135989 0.000143889
-0.00124388 -0.00127611
-0.00121202 -0.00123708
0.000395615 0.000407083
-0.00348829 -0.00357611
-0.000813766 -0.000855
0.00483409 0.00489514
0.00735385 0.00735306
-0.000425384 -0.000442222
-0.0115047 -0.0112689
0.00100227 0.000973333
-0.00176428 -0.00177736
-0.00476583 -0.00484972
-0.00251134 -0.00256125
-0.00377774 -0.00388014
-0.00237302 -0.00223
0.0364511 0.0364544
0.00931517 0.00946194
-0.000410717 -0.000388194
-0.00697617 -0.00673681
0.000743203 0.000845972
-0.000667345 -0.000711389
-0.00809134 -0.00809208
-0.00105874 -0.00129514
-0.000934277 -0.000846944
-0.0104135 -0.0104
0.00787819 0.00782847
0.0128591 0.0130778
-0.000523107 -0.000504444
-0.0089417 -0.00864944
0.0010267 0.00118069
-0.00131215 -0.00130694
-0.0109957 -0.0109746
-0.000279378 -0.000701389
-0.000867683 -0.00085125
-0.017385 -0.0173732
0.0113655 0.0112072
0.0165013 0.0168271
-0.000623845 -0.000632639
-0.0109325 -0.0104361
0.00145935 0.00169722
-0.00254545 -0.00240444
-0.0134316 -0.0134261
0.00141284 0.000759167
-0.00121206 -0.00111778
-0.027247 -0.0269868
0.0144171 0.0141538
0.0202227 0.0205764
-0.000711197 -0.000698472
-0.0129789 -0.0123229
0.00203877 0.00234653
-0.00447802 -0.00415611
-0.0153279 -0.0153189
0.00404399 0.00304361
-0.00215545 -0.00211306
-0.0396728 -0.0387754
0.016276 0.0161611
0.0239142 0.0242322
-0.000784613 -0.000774167
-0.0151131 -0.0142011
0.0026863 0.00304319
-0.00720053 -0.00672986
-0.0168166 -0.0168076
0.00746183 0.00615069
-0.0036439 -0.00368514
-0.0539837 -0.052096
0.0166329 0.0166781
0.0135905 0.0136385
-0.000428682 -0.00039625
-0.0199579 -0.0202981
-0.00183134 -0.00184708
0.00468643 0.00433889
-0.0123335 -0.0125994
-0.00332931 -0.00288708
0.026262 0.0261138
-0.0233697 -0.0239144
0.06242 0.0598449
0.0306513 0.0314507
-0.000895853 -0.000889028
-0.0201668 -0.0182514
0.00394911 0.00441778
-0.0154075 -0.0144378
-0.0189434 -0.0188271
0.0154043 0.0135461
-0.0073767 -0.00731653
-0.0827597 -0.0795024
0.0141693 0.0143338
0.033072 0.0348126
-0.00095024 -0.000948611
-0.0233558 -0.0205931
0.00419421 0.00472389
-0.0210946 -0.0198306
-0.0199309 -0.0197432
0.0194393 0.0176217
-0.00949557 -0.00942347
-0.0943668 -0.0915454
0.0149405 0.0150507
-0.00491447 -0.00494861
0.00019979 0.000219167
0.000692718 0.000733056
0.000678646 0.000608889
0.00102699 0.00100042
0.00207805 0.00204097
0.00287216 0.00273958
2.35792e-05 -5.65278e-05
0.0146126 0.0148413
0.000239273 0.000249028
-0.0128487 -0.0126199
0.000301631 0.000333611
0.00195477 0.00207083
0.00202512 0.00205347
0.00195869 0.00186736
0.00341029 0.00335319
0.00732529 0.00716625
-0.000478878 -0.000568611
0.0289334 0.0295081
0.00144939 0.00147917
-0.00491949 -0.00505403
0.000209664 0.000164306
0.00804503 0.00826819
0.000396442 0.000354444
0.00186804 0.00173861
-0.000441724 -0.000442222
0.0054951 0.00533208
-0.00843268 -0.00854889
0.0149012 0.0154026
0.00615864 0.00645889
-0.0303455 -0.0299621
0.000112254 0.000176667
0.00486048 0.00485
0.0047808 0.00481792
0.00344588 0.00316278
0.00497905 0.0049275
0.0166185 0.0166081
-0.0048637 -0.00504278
0.0477602 0.0487687
0.00764081 0.00780917
-0.0377699 -0.0373993
-0.000115395 -8.44444e-05
0.00586897 0.00592514
0.00606834 0.00610056
0.00419995 0.00385847
0.00543838 0.00543597
0.0212413 0.0213094
-0.00787811 -0.00812583
0.0519625 0.0527818
0.00916493 0.00947722
-0.00992541 -0.00984014
0.000326323 0.000252778
0.0149355 0.0163389
0.000996532 0.000914306
-0.00339265 -0.00367306
-0.00321847 -0.00304222
0.0161679 0.0159786
-0.0140445 -0.0140261
0.0355368 0.0369075
0.0210431 0.02117
-0.0499705 -0.0499871
-0.000704213 -0.000680139
0.00680666 0.00715153
0.00872125 0.00872861
0.00661318 0.00615194
0.00621283 0.00621986
0.0299014 0.0304087
-0.0130102 -0.0132271
0.057478 0.0577569
0.00373256 0.00380111
-0.0547357 -0.0548486
-0.00105817 -0.00104722
0.00657704 0.00714472
0.0100512 0.0100283
0.00872814 0.00827514
0.00656366 0.00658167
0.0324049 0.0332918
-0.0146683 -0.0148678
0.0609248 0.0608299
-0.00242752 -0.00235486
-0.0584567 -0.0585374
-0.00138041 -0.00136889
0.0056677 0.00668542
0.0112042 0.0111975
0.0112862 0.0109594
0.00708849 0.00718
0.0324089 0.033665
-0.0160603 -0.0161615
0.0652634 0.0647182
-0.0102322 -0.0100865
-0.0616244 -0.0617342
-0.00171788 -0.00171431
0.00417443 0.00586347
0.0124952 0.0124776
0.0145408 0.01451
0.00788615 0.0079925
0.0300023 0.0317224
-0.0164709 -0.0163813
0.0686011 0.0674433
-0.0199607 -0.0194508
0.0031382 0.00311847
-0.00020928 -0.000172639
0.000642903 0.000672083
0.000632212 0.000748333
-0.00192244 -0.00176056
-0.000857925 -0.000830694
2.70901e-05 0.000125694
0.0036545 0.00368944
-0.00133107 -0.00133458
-0.00200949 -0.00170139
0.0074057 0.00736208
-0.00126224 -0.00128292
0.00209623 0.00209264
0.00273431 0.00281819
-0.0031136 -0.00296583
-0.00132628 -0.00129611
-0.00116494 -0.00110625
0.00118729 0.00153153
-0.00416323 -0.00405528
-0.00191725 -0.00174986
0.0126792 0.0127706
-0.0026393 -0.00263667
0.00351898 0.00347069
0.00394255 0.00400319
-0.00470876 -0.00462889
-0.000527999 -0.000534444
-0.00274568 -0.00268639
0.000651107 0.00125681
-0.00677988 -0.0065125
-0.00251394 -0.00241111
0.0189364 0.0193514
-0.00430891 -0.00429222
0.0050816 0.00499236
0.00405966 0.00414972
-0.00646617 -0.00641875
0.00186758 0.00181625
-0.00448952 -0.00449514
-0.00136674 -0.000309722
-0.00901427 -0.00862514
-0.00383661 -0.00377694
0.0248228 0.0256717
-0.00620447 -0.00621153
0.00682592 0.00676111
0.00306094 0.00326181
-0.00821031 -0.00822153
0.00580735 0.00559903
-0.0062288 -0.00622569
-0.00575159 -0.00399653
-0.0108483 -0.0103288
-0.00585235 -0.00579764
0.0309484 0.0321531
-0.0082847 -0.00823167
0.00844327 0.00833986
-0.000221151 0.000170556
-0.00932614 -0.00934
0.0117331 0.0112121
-0.00713406 -0.00709944
-0.0138779 -0.0110511
-0.0127068 -0.0121139
-0.00915951 -0.00908875
0.0972719 0.0983592
0.00814638 0.0079725
-0.0125603 -0.0125765
0.00682305 0.00737181
0.0034279 0.00316097
0.00215644 0.000887778
-0.0071664 -0.00728194
0.0293042 0.0280839
-0.00146699 0.000304444
-0.00450158 -0.00452917
0.0360711 0.0376996
-0.0126623 -0.0124796
0.0121631 0.0119828
-0.00834128 -0.00743708
-0.011678 -0.0118444
0.0262122 0.0248872
-0.0102933 -0.0102732
-0.0304046 -0.0245708
-0.014613 -0.0139253
-0.0133391 -0.0133047
0.0355382 0.03709
-0.0148956 -0.014556
0.0142664 0.0140625
-0.011211 -0.0100619
-0.0136421 -0.0138797
0.0327914 0.0312844
-0.0130875 -0.0130826
-0.0350457 -0.0272529
-0.0163691 -0.0156565
-0.0135924 -0.0135793
0.0365394 0.0378297
-0.0169519 -0.0164897
0.0154281 0.0152386
-0.0199432 -0.0181822
-0.0133392 -0.0137147
0.040823 0.0390996
-0.0124917 -0.0124711
-0.038541 -0.029161
-0.018546 -0.0178256
-0.0142469 -0.0141899
0.00118505 0.0010675
6.21202e-05 4.23611e-05
-0.000155592 -0.000114444
0.00131338 0.00115486
-0.000106794 -0.000404444
0.000939221 0.000598194
-3.62036e-05 -0.000176944
0.00166346 0.00138042
-0.000383559 -0.000366528
-0.000935379 -0.00102264
0.00788306 0.00768361
0.000240096 0.000200278
-0.000510641 -0.00039
0.0060356 0.00593764
-0.000525094 -0.000720139
0.00807084 0.00785903
-0.00252353 -0.00287972
0.00678856 0.00661417
-0.00154033 -0.00166875
-0.00210462 -0.00195097
0.0205833 0.0203932
0.000513353 0.000466528
-0.000761179 -0.000548056
0.0117563 0.0117044
-0.00164428 -0.00184028
0.0170378 0.0167825
-0.00670025 -0.00691653
0.00949495 0.00964431
-0.00639044 -0.00666556
-0.00149168 -0.00149153
0.0364891 0.0361046
0.000922271 0.000841389
-0.00105476 -0.000668472
0.0181581 0.0180358
-0.00322961 -0.00341806
0.0271902 0.0267907
-0.0110412 -0.0112585
0.0108139 0.0113503
-0.0144758 -0.0148539
0.000145227 8.88889e-05
0.0520679 0.0512074
0.00153268 0.00135431
-0.00154434 -0.00110611
0.0248865 0.0248365
-0.00498589 -0.0051675
0.038756 0.0381912
-0.0156238 -0.0158317
0.0112708 0.0123531
-0.0231294 -0.0232161
0.00252969 0.00247181
0.0647687 0.0632946
0.00233772 0.00208764
-0.00234705 -0.001835
0.0315874 0.0314756
-0.00669832 -0.00692069
0.0514143 0.0506079
-0.0204085 -0.020641
0.0111468 0.0128936
-0.0272052 -0.0268075
0.00562208 0.00561556
0.0644352 0.0640824
-3.19429e-05 -7.16667e-05
-0.00130631 -0.00137833
-0.00353447 -0.00378778
-0.00286431 -0.00279264
0.00618078 0.00287625
-0.00601445 -0.00598931
-0.00258233 -0.00207486
0.0484754 0.0469265
-0.000636569 -0.000683611
0.0764327 0.0741576
0.00396073 0.00350472
-0.00488528 -0.00421389
0.04277 0.0426997
-0.00921976 -0.00959722
0.0777205 0.0763465
-0.0289299 -0.0291051
0.0124066 0.0159846
-0.0257071 -0.02435
0.00988833 0.00957708
0.0755928 0.0732264
0.00441056 0.00379889
-0.00642142 -0.00570639
0.0462241 0.0462208
-0.0094556 -0.00992083
0.089577 0.0878472
-0.0319072 -0.0320514
0.0139371 0.018269
-0.0248785 -0.0232524
0.0114525 0.010999
0.0714932 0.0692504
0.00435469 0.00366097
-0.00794145 -0.00722264
0.047738 0.0479601
-0.00877434 -0.00929639
0.0992865 0.09716
-0.0338127 -0.0338704
0.015429 0.0204524
-0.0234414 -0.0218158
0.0127935 0.0122806
-1.69751e-05 0
-4.98756e-08 0
-0.000379775 -0.000419028
0.000578593 0.00055
-0.000374968 -0.000421528
0.000547799 0.000553056
0.000365971 0.000418194
-0.000149567 -0.000193611
1.75405e-05 5.13889e-06
-0.00097364 -0.00095375
0.00244304 0.00257375
-0.0013496 -0.00135944
-0.000153381 -0.000114861
0.000240722 0.000306667
0.00131579 0.0012625
-0.000907233 -0.000878194
-0.00464968 -0.00449833
0.00155239 0.001535
0.000528154 0.000430833
-0.000692304 -0.000717639
-4.9187e-05 -4.875e-05
-7.40216e-08 0
-0.00238909 -0.00241833
0.00122359 0.00121597
-2.50847e-06 -6.51389e-05
0.000615075 0.000611944
0.00262709 0.00260819
-0.000375446 -0.000370972
0.000400346 0.000493056
-0.00262685 -0.00265806
0.00986049 0.00971861
-0.00569786 -0.00573097
-0.000214891 -4.40278e-05
0.00808946 0.00796236
0.0130275 0.0127924
-0.0058695 -0.00589111
-0.00101448 -0.00095125
-0.00341519 -0.00294542
-0.00493236 -0.00497764
0.0151823 0.0148203
-8.83498e-05 0
-7.97743e-08 -5.83333e-06
0.015639 0.0157467
-0.00592764 -0.00600667
-0.00295295 -0.00311681
0.000756661 0.000707083
-0.0158572 -0.0156372
0.00112144 0.00110389
-0.0286617 -0.0285928
0.00583621 0.00596972
-0.0145059 -0.0142847
0.00477724 0.00470931
0.0178179 0.017146
-0.0111821 -0.0112801
0.00391389 0.00404042
0.00670531 0.00661181
-0.0133585 -0.0138951
-0.00157437 -0.00154194
-0.00669963 -0.00648264
0.000748773 0.000375972
-0.000137951 -0.000142083
-8.83055e-08 -6.94444e-07
-0.00685793 -0.00674347
0.00187813 0.00185597
0.00363561 0.00351889
0.00017471 0.000219583
0.00816784 0.007775
-0.00138039 -0.00136625
-0.00138809 -0.0010575
-0.00816616 -0.00819653
0.0282821 0.0282181
-0.0157069 -0.0160022
0.00573733 0.00609986
0.0352984 0.0346164
0.0368454 0.0364321
-0.010478 -0.0102582
-0.00880728 -0.00856139
0.0290806 0.0288186
-0.000792016 -0.00101125
0.022399 0.0221876
-0.000179048 -0.000177778
-8.3271e-08 1.80556e-06
0.0308949 0.0311039
-0.00915494 -0.00921458
-0.00679111 -0.00724
0.00149273 0.00154833
-0.0277929 -0.0271619
0.00311994 0.00320514
-0.0500994 -0.0503918
0.0237197 0.0239208
-0.0219948 -0.0215728
0.0111911 0.0109608
0.0310669 0.029824
-0.0430776 -0.0434678
0.012302 0.0128411
0.00276992 0.00263819
0.0124831 0.0126206
-0.00232469 -0.00192764
0.00147723 0.00170625
-0.0169846 -0.017714
-0.000229747 -0.000225417
-5.65196e-08 -1.38889e-07
0.0384588 0.0388338
-0.0104968 -0.0105592
-0.0086587 -0.00924528
0.00240863 0.00245792
-0.0317428 -0.0308261
0.00600829 0.00606708
-0.0479954 -0.0483886
0.0338009 0.0339297
-0.0214376 -0.0210229
0.01981 0.0195468
0.0281764 0.0272119
-0.0648427 -0.0652825
0.010308 0.0104125
-0.00344781 -0.00338958
0.00992386 0.00941264
-0.00098707 -0.0002375
0.0122096 0.0121456
-0.0325999 -0.0333929
-0.000304357 -0.000303889
-1.35367e-08 -1.11111e-06
-0.0109806 -0.0105831
0.00271826 0.00273319
0.0140544 0.013435
-0.000589059 -0.000513889
0.00256543 0.00193208
-0.0101407 -0.0102246
-0.000709862 -0.000448889
-0.0291255 -0.0288885
0.0692512 0.0697629
-0.0343808 -0.0349026
0.0147893 0.0148547
0.0156241 0.0148653
0.0134972 0.0133981
-0.00238197 -0.00219514
-0.0255456 -0.0253297
-0.0113219 -0.00990167
-0.00963576 -0.00988194
-0.002756 -0.000963472
-0.000359182 -0.000361528
-4.87356e-08 -1.11111e-06
-0.0122421 -0.0118756
0.00307968 0.00307111
0.0183684 0.0177536
-0.00103586 -0.000972083
-0.00643715 -0.00695417
-0.0148101 -0.0149658
0.00320532 0.00299958
-0.0321804 -0.0316492
0.077326 0.0775932
-0.0388454 -0.0394732
0.00899197 0.00868639
0.00124068 0.000314306
0.00448138 0.00436903
-0.00372341 -0.00368181
-0.0146015 -0.0144403
-0.0184261 -0.0176589
-0.0194206 -0.0195299
0.0170802 0.0191806
-0.000428889 -0.000423611
-2.04859e-08 -5.83333e-06
-0.0136878 -0.0131651
0.00348996 0.00348806
0.0227248 0.022221
-0.00165775 -0.001585
-0.0195908 -0.0199721
-0.0193298 -0.0195206
0.00915604 0.00824736
-0.0298428 -0.0290271
0.0742324 0.0739728
-0.0447312 -0.0454192
-0.000678277 -0.00123389
-0.00859475 -0.00882736
-0.00062173 -0.000817361
0.00132955 0.000730972
-0.0123496 -0.012481
0.0183154 0.0178358
-0.0230775 -0.0232928
0.043319 0.0463481
-0.000496762 -0.000484028
6.78523e-09 -7.5e-06
-0.0151078 -0.0145164
0.00390462 0.00390944
0.0267373 0.026776
-0.00245621 -0.00239097
-0.0366511 -0.0368588
-0.0232391 -0.0234821
0.01657 0.0147712
-0.0218151 -0.0209074
0.0609776 0.0602131
-0.0566725 -0.0569686
-0.00939411 -0.0100531
-0.0246041 -0.024074
-0.00630892 -0.00669639
0.0222269 0.0204368
-0.00959725 -0.00985264
0.0773254 0.0767381
-0.0278431 -0.0280749
0.0501709 0.0526974
0.00156768 0.00159222
-7.56607e-05 -8.66667e-05
-0.00462797 -0.00469986
3.68368e-05 7.06944e-05
-0.00665116 -0.00657139
-0.000621597 -0.000578056
0.000146743 0.000117083
-0.0063573 -0.00632667
-5.54849e-05 -7.93056e-05
-0.00547686 -0.00545125
0.00216287 0.00220431
-0.000106518 -0.000122361
-0.00308761 -0.00336194
-0.000170003 -0.000127778
-0.00381738 -0.00375736
-0.00355979 -0.00363389
0.00453422 0.00463403
-0.0070643 -0.00682097
-0.00091518 -0.000972917
0.000680408 0.0006175
0.00629932 0.00644917
-0.00023213 -0.000254167
-0.0160836 -0.0159594
-0.00119876 -0.00122542
-0.019712 -0.0191897
-0.00283856 -0.00287264
0.0022044 0.00230181
-0.0177741 -0.0175736
-0.00131649 -0.00124111
-0.00554964 -0.00562903
0.0089632 0.00910944
-0.00028127 -0.000309861
-0.0227176 -0.0223035
-0.00183193 -0.00188639
-0.0262303 -0.0254485
-0.00379008 -0.00378861
0.00387723 0.00406014
-0.0218187 -0.0215474
-0.00270622 -0.00256958
-0.0157543 -0.0159954
0.00689283 0.00710278
-0.000263845 -0.000258472
-0.0097488 -0.0111828
-0.000997464 -0.000930972
-0.00770393 -0.00771583
-0.00875654 -0.0087825
0.0100392 0.010244
-0.0114016 -0.0108653
-0.000130237 -0.000306389
0.0177376 0.017524
0.00851525 0.00871708
-0.00030543 -0.000310139
-0.012185 -0.0141357
-0.00104155 -0.000959722
-0.00787605 -0.00788778
-0.0100149 -0.0100547
0.0113008 0.0114931
-0.0125493 -0.0119638
0.000957924 0.000632361
0.0215244 0.0214103
0.0100638 0.010265
-0.000338329 -0.000317361
-0.0144366 -0.0170282
-0.000941123 -0.000847083
-0.00723196 -0.00733611
-0.0113288 -0.0113897
0.0124427 0.0126915
-0.0136995 -0.0130421
0.00164753 0.00113917
0.0241582 0.0240507
0.0195247 0.0194374
-0.00034959 -0.000342639
-0.0506286 -0.0491851
-0.00330812 -0.00340042
-0.0463629 -0.0445394
-0.00960745 -0.00949097
0.0150524 0.0158271
-0.0434184 -0.0433442
-0.0145515 -0.0143299
-0.0443177 -0.0437362
0.0215809 0.0217322
-0.000365874 -0.000346111
-0.0569042 -0.0554689
-0.00335843 -0.00344125
-0.0505209 -0.0478767
-0.011847 -0.0117469
0.0188958 0.0197796
-0.0506694 -0.0506676
-0.0187709 -0.0186399
-0.0452563 -0.0444565
0.0226657 0.0238374
-0.000401597 -0.00037375
-0.0625677 -0.0611738
-0.00331494 -0.00333208
-0.0552849 -0.0513787
-0.0142475 -0.0141751
0.0232543 0.0243347
-0.0584705 -0.0585692
-0.0240089 -0.024005
-0.0450834 -0.0443786
-0.000387507 -0.000360972
4.82402e-05 3.70833e-05
0.00180329 0.00186417
-2.667e-05 -1.11111e-06
0.00178303 0.00168111
0.000717326 0.000730278
-0.000504119 -0.000522222
0.00141905 0.00139889
0.000752994 0.000762083
-0.00304974 -0.00298625
-0.00466823 -0.00461597
0.0001874 0.000163333
0.00384568 0.00388806
-0.00057508 -0.00061625
0.00257475 0.00272375
0.00136154 0.00134417
0.00275556 0.00263944
-0.00206544 -0.00216056
0.00369429 0.00366347
-0.00169271 -0.00180153
0.0102485 0.0102526
-0.000527606 -0.000496111
-0.00571608 -0.00578542
0.00034151 0.000319028
-0.00183388 -0.00189069
-0.00660471 -0.00667042
-0.0100501 -0.010121
-0.00546104 -0.00560486
0.00106613 0.000987639
0.00821921 0.00845778
0.0140425 0.0141303
-0.0007223 -0.00070375
-0.00835464 -0.00834556
3.95615e-05 2.66667e-05
0.000343919 0.000256111
-0.00852621 -0.00862306
-0.0165956 -0.0168244
-0.00846663 -0.00861917
0.00359225 0.00341472
0.00947335 0.00984861
0.0178975 0.0181094
-0.000931074 -0.000926111
-0.0113303 -0.0113612
-0.000383177 -0.000458333
0.00432524 0.00406458
-0.0108157 -0.010934
-0.0245676 -0.0249421
-0.0112189 -0.0114418
0.00678731 0.00654069
0.00804452 0.00858153
0.0217481 0.0221168
-0.00115002 -0.00115569
-0.0145192 -0.0144125
-0.000914188 -0.000970556
0.0102748 0.00978389
-0.0136153 -0.0137468
-0.0336609 -0.0341269
-0.0132513 -0.0134932
0.0098418 0.00973222
0.00493171 0.00555361
0.0256867 0.0260568
-0.00137552 -0.00137903
-0.0175367 -0.0174264
-0.00155462 -0.00165153
0.0183701 0.0175185
-0.0169142 -0.0171031
-0.0434 -0.0439961
-0.0142912 -0.0146001
0.0125296 0.0131236
-0.000108927 0.000465833
-0.0136414 -0.0132746
7.28751e-05 4.77778e-05
0.0101633 0.0101046
0.00254397 0.00256
0.0510693 0.0544921
0.00528639 0.00493014
-0.022873 -0.0230337
-0.01276 -0.0127643
0.0134222 0.0131579
0.0244737 0.0240665
0.0329411 0.0330469
-0.00184157 -0.00184625
-0.0215013 -0.0219461
-0.00306395 -0.00324958
0.0407999 0.0389662
-0.0248871 -0.0250817
-0.0613095 -0.0618072
-0.0135003 -0.0138119
0.0127747 0.0158164
-0.013342 -0.0132224
0.0356298 0.0361319
-0.00207776 -0.00208389
-0.0216229 -0.0229821
-0.00370752 -0.00392472
0.0549652 0.052435
-0.0292878 -0.0295264
-0.0683407 -0.0684556
-0.0124582 -0.0128715
0.0104322 0.0142956
-0.0186888 -0.0188619
0.00489019 0.00487125
-7.3439e-05 -6.48611e-05
-0.00250697 -0.00251639
-0.000706999 -0.000742778
-0.00109811 -0.00105361
-0.00233145 -0.00229222
-0.00647604 -0.00660583
-0.000297044 -0.000304861
-0.0170051 -0.0170672
-0.000924116 -0.000997083
0.0124197 0.0123731
-0.000166433 -0.000123333
-0.00570738 -0.00561306
-0.00195243 -0.00201319
-0.00237987 -0.00233472
-0.00486915 -0.00487778
-0.0144429 -0.0147467
0.00105779 0.00107056
-0.0298142 -0.0297181
-0.00189032 -0.00202792
-0.00397357 -0.00401333
0.000106381 5.05556e-05
0.0065888 0.00667028
0.00115485 0.00117708
0.00818275 0.00840722
0.00116314 0.00119292
0.00161686 0.00160375
-0.00737527 -0.00718736
0.0145996 0.0145106
-0.00996751 -0.00998375
0.0296025 0.0295008
-0.000211776 -0.000186389
-0.0115853 -0.0111231
-0.00452244 -0.00460139
-0.00674391 -0.00649639
-0.0108748 -0.0109447
-0.0317813 -0.0321415
0.00929366 0.00931306
-0.051959 -0.0514358
-0.00441438 -0.00479986
0.0379197 0.0379753
-0.000150656 -0.000116389
-0.0143035 -0.0137397
-0.00560496 -0.00560556
-0.00957785 -0.00924889
-0.0140713 -0.0141529
-0.0410513 -0.0412464
0.0157753 0.0157678
-0.0619662 -0.0611915
-0.00472436 -0.00526889
-0.00801672 -0.00817486
0.000158749 0.000115694
0.00970811 0.00988055
-3.11265e-05 -4.01389e-05
0.0187101 0.0190933
0.000234311 0.000320694
0.00562363 0.00550958
-0.0166471 -0.0159611
0.0333489 0.0329357
-0.0239791 -0.0241386
0.0528367 0.0533375
0.000198641 0.000218611
-0.0191595 -0.0186922
-0.00721593 -0.00715958
-0.0154372 -0.0151094
-0.0204173 -0.0206319
-0.0600941 -0.0594918
0.0311342 0.0310742
-0.0775786 -0.0765964
-0.00239413 -0.00322556
0.0595031 0.0600268
0.000493688 0.000515278
-0.0215431 -0.0211856
-0.00767991 -0.00755194
-0.0186849 -0.018404
-0.0234334 -0.0237394
-0.0691603 -0.0680182
0.0385192 0.0383679
-0.0840978 -0.0831364
-0.000915087 -0.00182931
0.0655813 0.0659397
0.000811039 0.00081625
-0.0238345 -0.0235167
-0.00793375 -0.00769028
-0.0221437 -0.0219815
-0.0262497 -0.0265953
-0.0769293 -0.0752671
0.0441232 0.0439549
-0.0903545 -0.0895876
-0.00123926 -0.00202556
0.0704846 0.0707881
0.00121237 0.00123597
-0.0260323 -0.0256636
-0.00791607 -0.00758194
-0.0261519 -0.0262264
-0.0286089 -0.0290646
-0.0817825 -0.0797131
0.0473632 0.0471099
-0.0953009 -0.0948574
-0.00352632 -0.00408
0.00405964 0.00416222
0.000145083 0.000130139
-3.57907e-05 -7.26389e-05
-0.000546333 -0.000422778
0.000163277 0.00041625
-0.000366162 -0.00025625
-0.000483105 -0.000344306
0.000666928 0.000476111
0.000872191 0.000898055
-0.00167927 -0.00143806
0.0127208 0.012876
0.000473762 0.000482222
-0.000525516 -0.000658333
-0.00197044 -0.00194236
0.00125831 0.00147375
-0.000203104 -5.51389e-05
9.25693e-05 0.000195694
-0.00232858 -0.00237528
0.00283894 0.00283014
-0.00244096 -0.00223861
0.0219971 0.0220122
0.000775569 0.000806111
-0.00110092 -0.00128819
-0.00343238 -0.00345417
0.00253793 0.00272306
-0.000183796 -8.08333e-05
0.00159716 0.00163458
-0.00637672 -0.00632625
0.00372958 0.00367194
-0.00322187 -0.00309736
0.0312485 0.0310331
0.00107462 0.00110458
-0.00184754 -0.00209583
-0.00509527 -0.00511208
0.00404932 0.00426375
-0.000158125 -5.875e-05
0.00369591 0.00368625
-0.012235 -0.0119218
0.00544424 0.00530597
-0.00547101 -0.00539833
0.0391577 0.0387569
0.00137926 0.00144125
-0.00273624 -0.00302625
-0.00702722 -0.00700958
0.00583695 0.00604153
-0.000316251 -0.000350278
0.00594508 0.00588236
-0.0194336 -0.0185644
0.00912109 0.00885764
-0.00936595 -0.00928194
0.0450318 0.0444988
0.00158528 0.00167722
-0.00366791 -0.00402056
-0.00939429 -0.00936569
0.0080367 0.00827208
-0.000827663 -0.00103111
0.0081422 0.00803153
-0.0279507 -0.0263344
0.0123607 0.0119704
-0.0145571 -0.0144992
0.0579721 0.0596557
-0.0067097 -0.00635194
0.00644011 0.00607042
0.0115561 0.0121515
-0.00406839 -0.00417583
-0.00754562 -0.00711069
-0.0160322 -0.0163307
0.0203523 0.0228749
-0.0214013 -0.0227018
0.020823 0.0211553
0.0502247 0.0496099
0.00229709 0.00248417
-0.00563549 -0.00617722
-0.0163121 -0.0158547
0.0123206 0.0126894
-0.00218745 -0.00269986
0.0120491 0.0119465
-0.0439274 -0.0398962
0.0251239 0.0241485
-0.0269197 -0.027016
0.0499947 0.049481
0.00286606 0.003125
-0.00642938 -0.00711208
-0.0214741 -0.0206799
0.0142128 0.014681
-0.00323065 -0.00384819
0.0134596 0.0134368
-0.04875 -0.0434003
0.0339951 0.0325431
-0.0334093 -0.0337131
0.0489625 0.0484083
0.0031295 0.00345708
-0.00718563 -0.00789736
-0.0283503 -0.0271535
0.0167634 0.0173578
-0.00369628 -0.00439556
0.0145613 0.0145735
-0.0510596 -0.0444739
0.0377902 0.0362788
-0.0378315 -0.0382932
0.000833837 0.000783889
2.68269e-05 4.16667e-07
0.000418709 0.000440139
0.000643959 0.00056875
-4.98518e-05 -0.000244722
0.000535911 0.000339861
0.0004145 0.000457639
-0.000239771 -0.000223333
0.000878854 0.000904306
0.000384164 0.000273056
0.00554465 0.00563681
-2.81984e-06 -5.27778e-06
0.00111911 0.00122931
0.00226896 0.00227931
-0.00118084 -0.00133639
0.000510599 0.000264028
0.000477225 0.000387222
0.000917357 0.00093875
-0.000492766 -0.000410278
-0.000501038 -0.000444861
0.0143968 0.0149756
-6.12788e-05 -0.000142222
0.00199163 0.00219097
0.00350694 0.00369167
-0.00256954 -0.00273819
-0.000679636 -0.000961667
-0.000454421 -0.000518611
0.00236125 0.00239431
-0.00143633 -0.00131083
0.000755861 0.000757778
0.0258132 0.0267754
-7.35356e-05 -0.000167639
0.00291821 0.00314333
0.00420221 0.00466444
-0.00414011 -0.00430792
-0.00250459 -0.00291139
-0.00168803 -0.00175986
0.00365259 0.00376875
0.000203172 0.000425694
0.00281366 0.00278778
0.0374554 0.0384703
2.98977e-05 -0.000162639
0.00365412 0.00400542
0.00418477 0.00500625
-0.00584993 -0.00605458
-0.00495641 -0.00547681
-0.00306011 -0.00313736
0.00512502 0.00525083
0.000239867 0.00059
0.00515977 0.00507458
0.0473773 0.0483344
0.0002187 -7.13889e-05
0.00400076 0.00442958
0.00373897 0.00498444
-0.00766525 -0.00795236
-0.00768054 -0.00838111
-0.00425575 -0.00436736
0.00735973 0.00719
-0.00284721 -0.00217389
0.00747459 0.00740625
0.0374187 0.0387479
0.00285386 0.00274819
-0.00336322 -0.00342681
0.00247109 0.00314778
-0.00261203 -0.00277361
-0.012849 -0.0114382
0.00192431 0.00184972
-0.000956876 -0.00116736
-0.0486163 -0.0516357
0.0127548 0.0125339
0.0576677 0.0582761
0.000625767 3.08333e-05
0.00320526 0.00382389
0.00100125 0.00303625
-0.0105182 -0.0110456
-0.0138632 -0.0148457
-0.00609094 -0.00615958
0.0141438 0.0127842
-0.0100476 -0.00893764
0.0114095 0.0111903
0.0578569 0.0583804
0.000615577 -0.000203472
0.00216269 0.00284931
-0.00143998 0.00101514
-0.0109204 -0.0116229
-0.0170599 -0.0181451
-0.00653748 -0.00654014
0.0187446 0.0167169
-0.0114404 -0.0102483
0.0129285 0.0125956
0.0555322 0.0560729
0.000307795 -0.000759583
0.000921034 0.001685
-0.00444257 -0.00144319
-0.0103861 -0.0112472
-0.0198094 -0.0209088
-0.00685745 -0.00674806
0.0249533 0.0222514
-0.0142276 -0.0130381
0.0140374 0.0135208
