
***************************************************************
*                 Welcome to use GPUMD                        *
*     (Graphics Processing Units Molecular Dynamics)          *
*                     Version 3.7                             *
*              This is the gpumd executable                   *
***************************************************************


---------------------------------------------------------------
Compiling options:
---------------------------------------------------------------

DEBUG is off: Use different PRNG seeds for different runs.

---------------------------------------------------------------
GPU information:
---------------------------------------------------------------

number of GPUs = 1
Device id:                   0
    Device name:             NVIDIA GeForce RTX 4090
    Compute capability:      8.9
    Amount of global memory: 23.6417 GB
    Number of SMs:           128

---------------------------------------------------------------
Started running GPUMD.
---------------------------------------------------------------


---------------------------------------------------------------
Started initializing positions and related parameters.
---------------------------------------------------------------

Number of atoms is 16000.
Use periodic boundary conditions along x.
Use periodic boundary conditions along y.
Use periodic boundary conditions along z.
Use orthogonal box.
Box lengths are
    Lx =     7.9483700000e+01 A
    Ly =     8.1308200000e+01 A
    Lz =     9.1018700000e+01 A
Do not specify initial velocities here.
Have no grouping method.
There are 3 atom types.
    3200 atoms of type 0.
    3200 atoms of type 1.
    9600 atoms of type 2.

---------------------------------------------------------------
Finished initializing positions and related parameters.
---------------------------------------------------------------


---------------------------------------------------------------
Started executing the commands in run.in.
---------------------------------------------------------------

Use the NEP3 potential with 3 atom types.
    type 0 (Cs with Z = 55).
    type 1 (Pb with Z = 82).
    type 2 (Cl with Z = 17).
    radial cutoff = 5 A.
    angular cutoff = 4 A.
    MN_radial = 20.
    MN_angular = 12.
    enlarged MN_radial = 25.
    enlarged MN_angular = 15.
    n_max_radial = 8.
    n_max_angular = 4.
    basis_size_radial = 10.
    basis_size_angular = 8.
    l_max_3body = 4.
    l_max_4body = 2.
    l_max_5body = 0.
    ANN = 34-50-1.
    number of neural network parameters = 1801.
    number of descriptor parameters = 1296.
    total number of parameters = 3097
Use NPT ensemble for this run.
    choose the SCR method.
    initial temperature is 0.1 K.
    final temperature is 0.1 K.
    tau_T is 100 time_step.
    pressure_xx is 0 GPa.
    pressure_yy is 0 GPa.
    pressure_zz is 0 GPa.
    modulus_xx is 100 GPa.
    modulus_yy is 100 GPa.
    modulus_zz is 100 GPa.
    tau_p is 1000 time_step.
Time step for this run is 1 fs.
Dump thermo every 10000 steps.
Dump position.
    every 100000 steps.
Run 2000000 steps.
    200000 steps completed.
    400000 steps completed.
    600000 steps completed.
    800000 steps completed.
    1000000 steps completed.
    1200000 steps completed.
    1400000 steps completed.
    1600000 steps completed.
    1800000 steps completed.
    2000000 steps completed.

---------------------------------------------------------------
Time used for this run = 1126.44 second.
Speed of this run = 2.8408e+07 atom*step/second.
---------------------------------------------------------------

Use NPT ensemble for this run.
    choose the SCR method.
    initial temperature is 25 K.
    final temperature is 25 K.
    tau_T is 100 time_step.
    pressure_xx is 0 GPa.
    pressure_yy is 0 GPa.
    pressure_zz is 0 GPa.
    modulus_xx is 100 GPa.
    modulus_yy is 100 GPa.
    modulus_zz is 100 GPa.
    tau_p is 1000 time_step.
Time step for this run is 1 fs.
Dump thermo every 10000 steps.
Dump position.
    every 100000 steps.
Run 2000000 steps.
    200000 steps completed.
    400000 steps completed.
    600000 steps completed.
    800000 steps completed.
    1000000 steps completed.
    1200000 steps completed.
    1400000 steps completed.
    1600000 steps completed.
    1800000 steps completed.
    2000000 steps completed.

---------------------------------------------------------------
Time used for this run = 1158.33 second.
Speed of this run = 2.76261e+07 atom*step/second.
---------------------------------------------------------------

Use NPT ensemble for this run.
    choose the SCR method.
    initial temperature is 50 K.
    final temperature is 50 K.
    tau_T is 100 time_step.
    pressure_xx is 0 GPa.
    pressure_yy is 0 GPa.
    pressure_zz is 0 GPa.
    modulus_xx is 100 GPa.
    modulus_yy is 100 GPa.
    modulus_zz is 100 GPa.
    tau_p is 1000 time_step.
Time step for this run is 1 fs.
Dump thermo every 10000 steps.
Dump position.
    every 100000 steps.
Run 2000000 steps.
    200000 steps completed.
    400000 steps completed.
    600000 steps completed.
    800000 steps completed.
    1000000 steps completed.
    1200000 steps completed.
    1400000 steps completed.
    1600000 steps completed.
    1800000 steps completed.
    2000000 steps completed.

---------------------------------------------------------------
Time used for this run = 1202.08 second.
Speed of this run = 2.66205e+07 atom*step/second.
---------------------------------------------------------------

Use NPT ensemble for this run.
    choose the SCR method.
    initial temperature is 75 K.
    final temperature is 75 K.
    tau_T is 100 time_step.
    pressure_xx is 0 GPa.
    pressure_yy is 0 GPa.
    pressure_zz is 0 GPa.
    modulus_xx is 100 GPa.
    modulus_yy is 100 GPa.
    modulus_zz is 100 GPa.
    tau_p is 1000 time_step.
Time step for this run is 1 fs.
Dump thermo every 10000 steps.
Dump position.
    every 100000 steps.
Run 2000000 steps.
    200000 steps completed.
    400000 steps completed.
    600000 steps completed.
    800000 steps completed.
    1000000 steps completed.
    1200000 steps completed.
    1400000 steps completed.
    1600000 steps completed.
    1800000 steps completed.
    2000000 steps completed.

---------------------------------------------------------------
Time used for this run = 1196.04 second.
Speed of this run = 2.6755e+07 atom*step/second.
---------------------------------------------------------------

Use NPT ensemble for this run.
    choose the SCR method.
    initial temperature is 100 K.
    final temperature is 100 K.
    tau_T is 100 time_step.
    pressure_xx is 0 GPa.
    pressure_yy is 0 GPa.
    pressure_zz is 0 GPa.
    modulus_xx is 100 GPa.
    modulus_yy is 100 GPa.
    modulus_zz is 100 GPa.
    tau_p is 1000 time_step.
Time step for this run is 1 fs.
Dump thermo every 10000 steps.
Dump position.
    every 100000 steps.
Run 2000000 steps.
    200000 steps completed.
    400000 steps completed.
    600000 steps completed.
    800000 steps completed.
    1000000 steps completed.
    1200000 steps completed.
    1400000 steps completed.
    1600000 steps completed.
    1800000 steps completed.
    2000000 steps completed.

---------------------------------------------------------------
Time used for this run = 1212.11 second.
Speed of this run = 2.64003e+07 atom*step/second.
---------------------------------------------------------------

Use NPT ensemble for this run.
    choose the SCR method.
    initial temperature is 125 K.
    final temperature is 125 K.
    tau_T is 100 time_step.
    pressure_xx is 0 GPa.
    pressure_yy is 0 GPa.
    pressure_zz is 0 GPa.
    modulus_xx is 100 GPa.
    modulus_yy is 100 GPa.
    modulus_zz is 100 GPa.
    tau_p is 1000 time_step.
Time step for this run is 1 fs.
Dump thermo every 10000 steps.
Dump position.
    every 100000 steps.
Run 2000000 steps.
    200000 steps completed.
    400000 steps completed.
    600000 steps completed.
    800000 steps completed.
    1000000 steps completed.
    1200000 steps completed.
    1400000 steps completed.
    1600000 steps completed.
    1800000 steps completed.
    2000000 steps completed.

---------------------------------------------------------------
Time used for this run = 1218.49 second.
Speed of this run = 2.6262e+07 atom*step/second.
---------------------------------------------------------------

Use NPT ensemble for this run.
    choose the SCR method.
    initial temperature is 150 K.
    final temperature is 150 K.
    tau_T is 100 time_step.
    pressure_xx is 0 GPa.
    pressure_yy is 0 GPa.
    pressure_zz is 0 GPa.
    modulus_xx is 100 GPa.
    modulus_yy is 100 GPa.
    modulus_zz is 100 GPa.
    tau_p is 1000 time_step.
Time step for this run is 1 fs.
Dump thermo every 10000 steps.
Dump position.
    every 100000 steps.
Run 2000000 steps.
    200000 steps completed.
    400000 steps completed.
    600000 steps completed.
    800000 steps completed.
    1000000 steps completed.
    1200000 steps completed.
    1400000 steps completed.
    1600000 steps completed.
    1800000 steps completed.
    2000000 steps completed.

---------------------------------------------------------------
Time used for this run = 1232.46 second.
Speed of this run = 2.59643e+07 atom*step/second.
---------------------------------------------------------------

Use NPT ensemble for this run.
    choose the SCR method.
    initial temperature is 175 K.
    final temperature is 175 K.
    tau_T is 100 time_step.
    pressure_xx is 0 GPa.
    pressure_yy is 0 GPa.
    pressure_zz is 0 GPa.
    modulus_xx is 100 GPa.
    modulus_yy is 100 GPa.
    modulus_zz is 100 GPa.
    tau_p is 1000 time_step.
Time step for this run is 1 fs.
Dump thermo every 10000 steps.
Dump position.
    every 100000 steps.
Run 2000000 steps.
    200000 steps completed.
    400000 steps completed.
    600000 steps completed.
    800000 steps completed.
    1000000 steps completed.
    1200000 steps completed.
    1400000 steps completed.
    1600000 steps completed.
    1800000 steps completed.
    2000000 steps completed.

---------------------------------------------------------------
Time used for this run = 1206.72 second.
Speed of this run = 2.65181e+07 atom*step/second.
---------------------------------------------------------------

Use NPT ensemble for this run.
    choose the SCR method.
    initial temperature is 200 K.
    final temperature is 200 K.
    tau_T is 100 time_step.
    pressure_xx is 0 GPa.
    pressure_yy is 0 GPa.
    pressure_zz is 0 GPa.
    modulus_xx is 100 GPa.
    modulus_yy is 100 GPa.
    modulus_zz is 100 GPa.
    tau_p is 1000 time_step.
Time step for this run is 1 fs.
Dump thermo every 10000 steps.
Dump position.
    every 100000 steps.
Run 2000000 steps.
    200000 steps completed.
    400000 steps completed.
    600000 steps completed.
    800000 steps completed.
    1000000 steps completed.
    1200000 steps completed.
    1400000 steps completed.
    1600000 steps completed.
    1800000 steps completed.
    2000000 steps completed.

---------------------------------------------------------------
Time used for this run = 1212.1 second.
Speed of this run = 2.64005e+07 atom*step/second.
---------------------------------------------------------------

Use NPT ensemble for this run.
    choose the SCR method.
    initial temperature is 225 K.
    final temperature is 225 K.
    tau_T is 100 time_step.
    pressure_xx is 0 GPa.
    pressure_yy is 0 GPa.
    pressure_zz is 0 GPa.
    modulus_xx is 100 GPa.
    modulus_yy is 100 GPa.
    modulus_zz is 100 GPa.
    tau_p is 1000 time_step.
Time step for this run is 1 fs.
Dump thermo every 10000 steps.
Dump position.
    every 100000 steps.
Run 2000000 steps.
    200000 steps completed.
    400000 steps completed.
    600000 steps completed.
    800000 steps completed.
    1000000 steps completed.
    1200000 steps completed.
    1400000 steps completed.
    1600000 steps completed.
    1800000 steps completed.
    2000000 steps completed.

---------------------------------------------------------------
Time used for this run = 1220.99 second.
Speed of this run = 2.62082e+07 atom*step/second.
---------------------------------------------------------------

Use NPT ensemble for this run.
    choose the SCR method.
    initial temperature is 250 K.
    final temperature is 250 K.
    tau_T is 100 time_step.
    pressure_xx is 0 GPa.
    pressure_yy is 0 GPa.
    pressure_zz is 0 GPa.
    modulus_xx is 100 GPa.
    modulus_yy is 100 GPa.
    modulus_zz is 100 GPa.
    tau_p is 1000 time_step.
Time step for this run is 1 fs.
Dump thermo every 10000 steps.
Dump position.
    every 100000 steps.
Run 2000000 steps.
    200000 steps completed.
    400000 steps completed.
    600000 steps completed.
    800000 steps completed.
    1000000 steps completed.
    1200000 steps completed.
    1400000 steps completed.
    1600000 steps completed.
    1800000 steps completed.
    2000000 steps completed.

---------------------------------------------------------------
Time used for this run = 1225.85 second.
Speed of this run = 2.61043e+07 atom*step/second.
---------------------------------------------------------------

Use NPT ensemble for this run.
    choose the SCR method.
    initial temperature is 275 K.
    final temperature is 275 K.
    tau_T is 100 time_step.
    pressure_xx is 0 GPa.
    pressure_yy is 0 GPa.
    pressure_zz is 0 GPa.
    modulus_xx is 100 GPa.
    modulus_yy is 100 GPa.
    modulus_zz is 100 GPa.
    tau_p is 1000 time_step.
Time step for this run is 1 fs.
Dump thermo every 10000 steps.
Dump position.
    every 100000 steps.
Run 2000000 steps.
    200000 steps completed.
    400000 steps completed.
    600000 steps completed.
    800000 steps completed.
    1000000 steps completed.
    1200000 steps completed.
    1400000 steps completed.
    1600000 steps completed.
    1800000 steps completed.
    2000000 steps completed.

---------------------------------------------------------------
Time used for this run = 1233.28 second.
Speed of this run = 2.5947e+07 atom*step/second.
---------------------------------------------------------------

Use NPT ensemble for this run.
    choose the SCR method.
    initial temperature is 300 K.
    final temperature is 300 K.
    tau_T is 100 time_step.
    pressure_xx is 0 GPa.
    pressure_yy is 0 GPa.
    pressure_zz is 0 GPa.
    modulus_xx is 100 GPa.
    modulus_yy is 100 GPa.
    modulus_zz is 100 GPa.
    tau_p is 1000 time_step.
Time step for this run is 1 fs.
Dump thermo every 10000 steps.
Dump position.
    every 100000 steps.
Run 2000000 steps.
    200000 steps completed.
    400000 steps completed.
    600000 steps completed.
    800000 steps completed.
    1000000 steps completed.
    1200000 steps completed.
    1400000 steps completed.
    1600000 steps completed.
    1800000 steps completed.
    2000000 steps completed.

---------------------------------------------------------------
Time used for this run = 1231.01 second.
Speed of this run = 2.59949e+07 atom*step/second.
---------------------------------------------------------------

Use NPT ensemble for this run.
    choose the SCR method.
    initial temperature is 325 K.
    final temperature is 325 K.
    tau_T is 100 time_step.
    pressure_xx is 0 GPa.
    pressure_yy is 0 GPa.
    pressure_zz is 0 GPa.
    modulus_xx is 100 GPa.
    modulus_yy is 100 GPa.
    modulus_zz is 100 GPa.
    tau_p is 1000 time_step.
Time step for this run is 1 fs.
Dump thermo every 10000 steps.
Dump position.
    every 100000 steps.
Run 2000000 steps.
    200000 steps completed.
    400000 steps completed.
    600000 steps completed.
    800000 steps completed.
    1000000 steps completed.
    1200000 steps completed.
    1400000 steps completed.
    1600000 steps completed.
    1800000 steps completed.
    2000000 steps completed.

---------------------------------------------------------------
Time used for this run = 1238.97 second.
Speed of this run = 2.58279e+07 atom*step/second.
---------------------------------------------------------------

Use NPT ensemble for this run.
    choose the SCR method.
    initial temperature is 350 K.
    final temperature is 350 K.
    tau_T is 100 time_step.
    pressure_xx is 0 GPa.
    pressure_yy is 0 GPa.
    pressure_zz is 0 GPa.
    modulus_xx is 100 GPa.
    modulus_yy is 100 GPa.
    modulus_zz is 100 GPa.
    tau_p is 1000 time_step.
Time step for this run is 1 fs.
Dump thermo every 10000 steps.
Dump position.
    every 100000 steps.
Run 2000000 steps.
    200000 steps completed.
    400000 steps completed.
    600000 steps completed.
    800000 steps completed.
    1000000 steps completed.
    1200000 steps completed.
    1400000 steps completed.
    1600000 steps completed.
    1800000 steps completed.
    2000000 steps completed.

---------------------------------------------------------------
Time used for this run = 1238.27 second.
Speed of this run = 2.58424e+07 atom*step/second.
---------------------------------------------------------------

Use NPT ensemble for this run.
    choose the SCR method.
    initial temperature is 375 K.
    final temperature is 375 K.
    tau_T is 100 time_step.
    pressure_xx is 0 GPa.
    pressure_yy is 0 GPa.
    pressure_zz is 0 GPa.
    modulus_xx is 100 GPa.
    modulus_yy is 100 GPa.
    modulus_zz is 100 GPa.
    tau_p is 1000 time_step.
Time step for this run is 1 fs.
Dump thermo every 10000 steps.
Dump position.
    every 100000 steps.
Run 2000000 steps.
    200000 steps completed.
    400000 steps completed.
    600000 steps completed.
    800000 steps completed.
    1000000 steps completed.
    1200000 steps completed.
    1400000 steps completed.
    1600000 steps completed.
    1800000 steps completed.
    2000000 steps completed.

---------------------------------------------------------------
Time used for this run = 1235.61 second.
Speed of this run = 2.58981e+07 atom*step/second.
---------------------------------------------------------------

Use NPT ensemble for this run.
    choose the SCR method.
    initial temperature is 400 K.
    final temperature is 400 K.
    tau_T is 100 time_step.
    pressure_xx is 0 GPa.
    pressure_yy is 0 GPa.
    pressure_zz is 0 GPa.
    modulus_xx is 100 GPa.
    modulus_yy is 100 GPa.
    modulus_zz is 100 GPa.
    tau_p is 1000 time_step.
Time step for this run is 1 fs.
Dump thermo every 10000 steps.
Dump position.
    every 100000 steps.
Run 2000000 steps.
    200000 steps completed.
    400000 steps completed.
    600000 steps completed.
    800000 steps completed.
    1000000 steps completed.
    1200000 steps completed.
    1400000 steps completed.
    1600000 steps completed.
    1800000 steps completed.
    2000000 steps completed.

---------------------------------------------------------------
Time used for this run = 1225.58 second.
Speed of this run = 2.611e+07 atom*step/second.
---------------------------------------------------------------

Use NPT ensemble for this run.
    choose the SCR method.
    initial temperature is 375 K.
    final temperature is 375 K.
    tau_T is 100 time_step.
    pressure_xx is 0 GPa.
    pressure_yy is 0 GPa.
    pressure_zz is 0 GPa.
    modulus_xx is 100 GPa.
    modulus_yy is 100 GPa.
    modulus_zz is 100 GPa.
    tau_p is 1000 time_step.
Time step for this run is 1 fs.
Dump thermo every 10000 steps.
Dump position.
    every 100000 steps.
Run 2000000 steps.
    200000 steps completed.
    400000 steps completed.
    600000 steps completed.
    800000 steps completed.
    1000000 steps completed.
    1200000 steps completed.
    1400000 steps completed.
    1600000 steps completed.
    1800000 steps completed.
    2000000 steps completed.

---------------------------------------------------------------
Time used for this run = 1240.25 second.
Speed of this run = 2.58014e+07 atom*step/second.
---------------------------------------------------------------

Use NPT ensemble for this run.
    choose the SCR method.
    initial temperature is 350 K.
    final temperature is 350 K.
    tau_T is 100 time_step.
    pressure_xx is 0 GPa.
    pressure_yy is 0 GPa.
    pressure_zz is 0 GPa.
    modulus_xx is 100 GPa.
    modulus_yy is 100 GPa.
    modulus_zz is 100 GPa.
    tau_p is 1000 time_step.
Time step for this run is 1 fs.
Dump thermo every 10000 steps.
Dump position.
    every 100000 steps.
Run 2000000 steps.
    200000 steps completed.
    400000 steps completed.
    600000 steps completed.
    800000 steps completed.
    1000000 steps completed.
    1200000 steps completed.
    1400000 steps completed.
    1600000 steps completed.
    1800000 steps completed.
    2000000 steps completed.

---------------------------------------------------------------
Time used for this run = 1237.57 second.
Speed of this run = 2.58571e+07 atom*step/second.
---------------------------------------------------------------

Use NPT ensemble for this run.
    choose the SCR method.
    initial temperature is 325 K.
    final temperature is 325 K.
    tau_T is 100 time_step.
    pressure_xx is 0 GPa.
    pressure_yy is 0 GPa.
    pressure_zz is 0 GPa.
    modulus_xx is 100 GPa.
    modulus_yy is 100 GPa.
    modulus_zz is 100 GPa.
    tau_p is 1000 time_step.
Time step for this run is 1 fs.
Dump thermo every 10000 steps.
Dump position.
    every 100000 steps.
Run 2000000 steps.
    200000 steps completed.
    400000 steps completed.
    600000 steps completed.
    800000 steps completed.
    1000000 steps completed.
    1200000 steps completed.
    1400000 steps completed.
    1600000 steps completed.
    1800000 steps completed.
    2000000 steps completed.

---------------------------------------------------------------
Time used for this run = 1240.23 second.
Speed of this run = 2.58017e+07 atom*step/second.
---------------------------------------------------------------

Use NPT ensemble for this run.
    choose the SCR method.
    initial temperature is 300 K.
    final temperature is 300 K.
    tau_T is 100 time_step.
    pressure_xx is 0 GPa.
    pressure_yy is 0 GPa.
    pressure_zz is 0 GPa.
    modulus_xx is 100 GPa.
    modulus_yy is 100 GPa.
    modulus_zz is 100 GPa.
    tau_p is 1000 time_step.
Time step for this run is 1 fs.
Dump thermo every 10000 steps.
Dump position.
    every 100000 steps.
Run 2000000 steps.
    200000 steps completed.
    400000 steps completed.
    600000 steps completed.
    800000 steps completed.
    1000000 steps completed.
    1200000 steps completed.
    1400000 steps completed.
    1600000 steps completed.
    1800000 steps completed.
    2000000 steps completed.

---------------------------------------------------------------
Time used for this run = 1231.84 second.
Speed of this run = 2.59775e+07 atom*step/second.
---------------------------------------------------------------

Use NPT ensemble for this run.
    choose the SCR method.
    initial temperature is 275 K.
    final temperature is 275 K.
    tau_T is 100 time_step.
    pressure_xx is 0 GPa.
    pressure_yy is 0 GPa.
    pressure_zz is 0 GPa.
    modulus_xx is 100 GPa.
    modulus_yy is 100 GPa.
    modulus_zz is 100 GPa.
    tau_p is 1000 time_step.
Time step for this run is 1 fs.
Dump thermo every 10000 steps.
Dump position.
    every 100000 steps.
Run 2000000 steps.
    200000 steps completed.
    400000 steps completed.
    600000 steps completed.
    800000 steps completed.
    1000000 steps completed.
    1200000 steps completed.
    1400000 steps completed.
    1600000 steps completed.
    1800000 steps completed.
    2000000 steps completed.

---------------------------------------------------------------
Time used for this run = 1228.96 second.
Speed of this run = 2.60383e+07 atom*step/second.
---------------------------------------------------------------

Use NPT ensemble for this run.
    choose the SCR method.
    initial temperature is 250 K.
    final temperature is 250 K.
    tau_T is 100 time_step.
    pressure_xx is 0 GPa.
    pressure_yy is 0 GPa.
    pressure_zz is 0 GPa.
    modulus_xx is 100 GPa.
    modulus_yy is 100 GPa.
    modulus_zz is 100 GPa.
    tau_p is 1000 time_step.
Time step for this run is 1 fs.
Dump thermo every 10000 steps.
Dump position.
    every 100000 steps.
Run 2000000 steps.
    200000 steps completed.
    400000 steps completed.
    600000 steps completed.
    800000 steps completed.
    1000000 steps completed.
    1200000 steps completed.
    1400000 steps completed.
    1600000 steps completed.
    1800000 steps completed.
    2000000 steps completed.

---------------------------------------------------------------
Time used for this run = 1228.62 second.
Speed of this run = 2.60455e+07 atom*step/second.
---------------------------------------------------------------

Use NPT ensemble for this run.
    choose the SCR method.
    initial temperature is 225 K.
    final temperature is 225 K.
    tau_T is 100 time_step.
    pressure_xx is 0 GPa.
    pressure_yy is 0 GPa.
    pressure_zz is 0 GPa.
    modulus_xx is 100 GPa.
    modulus_yy is 100 GPa.
    modulus_zz is 100 GPa.
    tau_p is 1000 time_step.
Time step for this run is 1 fs.
Dump thermo every 10000 steps.
Dump position.
    every 100000 steps.
Run 2000000 steps.
    200000 steps completed.
    400000 steps completed.
    600000 steps completed.
    800000 steps completed.
    1000000 steps completed.
    1200000 steps completed.
    1400000 steps completed.
    1600000 steps completed.
    1800000 steps completed.
    2000000 steps completed.

---------------------------------------------------------------
Time used for this run = 1227.13 second.
Speed of this run = 2.60772e+07 atom*step/second.
---------------------------------------------------------------

Use NPT ensemble for this run.
    choose the SCR method.
    initial temperature is 200 K.
    final temperature is 200 K.
    tau_T is 100 time_step.
    pressure_xx is 0 GPa.
    pressure_yy is 0 GPa.
    pressure_zz is 0 GPa.
    modulus_xx is 100 GPa.
    modulus_yy is 100 GPa.
    modulus_zz is 100 GPa.
    tau_p is 1000 time_step.
Time step for this run is 1 fs.
Dump thermo every 10000 steps.
Dump position.
    every 100000 steps.
Run 2000000 steps.
    200000 steps completed.
    400000 steps completed.
    600000 steps completed.
    800000 steps completed.
    1000000 steps completed.
    1200000 steps completed.
    1400000 steps completed.
    1600000 steps completed.
    1800000 steps completed.
    2000000 steps completed.

---------------------------------------------------------------
Time used for this run = 1217.29 second.
Speed of this run = 2.62879e+07 atom*step/second.
---------------------------------------------------------------

Use NPT ensemble for this run.
    choose the SCR method.
    initial temperature is 175 K.
    final temperature is 175 K.
    tau_T is 100 time_step.
    pressure_xx is 0 GPa.
    pressure_yy is 0 GPa.
    pressure_zz is 0 GPa.
    modulus_xx is 100 GPa.
    modulus_yy is 100 GPa.
    modulus_zz is 100 GPa.
    tau_p is 1000 time_step.
Time step for this run is 1 fs.
Dump thermo every 10000 steps.
Dump position.
    every 100000 steps.
Run 2000000 steps.
    200000 steps completed.
    400000 steps completed.
    600000 steps completed.
    800000 steps completed.
    1000000 steps completed.
    1200000 steps completed.
    1400000 steps completed.
    1600000 steps completed.
    1800000 steps completed.
    2000000 steps completed.

---------------------------------------------------------------
Time used for this run = 1214.23 second.
Speed of this run = 2.63541e+07 atom*step/second.
---------------------------------------------------------------

Use NPT ensemble for this run.
    choose the SCR method.
    initial temperature is 150 K.
    final temperature is 150 K.
    tau_T is 100 time_step.
    pressure_xx is 0 GPa.
    pressure_yy is 0 GPa.
    pressure_zz is 0 GPa.
    modulus_xx is 100 GPa.
    modulus_yy is 100 GPa.
    modulus_zz is 100 GPa.
    tau_p is 1000 time_step.
Time step for this run is 1 fs.
Dump thermo every 10000 steps.
Dump position.
    every 100000 steps.
Run 2000000 steps.
    200000 steps completed.
    400000 steps completed.
    600000 steps completed.
    800000 steps completed.
    1000000 steps completed.
    1200000 steps completed.
    1400000 steps completed.
    1600000 steps completed.
    1800000 steps completed.
    2000000 steps completed.

---------------------------------------------------------------
Time used for this run = 1253.73 second.
Speed of this run = 2.55238e+07 atom*step/second.
---------------------------------------------------------------

Use NPT ensemble for this run.
    choose the SCR method.
    initial temperature is 125 K.
    final temperature is 125 K.
    tau_T is 100 time_step.
    pressure_xx is 0 GPa.
    pressure_yy is 0 GPa.
    pressure_zz is 0 GPa.
    modulus_xx is 100 GPa.
    modulus_yy is 100 GPa.
    modulus_zz is 100 GPa.
    tau_p is 1000 time_step.
Time step for this run is 1 fs.
Dump thermo every 10000 steps.
Dump position.
    every 100000 steps.
Run 2000000 steps.
    200000 steps completed.
    400000 steps completed.
    600000 steps completed.
    800000 steps completed.
    1000000 steps completed.
    1200000 steps completed.
    1400000 steps completed.
    1600000 steps completed.
    1800000 steps completed.
    2000000 steps completed.

---------------------------------------------------------------
Time used for this run = 1234.97 second.
Speed of this run = 2.59115e+07 atom*step/second.
---------------------------------------------------------------

Use NPT ensemble for this run.
    choose the SCR method.
    initial temperature is 100 K.
    final temperature is 100 K.
    tau_T is 100 time_step.
    pressure_xx is 0 GPa.
    pressure_yy is 0 GPa.
    pressure_zz is 0 GPa.
    modulus_xx is 100 GPa.
    modulus_yy is 100 GPa.
    modulus_zz is 100 GPa.
    tau_p is 1000 time_step.
Time step for this run is 1 fs.
Dump thermo every 10000 steps.
Dump position.
    every 100000 steps.
Run 2000000 steps.
    200000 steps completed.
    400000 steps completed.
    600000 steps completed.
    800000 steps completed.
    1000000 steps completed.
    1200000 steps completed.
    1400000 steps completed.
    1600000 steps completed.
    1800000 steps completed.
    2000000 steps completed.

---------------------------------------------------------------
Time used for this run = 1228.15 second.
Speed of this run = 2.60554e+07 atom*step/second.
---------------------------------------------------------------

Use NPT ensemble for this run.
    choose the SCR method.
    initial temperature is 75 K.
    final temperature is 75 K.
    tau_T is 100 time_step.
    pressure_xx is 0 GPa.
    pressure_yy is 0 GPa.
    pressure_zz is 0 GPa.
    modulus_xx is 100 GPa.
    modulus_yy is 100 GPa.
    modulus_zz is 100 GPa.
    tau_p is 1000 time_step.
Time step for this run is 1 fs.
Dump thermo every 10000 steps.
Dump position.
    every 100000 steps.
Run 2000000 steps.
    200000 steps completed.
    400000 steps completed.
    600000 steps completed.
    800000 steps completed.
    1000000 steps completed.
    1200000 steps completed.
    1400000 steps completed.
    1600000 steps completed.
    1800000 steps completed.
    2000000 steps completed.

---------------------------------------------------------------
Time used for this run = 1220.07 second.
Speed of this run = 2.6228e+07 atom*step/second.
---------------------------------------------------------------

Use NPT ensemble for this run.
    choose the SCR method.
    initial temperature is 50 K.
    final temperature is 50 K.
    tau_T is 100 time_step.
    pressure_xx is 0 GPa.
    pressure_yy is 0 GPa.
    pressure_zz is 0 GPa.
    modulus_xx is 100 GPa.
    modulus_yy is 100 GPa.
    modulus_zz is 100 GPa.
    tau_p is 1000 time_step.
Time step for this run is 1 fs.
Dump thermo every 10000 steps.
Dump position.
    every 100000 steps.
Run 2000000 steps.
    200000 steps completed.
    400000 steps completed.
    600000 steps completed.
    800000 steps completed.
    1000000 steps completed.
    1200000 steps completed.
    1400000 steps completed.
    1600000 steps completed.
    1800000 steps completed.
    2000000 steps completed.

---------------------------------------------------------------
Time used for this run = 1196.94 second.
Speed of this run = 2.67349e+07 atom*step/second.
---------------------------------------------------------------

Use NPT ensemble for this run.
    choose the SCR method.
    initial temperature is 25 K.
    final temperature is 25 K.
    tau_T is 100 time_step.
    pressure_xx is 0 GPa.
    pressure_yy is 0 GPa.
    pressure_zz is 0 GPa.
    modulus_xx is 100 GPa.
    modulus_yy is 100 GPa.
    modulus_zz is 100 GPa.
    tau_p is 1000 time_step.
Time step for this run is 1 fs.
Dump thermo every 10000 steps.
Dump position.
    every 100000 steps.
Run 2000000 steps.
    200000 steps completed.
    400000 steps completed.
    600000 steps completed.
    800000 steps completed.
    1000000 steps completed.
    1200000 steps completed.
    1400000 steps completed.
    1600000 steps completed.
    1800000 steps completed.
    2000000 steps completed.

---------------------------------------------------------------
Time used for this run = 1192.38 second.
Speed of this run = 2.68371e+07 atom*step/second.
---------------------------------------------------------------

Use NPT ensemble for this run.
    choose the SCR method.
    initial temperature is 0.1 K.
    final temperature is 0.1 K.
    tau_T is 100 time_step.
    pressure_xx is 0 GPa.
    pressure_yy is 0 GPa.
    pressure_zz is 0 GPa.
    modulus_xx is 100 GPa.
    modulus_yy is 100 GPa.
    modulus_zz is 100 GPa.
    tau_p is 1000 time_step.
Time step for this run is 1 fs.
Dump thermo every 10000 steps.
Dump position.
    every 100000 steps.
Run 2000000 steps.
    200000 steps completed.
    400000 steps completed.
    600000 steps completed.
    800000 steps completed.
    1000000 steps completed.
    1200000 steps completed.
    1400000 steps completed.
    1600000 steps completed.
    1800000 steps completed.
    2000000 steps completed.

---------------------------------------------------------------
Time used for this run = 1147.69 second.
Speed of this run = 2.7882e+07 atom*step/second.
---------------------------------------------------------------


---------------------------------------------------------------
Finished executing the commands in run.in.
---------------------------------------------------------------


---------------------------------------------------------------
Time used = 40154.389775 s.
---------------------------------------------------------------


---------------------------------------------------------------
Finished running GPUMD.
---------------------------------------------------------------

