0.0239782 0.0234424
0.0178039 0.0164358
0.0132408 0.0119363
0.0167323 0.0154322
0.0166928 0.0153825
0.0176869 0.0172042
0.0190952 0.0176454
0.0214222 0.0203019
0.0238203 0.0226278
0.0260868 0.0251879
0.0275962 0.0279792
0.0232683 0.0231728
0.040929 0.0406483
0.0332019 0.0339222
0.0257999 0.0255106
0.0271361 0.0269175
0.0325318 0.0323608
0.0304637 0.0299635
0.0118858 0.0118721
0.0467012 0.0471453
0.00935645 0.00831958
0.0260167 0.0251753
0.0122695 0.0120278
0.0171426 0.0163672
0.0365137 0.0349874
-0.00415373 -0.00517278
0.0294317 0.0282392
0.0225321 0.0211994
0.00512809 0.00377639
0.0217759 0.0206279
0.0142911 0.0144924
0.0121236 0.0111908
-0.00965377 -0.0105264
0.0196246 0.0181811
0.0630235 0.058336
0.000748263 -0.000179583
0.00724941 0.00571125
0.0229723 0.021516
0.0181823 0.0171954
0.0026003 0.00197375
0.00964313 0.0108849
0.0371299 0.0312258
-0.0034521 -0.00279389
-0.00825691 -0.0108732
0.0504449 0.0500236
0.0243951 0.0214726
0.0521815 0.0503836
0.0637455 0.0645572
0.0763675 0.0791331
0.0157365 0.0187768
-0.0435742 -0.032056
-0.0313374 -0.0267747
-0.00337008 -0.00417208
-0.0508915 -0.0529718
0.0219191 0.0194925
-0.0411421 -0.0357179
-0.0410175 -0.0465643
-0.0944238 -0.0934276
-0.0497448 -0.0464576
-0.025432 -0.0229486
-0.0281009 -0.0318949
-0.0164119 -0.0187372
0.000505966 0.00330153
-0.0416966 -0.0399608
-0.0884055 -0.0868182
0.00222191 0.00551208
-0.0447525 -0.0443606
-0.109631 -0.109549
0.0307896 0.0362947
0.0426369 0.0420786
-0.0354295 -0.0269093
-0.0326472 -0.0295808
-0.0677709 -0.0608681
0.00102219 -7.33333e-05
-0.00899003 -0.00470806
-0.0156548 -0.0173164
-0.0406134 -0.0426014
-0.0492262 -0.0528649
-0.0296646 -0.0235321
-0.0337976 -0.0262538
-0.0212901 -0.0162276
0.0588425 0.0575665
0.026468 0.0337135
0.0234581 0.0244006
0.0282726 0.0319394
-0.0534661 -0.050859
-0.129632 -0.123832
-0.0700612 -0.0692114
-0.129267 -0.122043
-0.00661086 -0.00389444
0.0188824 0.0217835
0.0149552 0.0117121
0.0183942 0.0119231
0.0242969 0.0278235
-0.0436968 -0.0463675
0.0181044 0.0183131
-0.102756 -0.103457
-0.0380233 -0.036745
-0.0734878 -0.0733221
0.0165238 0.0158918
-0.0464866 -0.0525801
0.0458581 0.0439089
-0.0626375 -0.0591794
-0.000898474 -0.00925917
-0.091364 -0.0909157
0.0834319 0.0687529
-0.0391687 -0.0365674
-0.0071352 -0.0119608
-0.0815923 -0.0841999
-0.0180795 -0.0217349
-0.096871 -0.0944946
-0.0746772 -0.0707381
-0.0218303 -0.0178837
0.0664542 0.0636467
-0.06192 -0.0503462
-0.0608996 -0.0561199
0.0359543 0.0385889
-0.0721265 -0.0811368
-0.06629 -0.0635839
-0.0114969 -0.0289158
-0.00478527 -0.00602417
-0.10359 -0.098189
-0.0105858 -0.00633153
-0.0658483 -0.070004
-0.0996933 -0.0984872
0.140811 0.133762
-0.108021 -0.104063
0.0557464 0.0492115
0.0637952 0.0669962
-0.0649321 -0.0693483
-0.0378681 -0.0455211
0.0606536 0.0478717
-0.0152137 -0.0220593
-0.0501163 -0.0470789
0.0392978 0.0417153
-0.119815 -0.11779
-0.0430412 -0.0439101
-0.0636606 -0.0709042
-0.135873 -0.130032
-0.149464 -0.152535
0.0452874 0.040169
-0.058763 -0.0693453
0.0189827 0.0116751
0.120886 0.117009
-0.0585759 -0.0577036
-0.0207144 -0.0271375
0.00127628 -0.0140964
0.0044458 -0.0119771
-0.0575913 -0.0535633
0.0270976 0.0290381
-0.10259 -0.0995399
0.0686787 0.0592219
-0.0301216 -0.0304825
-0.00784784 -0.0299601
0.115591 0.115829
0.101371 0.105363
-0.0486247 -0.0419397
0.0628277 0.063935
0.0140672 0.00724472
-0.0486393 -0.0481619
-0.214973 -0.207659
-0.0708248 -0.0709847
-0.0277237 -0.0448511
0.104117 0.112722
0.167878 0.158417
-0.00515906 0.0113611
-0.205371 -0.196274
-0.135928 -0.141266
-0.0764085 -0.0793924
-0.108993 -0.0902031
-0.128115 -0.11651
-0.103758 -0.108202
-0.205774 -0.209869
-0.0855895 -0.0872903
0.0266321 0.0272329
-0.0421377 -0.0302147
0.0163256 0.00453653
-0.0746209 -0.0671442
0.0219993 0.0234665
-0.0359252 -0.0170738
0.122765 0.100865
-0.149555 -0.13751
-0.00869837 -0.00642764
-0.295136 -0.267737
-0.187273 -0.178687
0.0473289 0.0243267
-0.137885 -0.12031
-0.0189648 -0.0140175
0.0633301 0.0706396
-0.00929691 -0.011856
-0.0676093 -0.0635129
-0.0549976 -0.0475793
0.0422767 0.0363658
-0.0255598 -0.0217847
0.0847993 0.0910974
0.110747 0.108097
-0.0836865 -0.0971782
0.0142648 -0.00150236
-0.0817307 -0.0467335
-0.0346905 -0.035644
-0.139663 -0.108705
0.0448931 0.0347786
-0.144128 -0.147744
-0.13505 -0.131283
-0.0520559 -0.0420161
-0.0753704 -0.0747697
-0.0186221 0.00137556
-0.0799807 -0.0961267
0.00360364 -0.017934
-0.17262 -0.177545
-0.263705 -0.246204
0.189907 0.194054
-0.0113824 0.0100617
-0.0447391 -0.0558674
-0.179146 -0.174264
0.113409 0.0848868
-0.155298 -0.143302
-0.0584423 -0.0830706
0.130695 0.148432
-0.0154131 -0.0266117
-0.168928 -0.167923
-0.0920991 -0.0977143
-0.17153 -0.168143
-0.00953469 -0.0117851
-0.0549556 -0.0544261
-0.174005 -0.16048
0.00116399 -0.00982833
0.0511731 0.0280524
-0.174499 -0.142795
-0.036578 -0.034279
0.0157426 0.0239226
-0.188338 -0.171033
-0.107505 -0.122341
-0.204381 -0.198654
-0.130169 -0.111437
-0.106907 -0.107744
-0.144654 -0.105949
-0.090478 -0.113979
-0.134018 -0.14185
0.104973 0.0954319
-0.172089 -0.186582
-0.0836423 -0.0751711
-0.143482 -0.145
-0.317184 -0.304338
-0.198516 -0.190472
-0.0967163 -0.0635431
-0.0994805 -0.118819
-0.156888 -0.12752
-0.0635162 -0.072005
-0.0027258 -0.00707542
-0.0389923 -0.0404457
0.126267 0.120416
0.0234348 0.0204939
-0.0934605 -0.0989293
0.0053214 0.00592569
0.10606 0.0995357
0.101641 0.102086
0.111613 0.109824
0.0413951 0.0405085
-0.0833479 -0.0884387
-0.0642499 -0.0698043
0.111705 0.112698
0.132143 0.133659
-0.10651 -0.112731
0.192314 0.190213
0.147408 0.14233
0.136972 0.130668
-0.00572938 -0.00576861
0.0562795 0.0577407
-0.034979 -0.0411207
0.107872 0.107391
0.0289852 0.0285229
0.0468665 0.0445079
0.173453 0.171207
0.00942602 0.00841444
0.120409 0.124716
-0.0397668 -0.0365856
0.167591 0.16931
0.325758 0.331991
-0.0762491 -0.080319
-0.126571 -0.139757
0.153868 0.157406
-0.0645992 -0.0666194
-0.0962882 -0.0933953
-0.0531896 -0.0560546
0.0224471 0.023636
-0.0699073 -0.065659
0.265554 0.2714
-0.0210414 -0.0214815
-0.00435801 4.58333e-06
-0.130428 -0.132049
0.274842 0.280582
-0.00951417 -0.00639319
0.147667 0.150699
0.322258 0.327163
-0.0999773 -0.10175
-0.000495809 -0.00101875
0.122253 0.129
-0.126778 -0.131901
-0.00985713 -0.00902028
0.0787627 0.0765508
-0.0147351 -0.0213299
0.00630943 0.00104708
0.056588 0.0504581
-0.17198 -0.178216
-0.0730009 -0.0809082
0.0462312 0.0404604
0.219866 0.227509
-0.0936989 -0.0958739
-0.228747 -0.231439
0.208396 0.219523
0.230108 0.227592
0.24294 0.236404
0.56626 0.561337
0.084429 0.0845764
-0.18879 -0.195897
0.0129268 0.00598847
0.471891 0.475303
0.217436 0.224784
-0.0194193 -0.0211633
0.0330279 0.0297817
0.0118814 0.0055875
-0.332691 -0.340258
-0.0116904 -0.017335
-0.160947 -0.165606
0.637202 0.632513
-0.204533 -0.199953
-0.296344 -0.298494
-0.24047 -0.240413
-0.322164 -0.333468
-0.371883 -0.372895
0.502388 0.500517
0.312748 0.309102
0.101584 0.0939404
0.261229 0.272847
0.54919 0.542028
0.415182 0.420918
0.624608 0.620829
0.00550099 0.0192554
0.638151 0.639845
0.175685 0.18531
-0.399989 -0.396175
-0.279541 -0.285223
0.757548 0.7479
0.249611 0.246903
-0.207042 -0.208672
0.286006 0.287775
0.20548 0.20765
0.113902 0.120616
0.384696 0.396691
0.513969 0.53524
0.214827 0.233111
0.20396 0.209932
0.322931 0.33301
0.0648758 0.0641089
-0.43022 -0.435509
0.106311 0.113198
0.607041 0.63832
-0.226963 -0.230818
0.342469 0.358031
-0.175428 -0.180333
0.400472 0.421296
-0.383715 -0.391718
-0.0270976 -0.0331457
-0.0746022 -0.0812512
-0.111761 -0.110783
-0.504838 -0.514909
0.0474827 0.0474739
-0.139462 -0.139469
-0.579117 -0.584404
0.657376 0.67233
-0.509208 -0.515951
-0.0539668 -0.0515144
0.0859891 0.0877219
-0.0861195 -0.0939375
0.0185203 0.0157318
-0.193822 -0.197195
0.00370677 0.00169222
0.0540551 0.0562771
-0.0151726 -0.0178807
-0.0534117 -0.0586183
-0.0286185 -0.0259124
-0.0472172 -0.0418732
0.079673 0.0799458
0.0171974 0.0153883
0.121171 0.123509
-0.0736407 -0.0767139
-0.0035186 -0.00999653
-0.0641748 -0.0626174
0.0623336 0.0582074
0.0550717 0.0519326
-0.0593275 -0.0613418
-0.0862085 -0.0853611
-0.0791519 -0.0781074
0.0645746 0.0590271
-0.164825 -0.167921
-0.0293856 -0.0318174
0.01177 0.00931847
0.0386692 0.0407685
0.0597716 0.0586153
-0.0781313 -0.0841114
-0.0200998 -0.0154662
0.0945279 0.0898808
0.0494052 0.050721
-0.0927799 -0.093704
-0.019409 -0.0200782
0.116262 0.115767
-0.0812792 -0.0793014
-0.0498949 -0.0534418
-0.0581874 -0.0570589
-0.254009 -0.252184
-0.0609485 -0.0452624
0.0792925 0.0773625
-0.0811403 -0.0820276
-0.0908443 -0.0866049
-0.0822707 -0.075521
-0.0123924 -0.0141751
0.0841587 0.095715
-0.028851 -0.022484
-0.0333579 -0.038124
-0.0759615 -0.0882233
0.0246457 0.0142839
-0.101599 -0.111068
-0.0540567 -0.0538247
-0.014247 -0.0270071
-0.0964877 -0.0958039
0.0613041 0.0705831
-0.0834203 -0.0806392
-0.325836 -0.305508
-0.144706 -0.150724
-0.0748014 -0.0562594
0.0209209 0.0340763
0.171862 0.182835
-0.0565303 -0.0524368
0.187995 0.174052
-0.123318 -0.108347
-0.0334628 -0.0208251
0.104495 0.102259
-0.204422 -0.199833
-0.22194 -0.213344
-0.0932676 -0.0802497
-0.153906 -0.155663
0.0948629 0.0968944
-0.286269 -0.270715
-0.0994505 -0.0893699
-0.0985941 -0.0865124
-0.147931 -0.14816
-0.21362 -0.206467
-0.104526 -0.0700304
-0.0880619 -0.0933007
-0.560543 -0.55457
-0.517807 -0.501788
-0.160802 -0.157448
-0.449003 -0.449286
-0.216307 -0.210103
-0.243681 -0.246438
-0.154588 -0.15487
-0.202109 -0.204765
-0.311722 -0.303489
-0.307386 -0.308456
-0.127244 -0.133564
-0.251152 -0.250448
-0.278855 -0.278364
-0.553389 -0.54727
-0.00423987 -0.00629986
-0.458927 -0.462657
-0.00716063 -0.00390556
-0.0536514 -0.0571408
-0.563853 -0.549572
-0.371424 -0.370607
-0.0410254 -0.0481188
-0.493341 -0.492454
-0.0621182 -0.0634454
-0.0412795 -0.0417794
-0.432811 -0.4233
-0.330493 -0.323363
-0.0925135 -0.0999757
-0.413066 -0.414487
-0.150202 -0.148542
-0.197805 -0.198612
-0.017839 -0.0177115
-0.377547 -0.370222
-0.129826 -0.133696
-0.349519 -0.343875
-0.39511 -0.389431
-0.284163 -0.285171
-0.109809 -0.109771
-0.421009 -0.418997
-0.344884 -0.332701
-0.0291311 -0.0306942
-0.352573 -0.347354
-0.43633 -0.43296
-0.232232 -0.235313
-0.521446 -0.506982
-0.350981 -0.348295
-0.341206 -0.335846
-0.461546 -0.450077
-0.552793 -0.540263
-0.206804 -0.212019
-0.513255 -0.505202
-0.516474 -0.507262
-0.473245 -0.468399
-0.407789 -0.409261
-0.207879 -0.209973
-0.0250858 -0.0222561
-0.159036 -0.156344
-0.50769 -0.502403
-0.245046 -0.248562
-0.374147 -0.370544
-0.296521 -0.28993
-0.22095 -0.223749
-0.274423 -0.276228
-0.589324 -0.571705
-0.0783215 -0.081139
-0.1222 -0.121264
-0.472254 -0.469138
-0.092632 -0.093724
-0.182903 -0.187007
-0.311742 -0.308529
-0.318408 -0.313808
-0.555268 -0.538387
-0.0671057 -0.0721708
-0.065299 -0.0688988
-0.273854 -0.272846
-0.494194 -0.48973
-0.348618 -0.338693
-0.371407 -0.359851
-0.207018 -0.202733
-0.427022 -0.416247
-0.626219 -0.619294
-0.179734 -0.179175
-0.186031 -0.186877
0.0148755 0.0141744
-0.556928 -0.545244
-0.66234 -0.645623
-0.383588 -0.380992
-0.44332 -0.438203
-0.154505 -0.152259
-0.204304 -0.203061
-0.0900588 -0.0884761
-0.66975 -0.652899
-0.501535 -0.492031
-0.216279 -0.216629
-0.125685 -0.126107
-0.311374 -0.311575
-0.21625 -0.212545
-0.428125 -0.425073
-0.109811 -0.106992
-0.20916 -0.211168
0.0423071 0.0449544
0.0396125 0.0420161
0.0363262 0.0387233
0.0393893 0.0421808
0.0316992 0.0343229
0.0366255 0.0393878
0.0324676 0.0351031
0.0416243 0.0441562
0.0445548 0.0468519
0.0372254 0.0396556
-0.0282321 -0.0281785
-0.0313819 -0.031166
-0.0233534 -0.0228569
-0.0112195 -0.0108906
-0.0223415 -0.0223728
-0.0317879 -0.0319137
-0.0225342 -0.0227607
-0.0313239 -0.0312317
-0.0427487 -0.043349
-0.00766293 -0.00654153
0.0223945 0.0230435
0.0240542 0.0249915
0.0333022 0.033114
0.0199249 0.0205704
0.0349667 0.0346028
0.00122695 0.00152736
0.0310219 0.0313192
0.044839 0.0467754
0.0152622 0.0150557
0.0301075 0.0310842
0.0330305 0.0325089
0.0277231 0.0269515
-0.00720673 -0.00797639
0.0208061 0.0198772
0.0510405 0.0471981
0.00862607 0.00751403
-0.00977753 -0.011584
0.0346877 0.0340621
0.0107333 0.0101129
0.0183402 0.0174593
-0.116997 -0.112613
-0.127023 -0.125155
-0.133185 -0.131279
-0.116343 -0.118366
-0.0738285 -0.0705475
-0.133607 -0.134993
-0.0988468 -0.0943601
-0.0836692 -0.0809636
-0.0620074 -0.0570162
-0.110806 -0.109681
-0.0980689 -0.0938714
-0.115077 -0.120326
-0.122466 -0.110151
-0.14021 -0.139224
-0.0677693 -0.0641533
0.0284629 0.0246789
-0.206046 -0.195494
-0.228864 -0.225856
-0.0655602 -0.0615503
-0.131564 -0.127573
-0.0820665 -0.0761574
-0.109766 -0.107079
-0.108438 -0.103724
-0.0734039 -0.0697474
-0.121783 -0.125795
-0.110066 -0.105202
-0.134257 -0.13482
-0.168012 -0.165648
-0.0198475 -0.0213976
-0.00510996 -0.00671681
-0.109093 -0.116544
-0.0543122 -0.0504764
-0.118866 -0.118144
-0.0143319 -0.0163236
-0.13272 -0.129704
-0.0582096 -0.0567046
-0.123055 -0.124348
-0.0837304 -0.0815689
-0.167975 -0.161511
-0.0876071 -0.0807354
-0.135158 -0.131268
0.00504357 0.00285
-0.036966 -0.0391643
-0.0819934 -0.0815031
-0.0192672 -0.0178029
-0.130772 -0.13102
-0.159179 -0.161328
-0.167882 -0.166622
-0.142682 -0.139813
-0.0165367 -0.0204635
-0.0700844 -0.0668793
-0.0426543 -0.0437518
-0.0463773 -0.0487506
-0.0408008 -0.0441856
-0.247802 -0.243912
-0.0743041 -0.0784301
-0.117684 -0.11897
-0.134703 -0.129254
-0.0466614 -0.0448817
-0.0350006 -0.0295553
-0.00466068 -0.0100504
-0.0628081 -0.0712263
0.0413552 0.0280172
-0.0324844 -0.0438787
-0.116491 -0.115575
-0.0423935 -0.0364774
-0.0708268 -0.0650367
0.00556003 0.0137937
0.0265715 0.0178949
0.00682905 0.00276444
-0.147511 -0.158172
0.00457116 0.00523097
-0.0158796 -0.0229892
-0.0418679 -0.0342307
0.0191018 0.0201208
-0.063588 -0.0642954
-0.00790201 -0.013286
0.0463829 0.0456056
0.0362659 0.0314038
-0.00424389 -0.00656347
-0.0661504 -0.0648433
0.0295995 0.0226143
-0.00673075 -0.0123532
0.0242065 0.0244172
-0.0256848 -0.0421772
0.0964118 0.0904151
-0.014401 -0.0135874
0.141525 0.129121
0.0459646 0.0339613
-0.0523017 -0.0388996
-0.0761169 -0.0603278
-0.0761287 -0.0749287
0.0216933 0.0157985
-0.0435371 -0.0402994
0.0402497 0.0293921
-0.0239161 -0.0286685
0.0114722 0.0156443
-0.0154375 -0.0167742
-0.0318127 -0.0329072
-0.101158 -0.102371
0.0147397 0.0180696
-0.00671348 -0.00149653
0.0741645 0.0712588
-0.028343 -0.023019
-0.00411607 -0.00300792
-0.0944499 -0.0901456
0.00943787 0.00634861
-0.0398329 -0.0382731
0.00658452 0.00571403
0.00566064 0.00938028
-0.222032 -0.215298
-0.160099 -0.146962
-0.16482 -0.159982
-0.146561 -0.120939
-0.0577411 -0.0540112
-0.0608175 -0.0595753
-0.160324 -0.151747
0.00291366 -0.00927153
-0.0894184 -0.079891
-0.157351 -0.155208
-0.249888 -0.229163
-0.0907574 -0.101371
-0.199964 -0.171468
0.0556132 0.0219297
0.00563497 0.0239325
-0.0252003 0.00369861
-0.260181 -0.251458
-0.297433 -0.271453
-0.148829 -0.133949
-0.177545 -0.152322
-0.0439515 -0.0403728
-0.247839 -0.225341
-0.127045 -0.126187
-0.143908 -0.11638
0.00958615 0.0103792
-0.0966319 -0.105893
0.00438413 0.017616
0.0302018 0.0337556
0.0804292 0.0696063
-0.0876784 -0.0817599
-0.0424376 -0.0313993
-0.19906 -0.188975
-0.120311 -0.119174
-0.329102 -0.297236
-0.119204 -0.125411
-0.0926866 -0.105921
-0.0996637 -0.0978333
0.0992428 0.08217
-0.0637853 -0.0657256
-0.0103537 -0.0181408
-0.030978 -0.034366
-0.0866069 -0.0745785
-0.105228 -0.106035
-0.0265456 -0.0228671
0.0289455 0.0240706
0.138799 0.132211
-0.268866 -0.270119
-0.0651404 -0.0474626
0.0260415 0.0234626
-0.204843 -0.193069
-0.140592 -0.149133
0.049967 0.0360472
0.000250503 0.00334347
-0.181432 -0.173899
-0.094887 -0.0915835
-0.126904 -0.108378
0.0572821 0.0253886
0.013935 -0.00231167
0.02432 -0.00435083
-0.205139 -0.220867
-0.0834734 -0.0914993
0.170086 0.168927
-0.122569 -0.16073
-0.0332836 -0.0429636
-0.264755 -0.245642
-0.107721 -0.0921276
-0.155774 -0.169783
-0.0248353 -0.0171203
-0.183015 -0.146762
-0.0568218 -0.0497357
0.0651249 0.0240231
-0.12024 -0.140703
-0.2191 -0.196072
-0.158199 -0.138752
-0.0987034 -0.0997319
-0.0315615 -0.0334126
-0.0966424 -0.080564
-0.0802126 -0.0698593
-0.27711 -0.24551
-0.00168413 -0.0356339
-0.0309246 -0.0509489
-0.261232 -0.279335
-0.097 -0.112237
-0.173414 -0.177758
-0.0464837 -0.0556582
-0.282725 -0.291863
-0.185811 -0.155784
-0.157313 -0.165942
-0.0607631 -0.0633582
0.017563 -0.00563653
-0.185321 -0.189502
-0.167793 -0.141558
-0.0111063 -0.0108624
-0.119358 -0.119759
-0.320496 -0.331622
-0.102489 -0.101767
-0.228308 -0.230078
-0.167339 -0.147794
-0.208107 -0.206565
-0.0768222 -0.10414
0.111848 0.116127
0.0146467 0.0135846
-0.0375937 -0.0380931
-0.0757714 -0.0817854
0.0709825 0.0791213
-0.0595566 -0.0646596
0.0473958 0.0501803
0.14179 0.15223
0.0820789 0.0887672
-0.0291819 -0.0312517
0.0368693 0.0448378
-0.00110198 -0.000204306
0.0960444 0.102799
-0.0739394 -0.0805658
0.175246 0.183891
0.0888697 0.0932143
-0.0170032 -0.0193754
-0.0130578 -0.0131622
0.125177 0.134352
-0.0845838 -0.0910811
0.158207 0.168174
0.0504043 0.0572092
-0.000778447 -0.000397083
0.200236 0.207536
0.0883551 0.097534
0.121292 0.125267
-0.156324 -0.158913
-0.137241 -0.1391
0.11598 0.118246
-0.142159 -0.149433
-0.225553 -0.245236
-0.101799 -0.103176
0.0688082 0.0706647
-0.204442 -0.207972
5.99192e-06 0.00482903
-0.210509 -0.212762
-0.153851 -0.156997
0.0632218 0.0666328
0.101702 0.10544
-0.14772 -0.150513
0.0560899 0.0549515
-0.0090558 -0.00925056
-0.214316 -0.21699
0.0500154 0.0523914
0.17097 0.176622
0.113937 0.116793
0.131327 0.135834
-0.124399 -0.126156
0.0298535 0.02943
0.107705 0.11085
0.297518 0.301833
0.237221 0.250747
0.1369 0.14555
0.287539 0.300118
-0.218875 -0.223118
-0.187722 -0.190709
0.0728982 0.0810729
-0.0659123 -0.0657004
0.139148 0.141703
0.295283 0.29838
-0.103329 -0.104419
0.302012 0.30915
0.392796 0.405644
0.316297 0.32223
0.167208 0.170279
0.130784 0.146215
0.134739 0.147047
0.194801 0.196252
0.1896 0.191423
0.390493 0.394402
0.340256 0.349686
-0.0102375 -0.00498306
-0.392994 -0.411929
0.0937327 0.101388
-0.133396 -0.136337
0.414224 0.417577
0.0854721 0.0794
0.126511 0.120722
0.414354 0.4154
-0.54117 -0.551764
-0.358222 -0.360204
0.22094 0.220917
0.504319 0.509657
0.295054 0.30902
0.0809479 0.0782526
0.421567 0.428751
-0.0868319 -0.0854831
0.324933 0.324133
-0.16747 -0.16869
-0.0807798 -0.0819204
0.157624 0.153473
-0.154196 -0.160676
0.0593987 0.05374
0.678584 0.673417
-0.247539 -0.24819
-0.414217 -0.417723
-0.139402 -0.139314
-0.1714 -0.171391
-0.000767768 -0.00307361
-0.216443 -0.214289
0.0194427 0.0294869
-0.0473412 -0.0427006
-0.0472794 -0.0422501
0.142797 0.153327
0.123837 0.132294
-0.392477 -0.392449
0.066652 0.0733138
0.329901 0.342882
-0.0385004 -0.0376528
-0.218668 -0.21246
0.278414 0.304587
0.587733 0.595565
-0.571019 -0.574927
-0.562074 -0.562208
-0.428748 -0.426668
-0.17482 -0.169917
-0.667448 -0.664863
0.209883 0.219226
-0.296809 -0.295487
-0.602962 -0.603368
0.281388 0.299665
-0.622555 -0.622701
0.197846 0.201802
-0.113048 -0.110403
-0.422947 -0.425889
0.0176076 0.0137035
-0.0664876 -0.0689307
-0.0540347 -0.0531821
-0.0717249 -0.0715911
0.00110674 0.000446806
-0.0712929 -0.0721381
-0.042691 -0.0449164
-0.0711368 -0.0769953
0.0325265 0.0342914
0.00671453 0.000900278
0.0258977 0.0206754
-0.00205796 -0.00769542
-0.0760857 -0.0772579
0.00244351 0.00169208
-0.0392459 -0.0425996
-0.120967 -0.120054
0.0110036 0.0108057
0.0183663 0.0182108
-0.0914532 -0.0962811
-0.0571221 -0.0663943
-0.0494571 -0.0510217
-0.0935623 -0.0923767
0.0280083 0.0230507
0.111276 0.110763
0.025229 0.0198286
0.0430344 0.0419842
0.034043 0.0247754
-0.0755585 -0.077301
-0.0107049 -0.0146639
-0.170787 -0.173253
-0.00648079 -0.0121547
-0.0705625 -0.0698022
-0.112635 -0.116686
-0.0309963 -0.0253418
-0.138597 -0.144906
-0.169769 -0.164621
-0.143169 -0.152767
0.0675208 0.0568435
-0.170465 -0.172188
-0.175168 -0.176239
-0.0126348 -0.0213517
-0.196824 -0.197575
0.0155806 0.00982264
-0.0599195 -0.0693579
0.0297666 0.0291886
0.0142835 0.016439
-0.0734069 -0.0725496
-0.188868 -0.187352
-0.193637 -0.193393
-0.00575278 -0.0134883
-0.0829206 -0.0834431
-0.080587 -0.0631467
-0.0640481 -0.0578212
-0.170807 -0.171132
-0.139488 -0.137535
-0.0421119 -0.0281201
0.0979159 0.0848615
0.154207 0.145358
0.0865748 0.0873317
-0.0617676 -0.0699454
-0.0623337 -0.0712083
-0.0344986 -0.0372278
-0.121967 -0.121456
-0.0844599 -0.0889351
-0.138167 -0.130232
-0.0619316 -0.0584831
-0.224034 -0.206737
-0.18251 -0.171526
-0.250403 -0.239657
0.0316436 0.0329971
0.0802839 0.0820892
-0.0830589 -0.0814056
-0.214844 -0.220442
-0.0652966 -0.0697535
0.0638012 0.0730842
0.0359603 0.0445139
-0.0237085 -0.00991931
-0.0753207 -0.0764354
0.0567922 0.0753161
-0.123363 -0.119979
-0.122408 -0.123593
-0.0229907 -0.0210965
0.0374975 0.0401665
-0.0434574 -0.0317558
-0.0495897 -0.038544
-0.0415432 -0.0376617
-0.0700788 -0.0678936
0.047511 0.049875
-0.00746193 0.00272014
0.0608076 0.0560674
0.0845271 0.111524
0.0317492 0.0423247
-0.00843979 -0.0113779
0.0259333 0.0352046
-0.00403827 0.00270833
-0.0971966 -0.0980757
0.0613181 0.0675896
0.0594988 0.0585492
-0.0470398 -0.0516606
-0.0842373 -0.0786243
-0.0270616 -0.0232458
-0.0877708 -0.0836707
-0.0894452 -0.0815557
-0.0500126 -0.0496307
-0.0686508 -0.0649787
-0.0269256 -0.0165583
-0.0430406 -0.0380692
0.064077 0.0699808
0.0815313 0.0964333
-0.082407 -0.0753969
-0.0257915 -0.0254929
-0.0783716 -0.0744336
0.075983 0.0961118
-0.0232286 -0.00809167
-0.0434349 -0.0383731
0.0927576 0.10512
0.0517444 0.0595124
0.0414289 0.0466782
-0.0418933 -0.0206564
-0.00218594 0.00322806
-0.0502775 -0.0413018
0.0496759 0.0565872
-0.00243873 0.00430681
-0.101657 -0.103035
-0.452479 -0.450134
-0.49051 -0.48474
-0.4521 -0.453517
-0.374211 -0.374478
-0.186038 -0.186354
-0.0381613 -0.0364233
-0.0628323 -0.0600572
-0.428718 -0.437277
-0.224661 -0.227302
-0.417591 -0.414345
-0.187303 -0.19284
-0.217898 -0.217429
-0.320385 -0.31844
-0.578886 -0.571092
-0.170427 -0.169589
-0.108539 -0.113014
-0.476726 -0.474237
-0.0792481 -0.0776775
-0.178722 -0.178202
-0.278836 -0.279226
-0.265364 -0.267714
-0.41315 -0.42108
-0.122881 -0.121605
-0.120764 -0.115874
-0.295881 -0.293556
-0.433849 -0.436694
-0.310866 -0.309604
-0.261249 -0.263774
-0.122957 -0.121706
-0.478717 -0.473213
-0.614439 -0.61061
-0.138351 -0.131019
-0.161849 -0.161648
0.00872833 -0.000238194
-0.528301 -0.530155
-0.612176 -0.609027
-0.384129 -0.387961
-0.339766 -0.342973
-0.143162 -0.14308
-0.133865 -0.131717
-0.0605858 -0.0644278
-0.601021 -0.604704
-0.404454 -0.408487
-0.170067 -0.170375
-0.0918953 -0.0925139
-0.304779 -0.304227
-0.175041 -0.172113
-0.339605 -0.344771
-0.0834123 -0.0872857
-0.168803 -0.165249
-0.013897 -0.0201821
-0.0212218 -0.0284456
-0.0276909 -0.0356653
-0.0221972 -0.0292532
-0.028642 -0.0360594
-0.0238247 -0.0305196
-0.0260517 -0.0333843
-0.0166309 -0.0235281
-0.0123765 -0.0188121
-0.0164076 -0.0225519
-0.0332187 -0.0381247
-0.0392584 -0.0443368
-0.0173862 -0.0208319
-0.0136664 -0.0173694
-0.0301524 -0.0361542
-0.0372947 -0.042914
-0.0241864 -0.0290826
-0.0336905 -0.0384819
-0.0591151 -0.0663106
-0.001156 -0.00283611
-0.0345068 -0.0393804
-0.0195031 -0.0236446
-0.0206117 -0.0240942
-0.0309974 -0.0358664
-0.00393922 -0.00606486
-0.0619104 -0.0688911
-0.0142498 -0.0177501
-0.0111171 -0.0140068
-0.0428762 -0.0497854
-0.0197701 -0.0239611
-0.0168327 -0.0209213
-0.0282835 -0.0335665
-0.0720138 -0.0794222
-0.0187049 -0.0214461
0.034441 0.0445365
-0.049968 -0.0566211
-0.0539011 -0.0606585
-0.0108224 -0.0135411
-0.0319885 -0.0366838
-0.0378252 -0.0430228
-0.0294002 -0.0351637
-0.0155393 -0.0178021
-0.0416278 -0.0480628
-0.0425224 -0.0452049
0.0228416 0.0262608
-0.0072623 -0.00734042
0.00964456 0.00877069
0.0785188 0.0822075
0.0530905 0.0565139
-0.0353885 -0.0414465
-0.0409358 -0.0508786
-0.0336724 -0.0415951
0.0166196 0.0144028
-0.034291 -0.0415968
0.0401299 0.044226
-0.041903 -0.0490401
0.00977114 0.00748694
-0.152272 -0.159442
0.00705802 0.00064625
0.028113 0.0254987
0.00984873 0.00922569
-0.041393 -0.0523408
0.024322 0.0170328
-0.0437577 -0.0477858
-0.106663 -0.11556
-0.00408206 -0.00999625
-0.0668564 -0.0744974
-0.0335645 -0.0416629
0.0209941 0.01801
0.0321752 0.0314581
-0.0425837 -0.0466056
-0.0196642 -0.0250904
-0.0789089 -0.0864367
0.00839868 0.00226333
-0.0894322 -0.103255
-0.0478751 -0.0508263
-0.051044 -0.0572425
-0.0614634 -0.064226
-0.0144739 -0.0225563
-0.0320011 -0.0469919
-0.104138 -0.116869
0.0536917 0.0512321
0.0166612 0.0128754
-0.0298087 -0.0348911
0.0045168 0.00437181
-0.0802668 -0.0840749
-0.0359409 -0.0419556
-0.0739683 -0.0805515
-0.119667 -0.130617
-0.0760932 -0.0833892
-0.0376866 -0.0439815
-0.0276625 -0.0331846
-0.0411802 -0.039929
-0.00877446 -0.0155512
-0.0783612 -0.0839004
0.0521709 0.0507407
-0.0507525 -0.0612707
0.0258648 0.0253497
-0.0175684 -0.020321
-0.000568179 -0.0058075
-0.111791 -0.121143
-0.0303733 -0.0289504
-0.0770514 -0.076491
-0.0137849 -0.0209047
-0.117108 -0.130675
7.90358e-05 -0.00503139
-0.0330657 -0.0363669
-0.00896834 -0.0105197
-0.0640009 -0.0643485
-0.0127397 -0.0215535
-0.131271 -0.134828
-0.0628708 -0.0709308
-0.0138601 -0.0155878
-0.0115332 -0.0117918
-0.0302042 -0.041395
-0.0146683 -0.0224964
-0.0793845 -0.0776089
-0.0351788 -0.0414981
-0.101732 -0.110732
-0.0438819 -0.0519839
-0.0398432 -0.051265
-0.0301591 -0.037026
-0.0210587 -0.0269428
0.0190644 0.0140072
-0.0446405 -0.0495104
0.0505053 0.0518567
-0.106994 -0.113927
0.0511126 0.0553619
0.132094 0.132762
-0.180894 -0.189526
-0.0369695 -0.0439146
-0.0280596 -0.0361257
0.00117506 0.0001775
-0.0211371 -0.0353439
0.0761792 0.0755514
-0.0309126 -0.039924
-0.0313703 -0.039999
-0.09836 -0.119732
-0.103453 -0.111748
-0.229695 -0.245613
0.0264821 0.0214485
-0.0461116 -0.063974
-0.031721 -0.0409949
0.013738 0.00784069
0.0437778 0.0383897
0.0394115 0.0409858
-0.0635983 -0.0678369
-0.00375262 -0.00643625
-0.0575568 -0.0695192
-0.0471092 -0.0636608
-0.147463 -0.155537
-0.0116123 -0.0165737
-0.0477484 -0.0568453
-0.12943 -0.136937
0.0474068 0.0401968
-0.0352193 -0.0465353
-0.14056 -0.159493
-0.0575752 -0.0659103
-0.0684632 -0.0832312
-0.074576 -0.087415
-0.165223 -0.174364
-0.241795 -0.253316
-0.0582014 -0.0672857
0.0730246 0.0755367
0.108191 0.11032
0.203249 0.211873
-0.102447 -0.111939
-0.236868 -0.247554
-0.0941736 -0.107058
-0.0252705 -0.0316526
-0.163271 -0.176116
-0.109913 -0.117911
-0.135525 -0.144611
-0.129619 -0.13093
-0.0852624 -0.0992511
-0.0789286 -0.0994849
-0.0589789 -0.0684285
-0.160495 -0.169166
-0.00735411 -0.0143979
-0.0610388 -0.0693229
-0.0796309 -0.0890783
-0.215145 -0.23453
-0.0118796 -0.0284965
-0.234579 -0.235139
-0.186204 -0.198738
-0.122083 -0.134238
-0.13726 -0.153329
0.0443707 0.0451606
0.0183881 0.0197324
-0.0594308 -0.0577825
-0.136894 -0.147907
-0.0259587 -0.0408246
-0.0820949 -0.0895454
-0.192403 -0.203905
-0.00658795 -0.0134106
0.204577 0.205617
-0.100852 -0.103251
-0.0432631 -0.0385328
-0.139968 -0.16171
-0.197714 -0.207071
-0.213803 -0.224661
-0.029623 -0.026069
-0.0549072 -0.0690132
-0.136609 -0.152855
-0.163213 -0.177369
-0.167115 -0.18093
-0.0200759 -0.0334357
0.0688256 0.0634606
-0.0747498 -0.0847435
-0.00926817 0.00664667
-0.148801 -0.161263
0.15346 0.149163
0.102141 0.0885276
0.06096 0.0462075
-0.178302 -0.186944
-0.0691996 -0.0841546
-0.128313 -0.152692
-0.113483 -0.14033
0.00137313 0.00161042
-0.00282761 -0.00847333
0.0318647 0.0305065
-0.183948 -0.203236
-0.0827758 -0.0889125
-0.0803893 -0.101929
-0.0219193 -0.027001
-0.0881325 -0.0967199
-0.0723893 -0.0882504
-0.0087049 -0.0193293
-0.088508 -0.104834
-0.0657333 -0.0996279
-0.182339 -0.182954
-0.133615 -0.147617
-0.0512343 -0.0465132
-0.0915971 -0.115988
-0.000764769 -0.0127504
-0.0695173 -0.066569
-0.218363 -0.223835
-0.109008 -0.126716
0.0130531 0.00150333
0.0295156 0.0136335
-0.18087 -0.201767
-0.214681 -0.23154
-0.0679538 -0.0703256
-0.047439 -0.036929
-0.0752522 -0.0796446
-0.0460228 -0.04076
-0.0852316 -0.0842681
-0.0781009 -0.104554
-0.0322597 -0.0334225
-0.0594585 -0.0912661
-0.0160377 -0.024756
0.00535329 -0.00687042
-0.0453508 -0.0517943
-0.0946845 -0.104262
-0.0164838 -0.0235957
-0.0240162 -0.0373657
0.00740933 0.00127431
0.0422868 0.0373556
-0.000778786 -0.00843611
-0.0770614 -0.0826439
-0.0501489 -0.0594796
-0.0038584 -0.0103039
0.0330492 0.027245
-0.0985499 -0.106349
0.0787914 0.0700922
0.0372915 0.0256153
-0.000648329 -0.011634
-0.0465768 -0.0536885
0.0186738 0.0136711
-0.079057 -0.0893072
0.0452711 0.04054
-0.0145957 -0.0213242
-0.0260566 -0.0325715
0.0810876 0.0719069
-0.00959076 -0.0158754
0.0471289 0.0448853
-0.092502 -0.101169
-0.0182858 -0.0257507
0.112072 0.108921
-0.100227 -0.101148
-0.13959 -0.123077
-0.013729 -0.0207569
-0.0264509 -0.0306503
-0.127766 -0.138382
-0.0484402 -0.0541131
-0.0914094 -0.100025
-0.10362 -0.113319
0.0761703 0.0720911
-0.00575605 -0.00983917
-0.081669 -0.0910146
-0.048309 -0.0546694
0.0563524 0.0512674
-0.105131 -0.115694
0.0318746 0.0273154
0.129291 0.127343
-0.0243539 -0.0295881
0.0131099 0.00889917
-0.0339606 -0.0421126
-0.0584895 -0.0617431
0.000215329 -0.00484139
0.0920128 0.0890761
0.029384 0.0231401
0.00557736 0.000571111
0.0743936 0.0685744
-0.157829 -0.164912
-0.112529 -0.117707
0.00326085 -0.00115903
0.0171303 0.0117538
-0.0221609 -0.0284051
-0.00869663 -0.0211317
-0.00252231 -0.00988556
0.143792 0.142961
0.164958 0.163205
0.259697 0.258939
0.0428726 0.0401778
-0.0587471 -0.0688137
0.00741637 0.00274125
0.183518 0.181495
0.0943065 0.0929378
0.0884416 0.082449
0.081948 0.0767465
-0.028069 -0.033869
-0.253325 -0.248143
-0.011859 -0.0177286
-0.124329 -0.132163
0.316699 0.315738
-0.061388 -0.0703081
-0.076302 -0.0827854
0.0373527 0.0231493
-0.300564 -0.303475
-0.263041 -0.277441
0.217527 0.213265
0.239115 0.23861
0.0930478 0.090236
0.0864383 0.0792514
0.289558 0.287817
0.0856298 0.0772879
0.297259 0.29215
-0.0912267 -0.101786
0.175479 0.166558
0.0779744 0.0760661
-0.197758 -0.210617
-0.0948828 -0.0978851
0.444405 0.438825
-0.00143261 -0.00918333
-0.234775 -0.250436
0.0281949 0.0205876
-0.0121697 -0.0181301
0.000430568 -0.00340528
0.029222 0.0153813
0.183512 0.17427
0.0667947 0.0619219
0.0785387 0.0769554
0.166141 0.167031
0.0959738 0.0950808
-0.216391 -0.237251
0.0759934 0.0772229
0.299643 0.2996
-0.0512065 -0.0556333
0.0695047 0.058114
0.039632 0.0271021
0.32872 0.333001
-0.260435 -0.274114
-0.138059 -0.150905
-0.117737 -0.126505
-0.0651388 -0.072825
-0.323532 -0.334016
0.115323 0.112345
-0.118801 -0.129021
-0.330281 -0.349406
0.336753 0.337992
-0.31637 -0.334155
0.112548 0.105756
0.0187366 0.0165736
-0.120461 -0.12922
-0.0251729 -0.0333306
-0.100853 -0.101851
-0.0162436 -0.0211997
-0.10309 -0.11763
0.0285266 0.0274668
-0.00416128 -0.00247889
0.0694808 0.0703903
0.00434927 -0.000355972
0.0645006 0.0603522
0.0389355 0.0443158
0.0382451 0.0368899
-0.0133727 -0.0137289
-0.00244276 -0.00164194
0.0439833 0.0414333
0.00636605 0.00525431
-0.0652631 -0.0708139
-0.00348447 -0.00703125
-0.0777035 -0.0883728
-0.042672 -0.0408075
-0.0795426 -0.0767356
-0.165648 -0.171977
-0.00589921 -0.00794528
-0.00402647 -0.00147958
0.0361806 0.0368754
0.0415882 0.0385471
-0.0795174 -0.085461
-0.093183 -0.104479
0.0713202 0.0738299
0.0564599 0.0450001
-0.0790866 -0.0831565
-0.0604838 -0.0626136
-0.0362422 -0.0414044
-0.0075135 -0.00674764
-0.0161885 -0.019581
-0.0941918 -0.101169
-0.088606 -0.0975883
-0.1104 -0.121247
0.0505971 0.0554235
-0.0832842 -0.0847339
-0.0578039 -0.0598224
-0.0714444 -0.0773782
-0.0561386 -0.0617543
0.0454352 0.0407814
-0.0993675 -0.103957
0.0948821 0.0972751
-0.0406138 -0.0412936
-0.0371407 -0.0402726
-0.12092 -0.12789
-0.118301 -0.120645
0.0709541 0.0769218
-0.109573 -0.110386
0.0127058 0.00899153
-0.165278 -0.160256
-0.13678 -0.133829
-0.156113 -0.168321
-0.0587706 -0.0635026
-0.0764666 -0.0805928
0.119106 0.118816
0.0184579 0.0189507
0.00616868 0.000882917
-0.150246 -0.151081
-0.0378551 -0.0453538
-0.103988 -0.108048
-0.0781341 -0.075909
-0.0692279 -0.0820715
-0.00298077 3.18056e-05
-0.0288459 -0.0211832
0.0263458 0.0259869
-0.0882435 -0.0787343
0.147306 0.15282
-0.032044 -0.0312776
-0.212675 -0.230203
-0.203741 -0.215097
-0.157889 -0.162176
-0.00686149 -0.0104107
-0.01397 -0.02116
-0.0370889 -0.0459771
-0.0169673 -0.0176268
-0.0502911 -0.0591676
-0.0974217 -0.108013
-0.0656171 -0.068855
-0.0385781 -0.0460051
0.0445987 0.0399765
0.0286179 0.0273925
-0.0333531 -0.0375163
0.0133982 0.0113544
-0.0564976 -0.0614396
0.00745513 0.00803014
-0.0675255 -0.0788579
0.00903121 0.00617764
-0.0255129 -0.0334072
-0.0777122 -0.0907129
0.0359375 0.0354386
-0.0303883 -0.0356853
0.0208416 0.0263094
-0.166601 -0.178409
-0.0859481 -0.0959668
-0.00173335 -0.0102164
-0.0723684 -0.0827489
-0.0355893 -0.0450282
0.063248 0.0647843
-0.00739368 -0.00863125
-0.143941 -0.155997
-0.0559399 -0.0616597
-0.0911978 -0.100649
-0.0168371 -0.0260529
0.00408318 0.00201597
0.111932 0.117812
0.0483277 0.0418781
-0.0627387 -0.0690365
-0.0798669 -0.0861418
-0.0949927 -0.105501
0.0646495 0.0571471
0.0574617 0.0516374
-0.0556595 -0.0624103
0.0409465 0.0357449
-0.0285119 -0.0308953
-0.00657056 -0.00894931
-0.0311699 -0.0321569
0.0388475 0.0358785
0.0243599 0.0207708
0.0714926 0.0717821
-0.0452539 -0.0518211
-0.0645477 -0.0731428
0.016188 0.0175283
-0.00293238 -0.00208417
0.0204064 0.0218737
0.0212992 0.0227356
0.0230926 0.02333
0.0529191 0.0512701
0.097874 0.103444
-0.0157233 -0.0185513
0.078441 0.0773843
-0.153856 -0.155886
0.00997467 0.0111481
-0.0102683 -0.0109586
0.0788089 0.078349
0.024441 0.0259544
-0.0777353 -0.0788954
-0.0872139 -0.0944974
-0.0453245 -0.0498792
-0.053805 -0.0619192
-0.106554 -0.111933
-0.0566206 -0.0583826
-0.00398628 -0.00322347
0.0573324 0.0516854
-0.110763 -0.117539
0.0131457 0.00748181
-1.87473e-05 0.000662917
-0.0269756 -0.0283814
0.0813355 0.0840526
0.0507026 0.0485401
-0.0322662 -0.039304
0.0195301 0.0173467
-0.0683302 -0.0656103
0.00731855 0.00513125
-0.00300574 -0.00883389
-0.00348371 -0.00856014
0.014509 0.0131208
-0.0212053 -0.0201181
0.0288445 0.025484
0.00978395 0.0115801
0.0161991 0.0174753
0.00578371 0.00641
0.00783048 0.00669361
-0.0631157 -0.06373
0.0248221 0.0193715
-0.0625314 -0.0668735
0.0680669 0.0718847
-0.0572813 -0.0588071
-0.0788176 -0.0857619
-0.100644 -0.107718
-0.0354495 -0.0429063
0.0167081 0.0176429
0.00239452 0.00245903
0.00316889 0.00315389
-0.000335902 -0.000528056
0.00254679 0.00255917
0.0028771 0.00311736
-0.00182435 -0.00205111
0.0032122 0.00336014
-0.000834147 -0.00104222
0.00304766 0.00359472
0.00329038 0.00317847
0.00104621 0.000954167
-0.00410933 -0.00424236
0.00267057 0.00260389
0.00122814 0.00129847
0.00250164 0.00223597
0.00196934 0.00203931
0.00755302 0.00772222
0.00153995 0.00131375
-0.00184713 -0.00233278
-0.00372045 -0.00392028
0.0146539 0.0154239
-7.7033e-05 -0.000146667
-0.00249798 -0.0025725
-0.00380788 -0.00385097
-0.00162217 -0.00192458
-0.00991981 -0.0102972
-0.000883285 -0.00114931
0.00407313 0.00381111
0.00672427 0.00666778
-0.00866762 -0.00856056
0.0134959 0.013644
-0.00387561 -0.00408347
0.0106669 0.0105024
-0.0120372 -0.0122357
0.00100805 0.000526111
-0.0136304 -0.0138496
0.023875 0.0236189
-0.00257451 -0.00320778
0.00314255 0.0029675
0.00271617 0.0027275
0.00670196 0.00697819
-0.00464687 -0.00501736
0.00348373 0.00425736
0.00972458 0.0105776
0.00685094 0.00671528
-0.0037773 -0.00172014
0.0238177 0.0230885
-0.0190814 -0.0209499
-0.0231799 -0.0216126
0.0107205 0.0121433
-0.0304411 -0.0301975
-0.0295821 -0.0334247
-0.0116629 -0.0180119
-0.0501429 -0.0524347
-0.0531882 -0.0524694
-0.0258018 -0.0299222
-0.0426698 -0.044025
-0.0443319 -0.041671
-0.0259753 -0.0265297
-0.0610741 -0.0575701
-0.0402533 -0.0429929
-0.0541163 -0.0488263
-0.0129891 -0.0166513
-0.0447696 -0.0436235
-0.0319891 -0.0341467
-0.057088 -0.0583467
-0.0133036 -0.0171743
-0.0116568 -0.0197396
0.00379872 -0.00195167
-0.0618078 -0.0599408
-0.0334373 -0.0355826
-0.0154729 -0.022035
-0.0194822 -0.0258518
-0.0428454 -0.05042
-0.0498906 -0.0475221
-0.0116206 -0.0122538
-0.0516047 -0.0507328
-0.0299176 -0.0335157
-0.0266249 -0.0299061
-0.0269746 -0.0285581
-0.0442059 -0.0413067
-0.0191694 -0.0217165
-0.0382688 -0.0388164
-0.0362069 -0.0335057
-0.0357053 -0.0362521
-0.0342396 -0.0341569
-0.00389936 -0.00635903
-0.0475669 -0.0462142
-0.0273889 -0.0268124
-0.0197137 -0.0245504
-0.0189527 -0.025375
0.00727492 0.00635736
-0.0180773 -0.0182635
-0.0208528 -0.0195946
-0.0468144 -0.0485478
-0.0339251 -0.0372149
-0.0234079 -0.0236643
-0.0468053 -0.0445776
-0.0301417 -0.0269818
-0.0479224 -0.0489912
0.034021 0.0359693
-0.0192845 -0.0194024
0.0270403 0.0237925
-0.0293393 -0.0321078
-0.00455393 -0.00232056
0.0459195 0.0407581
0.0255665 0.0284447
0.0292541 0.0278969
-0.0187266 -0.0209471
0.000347883 0.00378556
-0.0183031 -0.00978889
0.0310068 0.0329282
-0.0112591 -0.00385694
0.0152048 0.0173572
-0.0723443 -0.074904
-0.0141107 -0.0173958
0.0281696 0.0275957
-0.0445378 -0.0426843
-0.030998 -0.0322501
-0.00247053 -0.00838444
0.0109299 0.00698833
-0.0149554 -0.00982278
0.0430796 0.0346365
-0.00743447 -0.00792944
0.00335678 0.00172222
0.00275703 0.00168319
0.0714568 0.0713371
-0.00137497 -0.00950097
-0.00453531 -0.000182083
0.0300741 0.0320983
0.0172266 0.0117993
0.0116088 0.0107349
-0.0550849 -0.0490743
-0.0346676 -0.0294224
-0.00738783 0.000386528
-0.0108639 -0.0100661
0.0094201 0.00571653
0.0183766 0.0128894
-0.00794039 -0.00146667
0.0408748 0.0398665
-0.0335962 -0.0266324
0.0264138 0.0269433
0.0103622 0.0079932
0.029709 0.0320658
-0.0351686 -0.0303835
0.0230717 0.0179953
-0.0109721 -0.0133051
0.0157525 0.0140232
-0.0505803 -0.0552908
-0.0361018 -0.0312882
-0.0798545 -0.0469903
-0.0378366 -0.0265558
0.0146835 0.0178724
-0.0549709 -0.0296164
-0.0392869 -0.024496
-0.0518656 -0.0542656
-0.0722805 -0.064174
-0.0554558 -0.0468267
-0.0509604 -0.0492565
-0.0276855 -0.0205424
-0.0270424 -0.0219464
-0.0140141 -0.0106643
-0.000549615 0.00749806
0.0199141 0.0133194
0.0329021 0.0252435
-0.00502802 3.30556e-05
0.00431578 0.0057525
0.0942433 0.0835993
0.0636201 0.0654865
0.00543631 0.00581486
-0.0223019 -0.0190221
0.0268457 0.0208353
-0.0157163 -0.0179675
0.0231892 0.021059
0.0606893 0.0562867
0.0280905 0.0112249
0.0296126 0.0251338
0.0218167 0.016451
0.0316796 0.0341257
0.00575662 -0.00642431
0.0419061 0.0418281
-0.00494372 -0.00322403
-0.00984854 -0.0150683
-0.0618918 -0.0590271
-0.0327135 -0.0325118
-0.00269248 -0.00465514
0.0186766 0.0247532
-0.0169188 -0.0127686
0.0358527 0.0383922
-0.00555773 -0.0152288
0.0164995 0.0198215
-0.000541182 -0.00544222
0.0100732 0.00811833
0.0656496 0.0642826
-0.0296236 -0.0218558
0.0203604 0.0198481
-0.0265417 -0.0327179
0.0960161 0.0923397
-0.00937782 0.000966528
0.0151061 0.0147608
-0.0455166 -0.04645
0.0344617 0.0366399
-0.117942 -0.123104
-0.0279336 -0.0249458
-0.0104198 0.00717875
0.0537151 0.0321054
-0.0886783 -0.0881319
-0.0651777 -0.0715571
0.0159992 0.0119942
-0.00948783 -0.0151296
-0.0598285 -0.0445654
-0.0669532 -0.06837
-0.00837603 0.00441889
-0.0698119 -0.0603858
-0.00865293 -0.0151365
-0.0975469 -0.0839686
0.0142035 0.00193444
0.0764602 0.090611
-0.124293 -0.13869
-0.0587221 -0.0466243
-0.0443451 -0.056006
-0.0274343 -0.0295939
0.0604948 0.0409112
-0.00748847 0.00291917
0.0653559 0.0431374
0.0300346 0.0341179
0.0250337 0.03444
-0.04041 -0.0456458
-0.00969305 -0.0146031
0.0137277 -0.00292431
-0.031865 -0.0427397
0.0094977 0.00716958
-0.0521923 -0.0331292
0.0676906 0.083406
0.00148828 -0.00196069
0.00506154 -0.00630639
-0.0655514 -0.0640856
0.0769267 0.0600956
-0.0705382 -0.0724117
-0.0817116 -0.0711046
-0.000662216 -0.00330306
-0.00686758 -0.00398444
0.0254724 0.03611
-0.0261351 -0.0347269
-0.000847797 0.00860667
-0.0213569 -0.0304489
0.0265524 0.0118367
-0.0165641 -0.00322167
-0.0592393 -0.0524231
0.0399724 0.0240207
0.0289361 0.0313747
-0.02832 -0.028774
-0.0260696 -0.0276229
0.00252533 0.00292444
0.0057318 0.00839306
0.0260236 0.02624
0.0184784 0.0186414
0.0394706 0.0373522
-0.0307779 -0.0319742
0.0149579 0.0141675
0.00584802 0.00776014
-0.0127237 -0.0127789
0.00602852 0.00544431
0.00150332 0.000306111
-0.0281205 -0.0295829
-0.0657193 -0.0668303
0.0127972 0.0145054
-0.00597433 -0.00540361
-0.0456704 -0.0446047
-0.00142564 -0.000319861
-0.0294056 -0.0287349
0.0508634 0.0531426
0.0309614 0.0314808
0.0187335 0.0184481
0.00781582 0.010274
0.00730956 0.00400875
-0.076757 -0.0768832
-0.0166096 -0.01897
-0.039678 -0.0450606
0.0635919 0.0628583
-0.0757507 -0.0764092
0.00816649 0.00601056
0.102172 0.103344
-0.00997385 -0.0120514
-0.0238672 -0.0230647
-0.0665176 -0.0685943
0.0583632 0.0607556
-0.0528685 -0.0538283
-0.00837759 -0.00845833
-0.062199 -0.0643853
0.0258145 0.0251925
-0.0484921 -0.049189
0.0329757 0.0334992
-0.0677304 -0.0696849
-0.0443415 -0.0452603
-0.0111026 -0.0112456
-0.0585405 -0.0589043
0.00240122 0.00513764
0.0874635 0.0886275
0.038663 0.0409372
0.0757336 0.0726333
-0.017188 -0.0191606
-0.00210618 -0.00253375
-0.135391 -0.135969
-0.0902676 -0.0898069
0.152404 0.152736
0.0460272 0.0430437
-0.0378113 -0.0322113
-0.0649344 -0.065375
-0.00482527 -0.00464069
0.00548144 -0.00046125
-0.128672 -0.125704
-0.000254749 -0.000857222
0.0056955 -0.000425556
-0.00701513 -0.00752944
0.0633953 0.0620224
0.0334619 0.0336747
0.0341502 0.0327392
-0.0227322 -0.0222521
0.00114195 0.00323403
-0.0248234 -0.0287763
-0.12875 -0.126219
0.109828 0.109257
0.0430027 0.0417164
0.135713 0.136382
0.0254499 0.0373875
-0.137214 -0.141492
-0.00225065 -0.000820694
-0.0575565 -0.0585335
-0.0849971 -0.077976
-0.0584834 -0.0605518
-0.223708 -0.221002
-0.0960404 -0.0896592
-0.053409 -0.0499135
-0.200255 -0.200332
0.161216 0.163611
0.141508 0.151173
-0.250563 -0.246383
0.13656 0.145339
-0.0270119 -0.0259981
-0.121294 -0.121876
0.0822346 0.0843565
-0.00746989 -0.00758417
-0.187766 -0.189509
-0.08913 -0.0806844
0.114813 0.119745
0.114775 0.118687
-0.0420637 -0.0367412
-0.0766211 -0.0774282
-0.0184414 -0.0319392
-0.172686 -0.1825
0.00122278 1.93056e-05
0.0167879 0.0230529
-0.0686936 -0.0656969
0.150879 0.149724
-0.206084 -0.205206
-0.0234349 -0.0302139
-0.0870402 -0.108601
0.0370834 0.0419654
0.0362633 0.026639
-0.0652386 -0.0663835
-0.0393112 -0.0392679
0.117151 0.12046
-0.0652802 -0.0671585
0.13577 0.135665
-0.118348 -0.127369
0.149091 0.153826
0.24216 0.245508
-0.161671 -0.168965
-0.122786 -0.12143
-0.0484203 -0.0699957
-0.118362 -0.117671
-0.296671 -0.300785
0.064646 0.0624769
0.0347322 0.0336624
0.0374294 0.0330276
-0.0178404 -0.0143592
-0.0326662 -0.031119
-0.0366938 -0.0361531
-0.0201458 -0.0223789
0.0310853 0.0291029
0.00720154 0.00904653
-0.019388 -0.0197135
-0.00305076 -0.00316806
-0.00496632 -0.00547444
-0.026077 -0.0294158
0.0124858 0.00909653
0.0308417 0.0311969
0.00429786 0.00371222
-0.0462511 -0.0428967
0.0305587 0.0331626
-0.0371933 -0.0365692
-0.0161258 -0.01577
0.0424185 0.0441981
-0.0186152 -0.0199199
-0.00135694 -0.00134736
-0.0311367 -0.0285856
-0.0147842 -0.0108446
0.0333728 0.0329032
0.0460703 0.0447438
0.0382149 0.0356888
-0.0633887 -0.0581335
0.0572052 0.059804
0.0457635 0.0385228
-0.00560977 -0.00229083
-0.00879166 -0.00185722
-0.0158434 -0.00583167
-0.0273228 -0.0160765
0.0445608 0.0449174
0.0327229 0.0389132
0.106788 0.102293
-0.0890974 -0.0875835
0.0096417 0.0111128
0.00472754 0.00763972
-0.0311999 -0.0351096
-0.0481918 -0.04388
-0.0568052 -0.0519275
0.00465931 -0.00132778
-0.00994375 -0.00807639
-0.0449682 -0.0469118
0.0327159 0.038791
-0.0159963 -0.00305111
0.00237677 -0.00109403
0.00649852 0.00942958
0.0563828 0.0539576
0.0217248 0.0214918
0.0349231 0.0353667
0.083364 0.0683285
-0.109877 -0.102944
0.0668436 0.0678628
0.0325716 0.0377426
-0.0815244 -0.0859262
-0.012704 -0.00564361
0.119167 0.107514
0.0734804 0.070011
-0.123176 -0.11785
-0.0491022 -0.0581365
-0.0299776 -0.0301032
-0.0216495 -0.0231432
-0.0527623 -0.0576817
0.00970287 0.00617861
-0.0334474 -0.0389568
0.0417264 0.0375529
-0.07894 -0.0780376
-0.143556 -0.139858
-0.0268375 -0.0291237
-0.0141087 -0.0191396
0.00981225 0.000377083
-0.0417476 -0.0511126
-0.00751739 -0.0100562
0.0100245 0.00757292
-0.0102775 -0.0123367
0.0157054 0.0143474
0.00369837 0.000556667
-0.0049792 -0.00573736
-0.00216793 -0.00635708
0.00392702 0.00604125
-0.0257031 -0.0242765
0.00750083 0.00416361
-0.0218285 -0.0179185
-0.0195877 -0.0178247
0.0104165 0.00683611
-0.00874013 -0.00619444
0.0334778 0.0346314
0.0110632 0.0146043
-0.0166061 -0.0169693
0.00774721 0.00959181
-0.00987346 -0.0106832
-0.0321879 -0.0306203
0.00112943 1.01389e-05
-0.024026 -0.0248599
0.0141194 0.0159831
-0.0101966 -0.0115514
0.01546 0.0143226
0.029347 0.0263869
-0.0152472 -0.0135429
-0.00627869 -0.00725208
0.00308494 -0.000420139
-0.0143179 -0.0141342
-0.0117372 -0.0113611
0.0162788 0.0142075
-0.0169728 -0.0137328
0.0212845 0.0216862
-0.00089129 0.00273972
-0.0165142 -0.0160903
0.00717514 0.00386028
-0.0295406 -0.0290303
-0.0114983 -0.0113875
-0.0396045 -0.036751
0.028554 0.0190669
0.00147202 0.000823611
0.0039908 0.00268069
-0.0138777 -0.0124368
0.00846893 0.00914611
0.0454588 0.0435086
-0.0364381 -0.0325719
-0.00707858 -0.00753083
0.0290407 0.0225911
-0.00294031 -0.00236667
0.0257829 0.025639
-0.0108283 -0.0099475
0.00931019 0.0113915
-0.0213487 -0.0164358
0.0117175 0.0145731
0.0270521 0.0282378
-0.0141976 -0.0135775
0.0161207 0.0215701
-0.0175525 -0.020774
0.0481592 0.0399526
-0.00644806 -0.00353403
-0.0207564 -0.0170514
-0.0023142 0.001255
0.0122942 0.00978819
-0.0042624 -0.00495639
-0.018138 -0.0154578
-0.0265056 -0.0256196
0.00155181 -0.00125625
-0.0277672 -0.0289058
0.000401918 -0.00147625
0.0115671 0.0123357
-0.020487 -0.0173825
-0.023996 -0.0248099
-0.0172458 -0.0152651
0.0333555 0.0315035
-0.0177332 -0.0187601
0.0370516 0.0335978
0.0168465 0.0116628
-0.001333 -0.00042125
0.00224295 -0.00480653
-0.00108354 -0.00347056
0.0100736 0.0101556
-0.0203377 -0.0185336
-0.0194408 -0.0128985
0.00289415 0.00822819
-0.00547891 -0.00258153
0.00601716 0.00684625
0.00449719 0.00331375
-0.0151364 -0.0153392
-0.0205368 -0.0198851
0.0231226 0.0233256
0.0014629 0.00193472
-0.0153192 -0.0147999
0.0462668 0.0455874
0.0242559 0.0196843
0.00387993 0.00641264
-0.0530084 -0.0451076
-0.00536817 -0.00873292
-0.00640783 -0.00517333
-0.00548443 -0.00426806
0.00526289 0.00500569
0.00694158 0.00646653
-0.000612648 -0.000626389
0.00563529 0.00532139
0.00636993 0.00607736
-0.0039488 -0.00359375
0.00711589 0.00661917
-0.00180396 -0.00177903
0.00668891 0.00613806
0.00729795 0.00663125
-0.00257045 -0.00222667
-0.0135849 -0.0128761
0.00134654 0.00138319
-0.00175939 -0.00164875
7.17906e-05 0.000456806
-9.57534e-06 3.68056e-05
0.013186 0.0129628
-0.00156935 -0.00114694
-0.0101135 -0.00964875
-0.0131902 -0.012654
0.0279315 0.0267713
-0.00199935 -0.00201819
-0.0122799 -0.0112911
-0.00901676 -0.00853528
-0.00683263 -0.00660653
-0.0259549 -0.0243474
-0.00347017 -0.0032875
0.0062294 0.00610708
0.0113363 0.0110437
-0.0207728 -0.0188312
0.0192279 0.0184237
-0.0188583 -0.0177887
0.0135949 0.0129971
-0.0364342 -0.0343015
-0.0065374 -0.00513986
-0.0407244 -0.0382638
0.0409661 0.0386115
-0.0149854 -0.0141299
-0.00172119 -0.000772222
-0.0031923 -0.00284208
-0.0233463 -0.0225144
-0.00545842 -0.00356056
-0.00983596 -0.00958528
0.010269 0.010959
0.0176484 0.0185065
-0.00912682 -0.00966931
0.0307551 0.0301687
-0.026071 -0.0253358
-0.0445589 -0.0441447
0.00956375 0.00918306
0.0249526 0.0276883
0.0236423 0.0260775
0.012133 0.0115669
-0.00434453 -0.00212292
-0.00169707 -0.00189972
0.0387249 0.040774
-0.00128186 0.00044125
-0.0688027 -0.0662793
0.00178305 0.00218944
-0.0651846 -0.0614272
-0.00586271 -0.00264042
0.00165251 0.00286625
-0.017401 -0.0112401
-0.0288333 -0.0261024
0.0120642 0.0123942
-0.0871617 -0.0808161
0.0222571 0.0242792
0.0119492 0.0155761
0.0715496 0.070439
-0.0165837 -0.0155461
-0.0170919 -0.0166956
0.0553667 0.0557521
0.0394747 0.0392019
0.0109712 0.0126128
0.0130698 0.0156485
0.0589503 0.0545089
-0.0537344 -0.0503836
-0.00397976 -0.00520708
-0.0214079 -0.0165482
-0.0385308 -0.0375908
0.00986033 0.0103839
0.0214665 0.0224494
0.0195181 0.0218496
0.0125974 0.0142226
0.0371506 0.0380888
-0.00592154 -0.00458528
0.0155924 0.0161062
-0.0251194 -0.0235728
-0.018577 -0.0140871
0.0255526 0.0239314
0.0275098 0.0306333
0.0782635 0.0775453
0.0493115 0.0475764
0.0854175 0.0861933
-0.0258725 -0.023356
0.0167394 0.0184762
-0.0483833 -0.0457143
-0.0546645 -0.0522832
-0.00943881 -0.00707181
-0.00145252 -6.40278e-05
0.0576134 0.0542983
-0.00954694 -0.00898167
0.0214986 0.0197281
-0.0621899 -0.0658039
-0.0434025 -0.0432783
0.059238 0.0517922
0.0554306 0.054121
0.0150055 0.0110857
-0.0284261 -0.0248762
-0.0553004 -0.0490856
-0.0325798 -0.0343482
0.00431845 0.00235625
-0.0333336 -0.0346953
0.103121 0.0956069
-0.0773453 -0.0777493
-0.0132087 -0.0101672
-0.000933993 -0.00650569
-0.0047065 -0.00527611
-0.0166473 -0.0157818
-0.015051 -0.0164843
0.00629548 0.00312181
0.00226152 0.00555361
0.0485143 0.0474758
-0.0157971 -0.0183172
-0.0136672 -0.0138136
-0.0204759 -0.0191872
0.0523102 0.0478769
-0.0505283 -0.0452897
-0.0481272 -0.0492749
0.0334262 0.035231
0.0432261 0.039065
0.0169869 0.0140422
-0.0837653 -0.0846311
-0.0661196 -0.0679767
-0.0209293 -0.0169615
-0.0732032 -0.0706371
-0.0257037 -0.029899
0.0916595 0.0829529
-0.0674361 -0.0664419
0.0320197 0.0284201
-0.0331767 -0.0301724
0.0835132 0.087911
0.0172187 0.0222743
0.114179 0.116797
-0.0199863 -0.0165708
0.023164 0.0229883
-0.078968 -0.0769999
0.050743 0.0485735
-0.0886075 -0.0858286
0.0163597 0.0194729
-0.0526142 -0.0441093
-0.0498805 -0.0499425
0.0619222 0.0551937
-0.0516238 -0.0364464
-0.0607521 -0.0559506
-0.0882702 -0.0866958
-0.0221066 -0.00786333
-0.0900477 -0.0886021
-0.0595989 -0.0580483
-0.10702 -0.104012
0.015339 0.0178071
-0.0394381 -0.0365842
0.0502262 0.053926
-0.00180662 -0.00119139
-0.0176978 -0.0142068
0.0765477 0.0811153
-0.00578279 -0.0109858
0.0422318 0.0349824
0.0309113 0.0284499
0.0301108 0.0337371
-0.0395803 -0.0362221
0.0494234 0.0541782
0.0355358 0.0382504
-0.0231107 -0.0224732
0.121452 0.122386
0.0220012 0.0207793
0.0954859 0.0893987
0.0302365 0.0307142
-0.0110724 -0.0158717
0.0347094 0.0332439
0.0132948 0.0115242
-0.0269976 -0.0230063
0.0353775 0.0335443
-0.0319853 -0.0339408
-0.0167343 -0.0167443
0.011252 0.0100163
-0.00451737 -0.008185
-0.045633 -0.044666
0.0145529 0.0145129
-0.0391509 -0.0425768
0.0506431 0.0502597
-0.0603697 -0.0604456
0.0220987 0.0173419
0.00458039 0.00283819
-0.0854191 -0.0859757
0.030744 0.0266992
-0.023871 -0.0275558
-0.0426087 -0.0492992
-0.0597162 -0.0624767
0.036009 0.0453346
-0.0660053 -0.0559301
-0.0937781 -0.0920999
0.113698 0.123224
-0.0266742 -0.0127224
-0.107384 -0.101362
0.0456248 0.0405913
0.0378988 0.0438676
0.0885768 0.0899596
-0.017499 -0.0224194
0.0196114 0.0277312
-0.0826973 -0.0813226
-0.0363581 -0.0351767
0.0180876 0.00851736
-0.0210923 -0.0144229
-0.10954 -0.133755
-0.0163579 0.00713139
-0.025354 -0.031924
0.018257 0.0113536
0.00420403 0.0125239
-0.0813114 -0.0804274
-0.0723421 -0.080391
0.00754853 0.00410514
0.0953474 0.0964521
0.0287816 0.0337286
0.134906 0.13051
-0.03134 -0.0229496
-0.0134231 -0.00992667
-0.0172892 -0.0163007
-0.0761496 -0.0640374
0.00104841 0.00586694
-0.0315199 -0.033376
0.00375967 0.00648778
-0.101757 -0.0773542
-0.00612919 0.00284347
0.113295 0.117388
0.0849271 0.0785208
0.088688 0.0930118
0.0762106 0.0780497
0.0348907 0.0489664
-0.0368249 -0.0115512
-0.0349907 -0.0331226
-0.0298271 -0.0234119
0.0188409 0.0182068
-0.211981 -0.198876
-0.0668784 -0.0529001
0.141393 0.147875
-0.0172989 -0.0142849
-0.0623707 -0.0778168
0.0516652 0.0489925
0.0237982 0.0250971
0.025489 0.0268429
-0.0372797 -0.0367058
-0.0186951 -0.0184897
-0.0166103 -0.0161896
-0.0183829 -0.0185426
0.0428315 0.0421771
0.0283785 0.0268171
0.0552208 0.0537478
-0.034964 -0.0345335
0.0102008 0.00981111
-0.00685966 -0.00705264
0.0113119 0.00989875
-0.0113021 -0.0108261
-0.0271135 -0.0242625
-0.00809348 -0.00818694
-0.0763356 -0.0744267
0.00822761 0.00941264
-0.0153847 -0.0140003
-0.0620669 -0.0602168
-0.0306397 -0.0301464
-0.0168887 -0.0166099
0.0475998 0.0467585
0.0128883 0.0131483
0.0384317 0.0369853
-0.0207099 -0.0218086
0.0674314 0.0667018
-0.104217 -0.100946
0.0246525 0.0236844
0.0277503 0.0297257
0.0357884 0.0370736
-0.0890744 -0.0839482
0.0495368 0.0479571
0.122494 0.119802
0.0366097 0.0356214
-0.0546658 -0.0538224
-0.0165043 -0.0156178
0.0248978 0.0236728
-0.0512081 -0.0492483
0.0173953 0.0160087
-0.0432136 -0.0415622
0.0797317 0.0778635
-0.0435592 -0.0414264
0.0389718 0.0375199
-0.0562163 -0.0545403
-0.0173784 -0.0167964
0.029097 0.0270268
-0.100834 -0.0975681
-0.0427575 -0.0419161
0.107857 0.105413
-0.00902841 -0.00857222
0.164057 0.161746
0.0264406 0.0271329
0.00853288 0.00875139
-0.143189 -0.139274
-0.0793892 -0.0769893
0.172731 0.167094
0.103832 0.102718
-0.118804 -0.115901
-0.064229 -0.0634271
-0.0232233 -0.0229425
0.0881762 0.0865489
-0.197804 -0.192725
0.00695241 0.00683847
0.0680046 0.0686128
-0.0243325 -0.0229639
0.107506 0.106714
0.0285926 0.0274568
0.0632539 0.0601461
-0.0377437 -0.0367489
-0.0508867 -0.0504442
0.0451922 0.0461642
-0.159824 -0.15537
0.145966 0.136089
0.0783269 0.0773893
0.14337 0.140142
-0.082516 -0.08657
-0.0628279 -0.0622496
0.0449692 0.0408706
-0.0143768 -0.0141468
-0.0174824 -0.0227035
0.113237 0.11185
-0.213515 -0.201601
-0.19267 -0.189462
-0.117257 -0.116722
-0.252889 -0.241613
0.128986 0.119264
0.00331923 -0.00568472
-0.252649 -0.237647
0.0361108 0.0336158
-0.0268861 -0.0247321
-0.157055 -0.152073
-0.0732167 -0.0696637
-0.00310429 -0.00421944
-0.188369 -0.17744
-0.169502 -0.162179
-0.0231395 -0.0237308
0.0293599 0.0231753
-0.120881 -0.117344
-0.0881364 -0.0852136
0.140872 0.137293
-0.0561177 -0.0503696
0.0420176 0.0412101
-0.127754 -0.13186
-0.168019 -0.169318
0.224348 0.225384
-0.182538 -0.18011
0.132922 0.135729
0.141379 0.145231
-0.117385 -0.119169
0.21209 0.211804
-0.066115 -0.0652718
-0.0641105 -0.065171
-0.0382185 -0.0399032
0.0561642 0.0587157
0.190017 0.188623
0.109836 0.117171
0.0328802 0.0313232
0.258895 0.257807
-0.0068792 -0.00258778
-0.0765236 -0.0733336
0.181515 0.188598
-0.0721055 -0.0693744
-0.378681 -0.375815
0.173307 0.174557
0.113794 0.114422
0.0474358 0.0454062
-0.0200072 -0.0218571
-0.0237584 -0.0216265
-0.0215746 -0.0198838
0.00790437 0.00530361
-0.00139713 0.00123361
-0.0471861 -0.0472918
0.0138357 0.0143831
0.0125698 0.0115278
0.0147798 0.0125537
0.0530585 0.0520457
-0.0389091 -0.0360065
0.0312567 0.0275644
0.056723 0.0569417
0.0186704 0.0181811
-0.00461923 -0.00537153
-0.00257265 0.00028625
0.0378172 0.0375942
-0.037203 -0.0347085
-0.00223378 0.000375972
-0.0321845 -0.0309299
-0.0225464 -0.019741
0.0572818 0.052935
0.0263021 0.0261139
-0.00287763 -0.00684083
0.0599135 0.0536963
-0.0494318 -0.0509358
-0.0375673 -0.0395736
0.048055 0.0441354
-0.0918764 -0.0912057
-0.0332847 -0.0312687
-0.0167819 -0.0161382
-0.0581858 -0.0542364
0.000268285 -0.00342778
-0.00353147 -0.00582542
0.105203 0.103861
-0.0453401 -0.0399775
-0.0695926 -0.0701747
-0.0531289 -0.0519365
0.0625115 0.0650508
-0.00204247 -0.00147208
-0.147386 -0.141413
0.0589791 0.0565131
0.00677381 0.00945153
-0.0696456 -0.0669078
0.0237925 0.0255954
-0.088659 -0.08409
-0.0135484 -0.0165097
-0.0184651 -0.0181812
0.0194858 0.01874
0.0308777 0.0300758
0.0112269 0.00989583
0.17587 0.164531
0.0128846 0.0174129
-0.0237734 -0.0282024
0.058013 0.0621971
-0.0833339 -0.0785844
-0.0617464 -0.057634
0.0777008 0.0674247
0.0286075 0.0256504
-0.0373355 -0.0280563
0.0375654 0.041145
-0.0149993 -0.00712764
-0.0689563 -0.0711462
0.06302 0.0641074
0.0417063 0.0409981
0.0474033 0.0513551
0.101105 0.10109
-0.0492542 -0.0434431
-0.0206348 -0.00703708
0.029251 0.0265364
-0.0326465 -0.0339303
0.0234641 0.0260839
0.127441 0.130964
-0.044417 -0.0438433
-0.00898184 -0.00931278
-0.0116404 -0.0113751
0.0239124 0.021616
-0.0109235 -0.0111158
-0.0550713 -0.0540499
0.0355943 0.0345296
0.00168332 0.000806667
-0.00280193 -0.00472653
-0.0116123 -0.00976625
0.0161012 0.0146578
-0.0716567 -0.0731412
-0.012277 -0.0120803
-0.0422512 -0.0394965
0.0335145 0.0348651
0.0134416 0.0137251
-0.0445008 -0.0448971
0.00172603 0.00231681
-0.0552255 -0.0547849
-0.0681984 -0.0684097
0.0207732 0.0204715
-0.0527792 -0.0477194
0.0216215 0.0208512
-0.00443258 -0.00424528
0.0204628 0.018781
0.0625316 0.0614969
-0.0156881 -0.0163501
-0.00838557 -0.00768417
0.039851 0.0407343
-0.0300535 -0.0283508
-0.0113094 -0.0123958
-0.00444157 -0.00275569
-0.0431438 -0.0435968
0.028033 0.0256853
-0.000616574 -0.00220278
-0.00757897 -0.00678306
0.00301654 0.00161708
-0.0357953 -0.033064
-0.0438261 -0.0453829
-0.0717805 -0.069941
0.0299077 0.0286843
-0.021043 -0.0187396
0.0223575 0.0255828
-0.0440954 -0.0445158
0.025757 0.0276451
0.0312984 0.0318369
-0.0469239 -0.04727
0.0106112 0.00969444
0.0373797 0.0366269
-0.0127199 -0.0150003
0.0427772 0.039126
-0.0118881 -0.0100704
0.00224671 0.000875556
-0.0376034 -0.0378672
-0.00752988 -0.00723472
-0.0357315 -0.0362713
-0.025759 -0.0253189
0.019369 0.0186718
-0.0507746 -0.0505167
0.102728 0.102155
-0.00311132 -0.00157153
-0.0299288 -0.0269729
0.0108985 0.00918972
0.0159087 0.014739
0.017414 0.01841
-0.0613574 -0.0578492
-0.0694246 -0.0711996
0.00529204 0.00290444
-0.023999 -0.0220094
-0.0453295 -0.0447879
0.0371264 0.0374693
-0.0316112 -0.0293993
-0.0474525 -0.0480108
-0.0575411 -0.0566275
0.0696891 0.0671918
-0.050887 -0.0503211
0.0733159 0.0720286
0.0836039 0.0823983
-0.0148977 -0.0150693
0.0117482 0.011339
-0.0133947 -0.0155128
0.0314174 0.0318594
-0.0551262 -0.0546751
0.00013857 -0.000196806
-0.0112265 -0.00776931
-0.037022 -0.0364835
0.00118741 0.0014
-0.00451827 -0.00484556
-0.0450056 -0.0445903
-0.048717 -0.0502024
0.0201379 0.0191264
-0.0199137 -0.0192426
-0.00990644 -0.00984833
0.0796364 0.077631
0.0188794 0.0176776
-0.00937022 -0.00837597
-0.110371 -0.111019
0.010976 0.0128597
0.0106869 0.0118165
-0.00128181 -0.00217236
0.00149619 0.00321417
0.0054059 0.00741389
0.00672177 0.00857597
0.00631304 0.00780903
-0.00224083 -0.000338056
0.00207611 0.00381389
-0.00406064 -0.00222764
0.00366622 0.00542528
0.00412829 0.00583222
-0.00651903 -0.00453375
0.00503273 0.00408403
0.00640131 0.00596583
-0.00459391 -0.00541
0.0180369 0.0168664
0.0130398 0.0119585
0.00178667 0.00116222
0.00610338 0.0050825
-0.00191081 -0.00273819
0.00559462 0.0046675
0.00629309 0.00494972
0.00408813 0.00426889
-0.0106232 -0.00981417
0.0156864 0.0156749
-0.00869238 -0.00801597
-0.0112816 -0.0103344
-0.00266978 -0.00206639
-0.0100324 -0.00912653
0.0111663 0.0105142
0.00181385 0.00230708
-0.00259384 -0.00190278
0.0313675 0.0294421
0.0246818 0.0232374
0.0143101 0.0137165
0.00781678 0.00714986
-0.00264128 -0.00330417
0.0170175 0.0165394
-0.0102424 -0.00984236
0.022756 0.0214497
0.00095372 0.00105028
0.0283775 0.0271454
0.0018002 0.00346028
-0.00556614 -0.00543028
-0.00798501 -0.00636194
0.0217779 0.0225357
0.0197804 0.0178408
0.0039942 0.00574472
-0.00448625 -0.00383167
0.000295874 0.000775
0.0175075 0.0193268
0.040657 0.0425372
-0.0385447 -0.0359143
-0.0213211 -0.0192025
0.0160462 0.0180708
-0.0319898 -0.0307676
-0.014471 -0.0129965
0.095764 0.0918432
-0.0643422 -0.0622054
0.00208562 0.00104653
-0.0018215 -0.000755139
-0.00171247 0.00270542
-0.045872 -0.0426403
-0.0520063 -0.051689
-0.0782049 -0.0754208
0.0188051 0.0178782
0.0089322 0.00736222
-0.0391621 -0.0387888
-0.0774275 -0.075884
0.0308887 0.0313394
-0.0132424 -0.0129094
0.00223687 0.00464917
-0.0115118 -0.00825986
-0.0227229 -0.0236715
-0.0174807 -0.0153333
0.00353798 0.00317347
-0.0292887 -0.028104
-0.00134326 0.000530417
-0.0141563 -0.01253
0.00963432 0.00919
-0.0842736 -0.0828776
0.0209822 0.0202211
0.00398915 0.0057175
-0.0416004 -0.0399796
-0.0114573 -0.0111668
-0.0260864 -0.0264101
-0.017969 -0.0174649
0.0314181 0.031654
0.0207578 0.0202547
-0.0324147 -0.0287962
0.0419666 0.0419915
0.0560639 0.0546925
-0.0499548 -0.0486286
-0.0127221 -0.0132688
0.000218225 0.0002975
-0.0115168 -0.00923222
-0.062669 -0.0613446
0.0186355 0.0189242
0.064465 0.0642857
-0.0238559 -0.0223321
0.0608571 0.0611286
-0.0204897 -0.019839
-0.0261434 -0.0250457
-0.0439219 -0.0402028
0.0716204 0.0635225
0.0667777 0.0656335
-0.0207239 -0.020656
-0.0988275 -0.0959222
-0.0509645 -0.0508938
0.0960609 0.089639
0.0548336 0.0553597
0.024639 0.0253217
0.0339554 0.0358279
-0.00355222 -0.000614306
-0.0258173 -0.019589
-0.0434656 -0.0394128
-0.0201744 -0.0213649
0.0470123 0.0518978
-0.0407755 -0.0330926
0.0621765 0.0597435
0.0456183 0.0398828
-0.0580573 -0.0517739
-0.0254868 -0.0233979
0.0476409 0.0451858
0.013462 0.0106924
0.0415631 0.0397432
0.0275954 0.0269389
-0.0491164 -0.0449008
0.0584432 0.0599578
0.0771269 0.0751447
0.0630249 0.0631439
0.00102374 0.00640944
-0.0896486 -0.0839086
-0.0789847 -0.0785156
0.0253998 0.0262612
0.0453195 0.0452386
0.013076 0.0130161
0.0621157 0.0594757
0.0284043 0.0269111
0.00502169 0.000686944
0.0692073 0.0586772
0.0622813 0.0593572
-0.0257021 -0.0227581
0.0396747 0.0357607
-0.0158297 -0.0139882
-0.0419471 -0.0349567
0.0610369 0.0618803
-0.0620558 -0.0629222
-0.00722709 -0.010305
-0.095578 -0.0966512
0.0114789 0.0105847
0.0117478 0.0131197
-0.0831215 -0.0800179
-0.10609 -0.103177
-0.016498 -0.0122239
-0.190744 -0.181564
-0.0727971 -0.0688543
-0.0779533 -0.0785517
-0.0456704 -0.044356
-0.049659 -0.0451963
-0.0375585 -0.0368249
-0.0343286 -0.0319924
0.123699 0.130401
-0.0158099 -0.0158689
-0.0100637 -0.0115015
-0.0247249 -0.0176306
-0.0633127 -0.0519067
0.0714191 0.0653333
0.0635205 0.0709551
0.0427806 0.0424036
0.0732164 0.0698222
0.0814343 0.0838274
0.0425824 0.0449574
0.000896379 0.00102444
0.0596044 0.057375
0.0271967 0.0294692
-0.0211182 -0.0188064
0.0101818 0.00755625
-0.0124677 -0.0159532
0.115253 0.114633
0.0355701 0.0332533
-0.0190631 -0.012851
-0.0752352 -0.067849
-0.103 -0.102948
-0.043793 -0.037531
0.0823487 0.0813247
0.0710571 0.0703019
-0.110073 -0.111678
0.00420124 0.00420556
0.0712537 0.0696525
0.0189857 0.0218996
0.113134 0.116195
0.168532 0.167199
0.0568268 0.0548829
-0.0684576 -0.06603
0.0192571 0.0157121
-0.0458011 -0.0379392
0.0256157 0.0275635
-0.066819 -0.0615325
-0.0188387 -0.0284614
0.0963635 0.0932665
0.0215683 0.0312857
0.00144746 -0.00141333
-0.00817715 -0.0138111
0.0577924 0.0526078
0.0162682 0.0201251
0.0460939 0.0468364
-0.0311214 -0.0201428
-0.0751963 -0.0915749
-0.00720954 -0.00997667
0.0161544 0.0170824
0.112242 0.113604
0.178461 0.170609
-0.00359701 -0.00289472
0.0250479 0.0234492
0.024017 0.0183051
0.0379144 0.0543039
0.0791248 0.101163
-0.00416125 -0.00692889
0.00455633 0.00706236
-0.138576 -0.136139
-0.0615432 -0.0508387
0.0447266 0.0369087
0.032439 0.0286494
0.0266433 0.0357556
-0.119119 -0.111213
0.0122434 0.00900361
0.0710354 0.0694282
0.0176275 0.0343999
0.0303048 0.0275157
0.0901794 0.0949661
-0.0881277 -0.0890851
-0.0355356 -0.0480372
0.0321694 0.0256446
-0.0232703 -0.0109983
-0.0112308 -0.0218717
0.0915505 0.0821718
-0.0432025 -0.0400585
-0.167643 -0.172137
-0.0176553 -0.0172528
0.0277788 0.0253894
0.111722 0.102897
-0.00507938 0.0146967
-0.0271552 -0.0279629
0.0283608 0.0341071
0.0516525 0.0539268
0.104198 0.104862
0.0928407 0.0923689
-0.0996154 -0.0875111
-0.0564236 -0.0568372
0.0369121 0.0425035
-0.0213102 -0.0226213
0.0709558 0.0698512
-0.0440595 -0.0428868
-0.0261621 -0.0252686
0.0364061 0.0342833
-0.00413858 -0.00267014
-0.0763518 -0.0747182
-0.0158059 -0.0143817
-0.0328611 -0.0309474
0.0111553 0.0134307
0.0155817 0.0179976
0.000342359 0.00346083
-0.0729483 -0.0694447
-0.0185955 -0.0157438
0.00992988 0.0124683
-0.027545 -0.0262032
-0.0210538 -0.0195524
-0.0800208 -0.0781528
-0.0388325 -0.0351215
2.50418e-05 0.0010425
-0.0152264 -0.0135544
-0.00152705 -0.000862222
-0.0315159 -0.0281019
-0.0234119 -0.0220428
-0.000406958 0.00125167
-0.00846165 -0.00825944
0.0242363 0.0237797
0.0440912 0.0457321
-0.132937 -0.130003
-0.0843472 -0.0801199
-0.0716005 -0.066484
-0.0767635 -0.0700156
-0.0842383 -0.0816756
0.0574062 0.0581892
0.0663135 0.0672399
-0.0282651 -0.0276244
-0.082951 -0.0807751
0.0672171 0.068294
-0.07946 -0.0772275
0.0584065 0.0576297
0.0430975 0.0451075
0.145374 0.141406
-0.108784 -0.104573
0.00835483 0.0105707
-0.012019 -0.0112842
-0.0748877 -0.0724718
0.115788 0.112393
0.0566595 0.0561931
-0.0315294 -0.0283808
0.0869296 0.0851214
0.0748605 0.0730826
0.106541 0.101738
0.0218053 0.0170258
-0.0102593 -0.0119819
0.0249865 0.0217583
-0.105938 -0.101008
-0.00668867 -0.00792264
-0.0718339 -0.0720132
-0.0962578 -0.0922933
0.0881245 0.0863085
0.207156 0.194476
-0.0668157 -0.0628382
0.00884156 0.00810958
-0.0188347 -0.0222708
-0.207711 -0.202672
0.044738 0.0436056
0.00398835 9.875e-05
-0.0567986 -0.0582081
-0.148288 -0.143595
0.0380532 0.0382553
0.185968 0.175959
0.104752 0.0973631
-0.0990927 -0.0967726
-0.110008 -0.0969419
-0.0220824 -0.0234574
0.0774922 0.0758089
-0.188104 -0.184454
0.207531 0.201812
0.216893 0.207748
0.281027 0.261478
-0.138366 -0.133307
-0.0210378 -0.0222578
-0.185773 -0.175889
0.0673718 0.0616433
-0.0152582 -0.0188758
0.0569791 0.0640915
-0.165358 -0.161026
-0.295855 -0.287627
-0.188891 -0.178072
0.0760689 0.0795425
-0.392769 -0.382902
0.0859799 0.0875129
0.195725 0.188779
0.196639 0.186514
-0.0729175 -0.0685601
-0.297542 -0.290247
-0.0496875 -0.0490253
-0.278327 -0.271302
-0.189842 -0.185555
0.0150746 0.0166358
-0.206714 -0.199436
-0.192322 -0.188355
0.102008 0.109729
-0.15539 -0.155512
-0.0774767 -0.0764814
-0.0760848 -0.0728307
0.00994327 0.0127878
0.128815 0.132228
0.0322175 0.0373379
0.166185 0.167859
-0.0675 -0.0622654
-0.0456818 -0.0472235
0.241494 0.242949
-0.0856368 -0.0858217
-0.212086 -0.214655
-0.00719695 -0.0054
-0.0860581 -0.0861258
0.151022 0.155385
0.0148139 0.0188435
0.0764096 0.0794925
0.0333769 0.0358089
-0.287494 -0.286556
0.0312695 0.0331501
0.26134 0.263788
0.0186828 0.0205993
-0.120108 -0.122371
0.00137138 0.00223097
0.0162078 0.0164492
-0.0380957 -0.0350432
-0.0657248 -0.0639997
0.0146638 0.0120936
-0.00673218 -0.00906597
-0.0122997 -0.0109236
0.0321115 0.0313397
-0.0674911 -0.0652606
0.0686425 0.0662724
0.0115264 0.0124464
0.0100532 0.0126178
-0.0199175 -0.0250122
0.0280052 0.0263583
0.0176726 0.0169496
-0.119771 -0.113579
0.000762642 -0.000300833
0.0220733 0.0235804
0.0464646 0.0484858
-0.0333592 -0.0330357
0.0381966 0.0389822
-0.0056799 -0.00396042
-0.00194186 -0.00169458
0.0905662 0.0836936
-0.0511175 -0.0507307
0.0548254 0.0529246
0.0869563 0.0858203
-0.0779368 -0.0738319
0.00341607 0.00544222
-0.0420577 -0.0378033
0.0881952 0.0857043
0.00465659 0.00774958
0.0201775 0.0233018
-0.0332384 -0.0302908
0.0470275 0.0495542
0.0455306 0.0436015
0.0804166 0.0846471
-0.00487645 -0.00529625
-0.0289242 -0.028149
0.037291 0.0356133
-0.0139984 -0.0093868
-0.0293697 -0.023319
0.0471211 0.0547414
0.0765715 0.0790633
-0.0244697 -0.0248314
0.0389389 0.0402821
-0.0178047 -0.0196222
-0.0455986 -0.0424878
0.033056 0.0346756
0.00720235 0.00550708
0.145141 0.145795
-0.0332417 -0.0304446
0.064612 0.0649051
0.00787739 0.000254861
-0.0281095 -0.0335574
-0.0140454 -0.0160761
0.0416136 0.0342653
-0.0186208 -0.022051
0.0866471 0.0831297
-0.0618328 -0.0555836
0.103532 0.105604
0.112942 0.115528
-0.131256 -0.126001
-0.0464642 -0.050701
0.0463732 0.0443939
0.0389264 0.0340739
-0.0141951 -0.0163831
-0.0835324 -0.0761224
0.0506431 0.0478037
0.0224388 0.0154493
0.0802304 0.0660947
-0.0158272 -0.0122136
0.0827242 0.0860989
0.137934 0.130286
0.00579218 0.00319208
-0.0408723 -0.0597278
0.0018741 -0.0187374
0.0165601 0.0142097
-0.0236529 -0.0380422
0.0124563 0.0102724
0.00746093 0.00497806
0.0347967 0.0316507
-0.00467815 -0.0084225
-0.0222976 -0.0299594
-0.0322521 -0.0376343
-0.0266875 -0.0288167
-0.00868191 -0.0140297
0.0839006 0.0722811
0.00259219 -0.0150076
0.00855035 0.0103494
-0.043226 -0.0589381
0.00383378 0.00154819
0.00151537 0.00335042
-0.0280066 -0.0429439
-0.0314089 -0.0368146
-0.0408109 -0.0422178
-0.0090197 -0.0218967
-0.000878361 -0.00251111
0.0341331 0.0313819
-0.0618607 -0.0737193
-0.0562494 -0.0643718
-0.0865756 -0.0863497
0.00551269 -0.00289097
-0.0216102 -0.0215647
0.0270486 0.0227054
-0.0212359 -0.0215694
-0.044018 -0.0514315
-0.0356499 -0.0422743
-0.0479077 -0.0619622
0.00207712 -0.00434625
0.0123723 0.00648403
-0.0316772 -0.0323557
-0.0286951 -0.0473119
-0.0207997 -0.0324583
-0.0192951 -0.0147021
-0.0810754 -0.0922057
0.00671252 -0.00536708
-0.000401356 -0.00789986
-0.0801996 -0.0955751
-0.0387637 -0.0479278
-0.0288069 -0.0366933
-0.020189 -0.0378525
-0.0402105 -0.0571133
-0.0197277 -0.0246265
-0.0230543 -0.0258093
-0.0506651 -0.0480807
-0.00652458 -0.00810361
-0.0356694 -0.0340111
-0.0203599 -0.0223772
0.0117931 0.0110133
0.0751014 0.0725896
0.034921 0.0320046
-0.000906075 -0.00148
-0.0320286 -0.0314161
0.120643 0.121161
-0.00211186 -0.00142139
-0.0796048 -0.0802042
-0.0672287 -0.0703868
-0.0809458 -0.0747233
0.0223531 0.0175118
-0.060221 -0.0586794
0.0222884 0.018614
-0.00972483 -0.0104335
0.0121644 0.0101419
0.0297396 0.0299217
0.0542541 0.0511582
-0.029457 -0.0297139
-0.0761061 -0.0745699
-0.0497169 -0.0482567
0.0411794 0.0365365
-0.0191162 -0.0198014
0.0499977 0.0463596
0.0281642 0.0264056
-0.0311401 -0.0342083
-0.0436187 -0.0466457
-0.01102 -0.0115224
0.0260982 0.024885
-0.0123291 -0.0104436
-0.0320306 -0.0313615
-0.00121199 -0.00330514
-0.0187951 -0.0201707
0.0730847 0.0690001
-0.0028852 -0.00524861
0.0419782 0.0382719
0.0457342 0.0419499
0.0245642 0.0195108
0.0168106 0.0168462
-0.0190512 -0.0214749
0.0556958 0.0574182
-0.0114437 -0.0127854
-0.0158645 -0.014031
0.0345091 0.0313331
-0.0161468 -0.0167515
0.0210302 0.0214754
