-4.53536 -4.53517
-4.53105 -4.5307
-4.53136 -4.53128
-4.53039 -4.53005
-4.5347 -4.53452
-4.53095 -4.53062
-4.53125 -4.53117
-4.52827 -4.52793
-4.5296 -4.52927
-4.53386 -4.53368
-4.53072 -4.53063
-4.53281 -4.53263
-4.52842 -4.52808
-4.5304 -4.53032
-4.53061 -4.53027
-4.53109 -4.53102
-4.53442 -4.53423
-4.53504 -4.53485
-4.53068 -4.5306
-4.53045 -4.5301
-4.53469 -4.5345
-4.53066 -4.53058
-4.53003 -4.52968
-4.52914 -4.5288
-4.53337 -4.53317
-4.53016 -4.53008
-4.53079 -4.53045
-4.52921 -4.52913
-4.5308 -4.53072
-4.53023 -4.5299
-4.53064 -4.53057
-4.53458 -4.5344
-4.53045 -4.53027
-4.53247 -4.53228
-4.52941 -4.52933
-4.52802 -4.52768
-4.53073 -4.53065
-4.52978 -4.5297
-4.52554 -4.5252
-4.53454 -4.53435
-4.52839 -4.52805
-4.52911 -4.52902
-4.53346 -4.53327
-4.52867 -4.52832
-4.53482 -4.53463
-4.52879 -4.52845
-4.52631 -4.52598
-4.53096 -4.53078
-4.53314 -4.53297
-4.52938 -4.5293
-4.52882 -4.52848
-4.53044 -4.53025
-4.52919 -4.5291
-4.52823 -4.52815
-4.53306 -4.53287
-4.52672 -4.52662
-4.53211 -4.53192
-4.52878 -4.52842
-4.52593 -4.52558
-4.52826 -4.5282
-4.52667 -4.52658
-4.52963 -4.52943
-4.52873 -4.52838
-4.52818 -4.52785
-4.52801 -4.52793
-4.52605 -4.52572
-4.53262 -4.53245
-4.52362 -4.52352
-4.51851 -4.51843
-4.52223 -4.52192
-4.5293 -4.52897
-4.52906 -4.529
-4.52183 -4.52163
-4.53283 -4.53267
-4.52448 -4.5244
-4.52602 -4.52585
-4.52894 -4.5286
-4.51706 -4.5167
-4.53337 -4.5332
-4.52761 -4.52727
-4.52239 -4.52203
-4.53113 -4.53098
-4.52975 -4.52942
-4.52833 -4.52825
-4.52697 -4.52688
-4.5275 -4.52713
-4.52617 -4.52603
-4.52497 -4.52467
-4.52763 -4.52725
-4.52291 -4.52288
-4.52719 -4.52713
-4.53114 -4.53097
-4.52118 -4.5209
-4.52785 -4.52773
-4.52811 -4.5278
-4.52981 -4.52973
-4.52843 -4.52838
-4.52979 -4.52947
-4.52659 -4.52632
-4.52797 -4.52778
-4.52184 -4.52167
-4.52687 -4.52632
-4.52733 -4.52705
-4.52744 -4.52697
-4.53146 -4.53133
-4.52348 -4.52343
-4.52387 -4.52387
-4.53075 -4.53063
-4.5162 -4.51617
-4.52741 -4.52707
-4.5312 -4.53107
-4.52764 -4.52742
-4.51977 -4.51942
-4.52912 -4.52903
-4.53227 -4.5322
-4.51996 -4.51985
-4.52692 -4.52677
-4.51653 -4.51642
-4.53091 -4.5308
-4.53162 -4.53155
-4.52841 -4.5284
-4.52238 -4.52215
-4.52643 -4.52615
-4.51402 -4.51372
-4.52698 -4.52638
-4.51878 -4.5186
-4.52579 -4.52552
-4.5257 -4.52533
-4.52733 -4.52693
-4.5268 -4.52667
-4.52703 -4.52695
-4.52763 -4.52737
-4.52489 -4.52473
-4.52141 -4.52093
-4.51585 -4.51583
-4.52763 -4.52737
-4.52766 -4.52753
-4.526 -4.52578
-4.53078 -4.53062
-4.52322 -4.523
-4.52651 -4.52645
-4.51924 -4.51868
-4.52454 -4.52453
-4.51936 -4.51898
-4.51938 -4.51898
-4.52354 -4.52352
-4.5141 -4.51368
-4.51884 -4.51892
-4.52054 -4.52057
-4.51935 -4.5195
-4.52896 -4.52897
-4.51838 -4.51835
-4.52179 -4.5217
-4.51915 -4.51917
-4.50881 -4.50807
-4.52881 -4.52873
-4.52452 -4.52427
-4.5161 -4.51602
-4.51939 -4.51923
-4.51102 -4.51087
-4.52823 -4.52823
-4.49272 -4.49235
-4.50769 -4.50773
-4.51165 -4.5112
-4.52058 -4.52055
-4.50887 -4.50893
-4.5136 -4.51313
-4.50403 -4.50422
-4.49835 -4.49803
-4.51698 -4.51718
-4.4951 -4.49485
-4.49268 -4.49222
-4.51417 -4.5142
-4.51011 -4.51008
-4.51212 -4.51243
-4.51872 -4.5189
-4.50999 -4.51012
-4.52067 -4.5204
-4.52299 -4.5229
-4.51571 -4.51573
-4.51169 -4.51162
-4.47978 -4.47958
-4.48333 -4.48317
-4.49861 -4.49833
-4.51741 -4.51733
-4.50826 -4.50827
-4.479 -4.47868
-4.51614 -4.51588
-4.49818 -4.49807
-4.51913 -4.51903
-4.50723 -4.50733
-4.51049 -4.51148
-4.48735 -4.48705
-4.50136 -4.50143
-4.49751 -4.49702
-4.5075 -4.50753
-4.48852 -4.48873
-4.50461 -4.505
-4.50692 -4.5067
-4.50953 -4.5107
-4.4961 -4.49595
-4.50701 -4.50652
-4.48944 -4.48945
-4.47562 -4.47565
-4.47456 -4.47467
-4.50033 -4.50072
-4.51173 -4.5115
-4.5182 -4.51843
-4.50059 -4.50008
-4.52011 -4.52012
-4.50048 -4.5003
-4.48436 -4.48413
-4.50996 -4.50983
-4.5147 -4.51425
-4.51542 -4.51507
-4.49346 -4.4931
-4.51386 -4.51333
-4.51502 -4.51468
-4.4876 -4.48705
-4.50149 -4.50128
-4.49931 -4.4985
-4.48094 -4.48062
-4.49382 -4.4937
-4.5167 -4.51655
-4.47248 -4.47253
-4.50103 -4.50062
-4.51408 -4.51375
-4.51729 -4.51657
-4.49599 -4.49545
-4.5194 -4.51955
-4.50422 -4.50457
-4.49614 -4.49588
-4.50838 -4.50772
-4.48714 -4.48693
-4.4866 -4.48632
-4.50709 -4.50605
-4.47927 -4.47852
-4.48898 -4.48903
-4.49248 -4.49278
-4.50228 -4.5025
-4.50775 -4.50795
-4.48705 -4.4863
-4.49793 -4.49815
-4.47431 -4.47405
-4.47953 -4.47925
-4.49611 -4.4947
-4.49734 -4.4961
-4.47194 -4.4719
-4.48127 -4.48053
-4.48746 -4.48683
-4.4902 -4.48967
-4.48456 -4.48432
-4.5016 -4.50222
-4.50166 -4.50262
-4.4864 -4.48702
-4.48295 -4.48273
-4.48054 -4.48128
-4.48773 -4.48807
-4.49013 -4.49022
-4.48529 -4.48705
-4.47325 -4.47318
-4.49599 -4.49647
-4.49711 -4.49705
-4.507 -4.50763
-4.49869 -4.49877
-4.47006 -4.46962
-4.50856 -4.50923
-4.47961 -4.47897
-4.50126 -4.50153
-4.50932 -4.51015
-4.50618 -4.50605
-4.50037 -4.5001
-4.49284 -4.49277
-4.47871 -4.47818
-4.48285 -4.48287
-4.50083 -4.50045
-4.48948 -4.48957
-4.47678 -4.47713
-4.4445 -4.44428
-4.46869 -4.46887
-4.46018 -4.46015
-4.46486 -4.46507
-4.49169 -4.49208
-4.48298 -4.4846
-4.47583 -4.47635
-4.48633 -4.48652
-4.47099 -4.47095
-4.47994 -4.48017
-4.46596 -4.46615
-4.49043 -4.491
-4.45029 -4.44998
-4.48694 -4.48733
-4.46097 -4.46088
-4.49029 -4.4907
-4.4742 -4.47385
-4.47297 -4.47302
-4.48786 -4.48923
-4.45802 -4.45907
-4.49077 -4.49245
-4.4588 -4.45972
-4.48339 -4.48462
-4.48627 -4.48563
-4.49282 -4.49287
-4.47135 -4.47015
-4.4773 -4.47742
-4.48345 -4.48423
-4.47714 -4.47653
-4.47204 -4.47173
-4.48604 -4.48648
-4.46237 -4.46075
-4.45513 -4.45475
-4.47761 -4.4777
-4.46418 -4.46558
-4.47393 -4.47402
-4.47105 -4.47033
-4.46143 -4.46117
-4.46833 -4.46692
-4.48924 -4.4903
-4.4576 -4.4565
-4.46855 -4.46763
-4.46457 -4.46637
-4.47406 -4.47483
-4.46778 -4.4688
-4.45253 -4.45397
-4.45742 -4.45693
-4.46533 -4.46675
-4.44072 -4.44107
-4.47308 -4.4728
-4.44609 -4.4464
-4.4702 -4.47043
-4.4748 -4.47498
-4.44308 -4.44343
-4.46143 -4.46108
-4.48337 -4.48343
-4.47751 -4.4778
-4.45542 -4.45622
-4.46836 -4.46925
-4.45905 -4.45897
-4.45941 -4.45923
-4.43046 -4.43072
-4.46624 -4.46677
-4.45341 -4.45288
-4.48645 -4.48735
-4.47156 -4.47312
-4.43794 -4.4389
-4.44803 -4.4491
-4.44427 -4.44402
-4.449 -4.44937
-4.43851 -4.43743
-4.4473 -4.4474
-4.44411 -4.44502
-4.44865 -4.44827
-4.45789 -4.45842
-4.47065 -4.47053
-4.43532 -4.43393
-4.43501 -4.43797
-4.47556 -4.47583
-4.46635 -4.46697
-4.48612 -4.48792
-4.4632 -4.46312
-4.48475 -4.48743
-4.43399 -4.43293
-4.45485 -4.45363
-4.45195 -4.4541
-4.46768 -4.4668
-4.43997 -4.43997
-4.46242 -4.46302
-4.44214 -4.4405
-4.46961 -4.46867
-4.4184 -4.4175
-4.42504 -4.42457
-4.44318 -4.44168
-4.4544 -4.45447
-4.43644 -4.43588
-4.47218 -4.47265
-4.43159 -4.43073
-4.45572 -4.45597
-4.43699 -4.4366
-4.41434 -4.41387
-4.42643 -4.4251
-4.43971 -4.43988
-4.43478 -4.43472
-4.41628 -4.4163
-4.43107 -4.43055
-4.41647 -4.4127
-4.40507 -4.40348
-4.38468 -4.38393
-4.39379 -4.39288
-4.40513 -4.40362
-4.42166 -4.42003
-4.43549 -4.4368
-4.45158 -4.45168
-4.42679 -4.42688
-4.43416 -4.43385
-4.43411 -4.43578
-4.43375 -4.43413
-4.42542 -4.42425
-4.44095 -4.44202
-4.44911 -4.44873
-4.42354 -4.42262
-4.41799 -4.41858
-4.48324 -4.48245
-4.48782 -4.48768
-4.4766 -4.4759
-4.46638 -4.46547
-4.44724 -4.44667
-4.47403 -4.47358
-4.48029 -4.47963
-4.47668 -4.47595
-4.48593 -4.48485
-4.47593 -4.47505
-4.45757 -4.45645
-4.46353 -4.46198
-4.47097 -4.47018
-4.44279 -4.44285
-4.4544 -4.4543
-4.46718 -4.46848
-4.4537 -4.45428
-4.4521 -4.45377
-4.45209 -4.45153
-4.45601 -4.45753
-4.43875 -4.44048
-4.4469 -4.44483
-4.42565 -4.42683
-4.43365 -4.43387
-4.46281 -4.46418
-4.44536 -4.44438
-4.43427 -4.43465
-4.41392 -4.41438
-4.42238 -4.42288
-4.42118 -4.42212
-4.45034 -4.4511
-4.45476 -4.45462
-4.43158 -4.43145
-4.41908 -4.4164
-4.44072 -4.43833
-4.42644 -4.42525
-4.45377 -4.45418
-4.42208 -4.42335
-4.46242 -4.46305
-4.47633 -4.47602
-4.45333 -4.45233
-4.47243 -4.47097
-4.48555 -4.48597
-4.45879 -4.45677
-4.43334 -4.43217
-4.46384 -4.46482
-4.47602 -4.47572
-4.49942 -4.49955
-4.47664 -4.47668
-4.46083 -4.45993
-4.43002 -4.42782
-4.39371 -4.39278
-4.44349 -4.4427
-4.42391 -4.42303
-4.40697 -4.40738
-4.43423 -4.43407
-4.42362 -4.42162
-4.43021 -4.43087
-4.45645 -4.45852
-4.4315 -4.43137
-4.40204 -4.40177
-4.46033 -4.46185
-4.41501 -4.41225
-4.43931 -4.43918
-4.4602 -4.45925
-4.44268 -4.44152
-4.43387 -4.4318
-4.44737 -4.44612
-4.4548 -4.45542
-4.41104 -4.40927
-4.44294 -4.4409
-4.43217 -4.43095
-4.4257 -4.4233
-4.41779 -4.42033
-4.42348 -4.42608
-4.43548 -4.43447
-4.43461 -4.4369
-4.43559 -4.43443
-4.45579 -4.45708
-4.4374 -4.44153
-4.44494 -4.44807
-4.45338 -4.45402
-4.42772 -4.42642
-4.44092 -4.44192
-4.44255 -4.44423
-4.43822 -4.43902
-4.41922 -4.4205
-4.42459 -4.42523
-4.42126 -4.42067
-4.41758 -4.4173
-4.41844 -4.41943
-4.44101 -4.44063
-4.43264 -4.43395
-4.45127 -4.45428
-4.42037 -4.4204
-4.40281 -4.40365
-4.39585 -4.39828
-4.40647 -4.40815
-4.41892 -4.41943
-4.37851 -4.38378
-4.43494 -4.43642
-4.40553 -4.40552
-4.42639 -4.42707
-4.44509 -4.44463
-4.41912 -4.41938
-4.43431 -4.43383
-4.45197 -4.45152
-4.42725 -4.42447
-4.41551 -4.41368
-4.43255 -4.42997
-4.42724 -4.4263
-4.41697 -4.41437
-4.41473 -4.41457
-4.42503 -4.42447
-4.42499 -4.42347
-4.38344 -4.3876
-4.42155 -4.42297
-4.40421 -4.40568
-4.38617 -4.38567
-4.37696 -4.37732
-4.42672 -4.42392
-4.39524 -4.3949
-4.45981 -4.46093
-4.43075 -4.42813
-4.41794 -4.418
-4.39851 -4.39668
-4.43086 -4.42703
-4.45279 -4.45148
-4.42872 -4.42582
-4.4471 -4.44637
-4.41847 -4.41843
-4.44267 -4.4418
-4.39625 -4.39625
-4.44689 -4.44485
-4.38699 -4.3898
-4.38956 -4.39003
-4.39729 -4.39782
-4.41491 -4.4182
-4.39897 -4.40263
-4.42239 -4.42445
-4.38526 -4.38922
-4.41896 -4.4181
-4.41833 -4.42118
-4.4005 -4.40103
-4.38651 -4.38888
-4.41051 -4.4157
-4.41549 -4.41968
-4.39306 -4.39058
-4.42698 -4.4256
-4.42559 -4.42582
-4.44768 -4.44713
-4.41478 -4.4124
-4.41812 -4.41808
-4.42737 -4.42547
-4.40268 -4.40383
-4.4014 -4.4012
-4.43471 -4.43428
-4.42328 -4.42222
-4.39932 -4.40037
-4.43053 -4.42865
-4.41274 -4.41405
-4.45698 -4.45745
-4.43263 -4.42917
-4.42155 -4.42243
-4.41792 -4.41907
-4.42129 -4.42417
-4.40054 -4.40108
-4.3965 -4.39658
-4.38119 -4.38163
-4.40187 -4.40103
-4.40704 -4.40753
-4.41203 -4.41362
-4.41886 -4.41912
-4.3992 -4.40012
-4.38428 -4.38398
-4.42749 -4.42833
-4.41151 -4.4076
-4.38909 -4.38635
-4.41665 -4.41692
-4.37498 -4.37198
-4.38037 -4.3835
-4.38286 -4.38347
-4.42279 -4.42153
-4.40365 -4.40148
-4.41242 -4.41368
-4.40476 -4.40335
-4.389 -4.38803
-4.39198 -4.3921
-4.40291 -4.40222
-4.41094 -4.41122
-4.39623 -4.3936
-4.40276 -4.40248
-4.41316 -4.41475
-4.38968 -4.39057
-4.408 -4.4072
-4.42933 -4.4271
-4.43379 -4.43238
-4.40389 -4.40243
-4.389 -4.38798
-4.43768 -4.43813
-4.42233 -4.42198
-4.41741 -4.41768
-4.42054 -4.42177
-4.40392 -4.405
-4.39424 -4.39175
-4.42453 -4.4235
-4.40011 -4.39815
-4.46622 -4.46795
-4.41491 -4.41307
-4.39717 -4.39728
-4.39644 -4.39357
-4.40009 -4.39753
-4.4071 -4.40573
-4.39484 -4.3961
-4.44018 -4.44153
-4.43481 -4.43668
-4.4167 -4.41662
-4.38634 -4.38803
-4.38432 -4.38507
-4.37018 -4.36927
-4.39203 -4.3922
-4.39512 -4.3936
-4.41789 -4.42003
-4.40007 -4.40103
-4.39397 -4.39527
-4.41106 -4.41157
-4.4108 -4.41047
-4.4198 -4.42028
-4.38763 -4.38968
-4.41251 -4.411
-4.37832 -4.37817
-4.3899 -4.39112
-4.38219 -4.38433
-4.41422 -4.41275
-4.37921 -4.37978
-4.40427 -4.40417
-4.36547 -4.36408
-4.4035 -4.40023
-4.38758 -4.38532
-4.471 -4.47153
-4.4774 -4.47808
-4.48727 -4.48888
-4.48191 -4.48213
-4.47452 -4.47857
-4.47233 -4.47332
-4.48844 -4.48867
-4.51146 -4.51187
-4.46764 -4.4684
-4.47022 -4.47315
-4.46844 -4.46763
-4.50572 -4.50618
-4.47329 -4.47452
-4.49533 -4.49618
-4.47993 -4.48205
-4.46687 -4.46852
-4.47351 -4.47377
-4.47203 -4.47303
-4.46649 -4.467
-4.37297 -4.36797
-4.40037 -4.40437
-4.40621 -4.4098
-4.39792 -4.39705
-4.38946 -4.38687
-4.39978 -4.3996
-4.3958 -4.39427
-4.42405 -4.42452
-4.36331 -4.36413
-4.3988 -4.39735
-4.38168 -4.38077
-4.38309 -4.38493
-4.40061 -4.40108
-4.41798 -4.41788
-4.40408 -4.40223
-4.39814 -4.39565
-4.38048 -4.38177
-4.36611 -4.36728
-4.3947 -4.39408
-4.40268 -4.40498
-4.38224 -4.38502
-4.38572 -4.38448
-4.38702 -4.38733
-4.40924 -4.4076
-4.38234 -4.38372
-4.38737 -4.38962
-4.41062 -4.41228
-4.41286 -4.41222
-4.41073 -4.41128
-4.41049 -4.41232
-4.38232 -4.3822
-4.40243 -4.40148
-4.40244 -4.40285
-4.40214 -4.40313
-4.40289 -4.40458
-4.36363 -4.36622
-4.39656 -4.39822
-4.38537 -4.38748
-4.39591 -4.39753
-4.41174 -4.41238
-4.40089 -4.4005
-4.40391 -4.402
-4.39987 -4.39775
-4.4139 -4.41418
-4.37256 -4.37135
-4.38419 -4.38572
-4.40988 -4.40878
-4.38897 -4.38523
-4.38473 -4.38807
-4.40189 -4.40422
-4.37623 -4.37662
-4.42645 -4.42547
-4.38073 -4.38125
-4.37253 -4.37382
-4.40358 -4.40108
-4.39606 -4.39287
-4.36819 -4.36595
-4.41409 -4.41553
-4.41602 -4.41545
-4.39529 -4.39297
-4.39634 -4.39502
-4.39534 -4.39365
-4.37555 -4.37492
-4.40157 -4.4026
-4.38489 -4.38592
-4.3903 -4.38812
-4.36436 -4.36002
-4.38279 -4.38528
-4.36905 -4.37058
-4.37409 -4.37548
-4.38766 -4.38858
-4.40789 -4.40755
-4.38484 -4.38553
-4.37813 -4.37997
-4.41358 -4.41565
-4.43651 -4.43672
-4.39168 -4.39243
-4.36756 -4.3655
-4.40324 -4.40372
-4.39564 -4.39468
-4.38041 -4.3813
-4.37645 -4.37538
-4.38736 -4.38982
-4.35438 -4.3553
-4.3949 -4.39238
-4.38622 -4.38555
-4.41269 -4.41328
-4.39 -4.39145
-4.40854 -4.40673
-4.38207 -4.38072
-4.38327 -4.3817
-4.39044 -4.39133
-4.37966 -4.37698
-4.38664 -4.38732
-4.38299 -4.38147
-4.39622 -4.39642
-4.41341 -4.41255
-4.40079 -4.40355
-4.39235 -4.3945
-4.4077 -4.40742
-4.37987 -4.38038
-4.42202 -4.42165
-4.38947 -4.39173
-4.40678 -4.40657
-4.39461 -4.39073
-4.37734 -4.37632
-4.40054 -4.3994
-4.43115 -4.43382
-4.38526 -4.38613
-4.41022 -4.41145
-4.39036 -4.3905
-4.42109 -4.42087
-4.40594 -4.40837
-4.42298 -4.4247
-4.38423 -4.38277
-4.4321 -4.43183
-4.42042 -4.42262
-4.42078 -4.41863
-4.39259 -4.39308
-4.39626 -4.39563
-4.3999 -4.40057
-4.38528 -4.38812
-4.36736 -4.36723
-4.37531 -4.37712
-4.39806 -4.399
-4.40359 -4.40662
-4.38513 -4.3836
-4.36431 -4.36393
-4.39073 -4.38695
-4.39068 -4.38827
-4.41171 -4.41135
-4.39226 -4.38873
-4.39029 -4.3896
-4.36537 -4.36772
-4.37983 -4.38155
-4.413 -4.4141
-4.38347 -4.38608
-4.39141 -4.38958
-4.37973 -4.37702
-4.40604 -4.40617
-4.39103 -4.38852
-4.36997 -4.37472
-4.39592 -4.39547
-4.38227 -4.38437
-4.40584 -4.40652
-4.40389 -4.40232
-4.40411 -4.40563
-4.39984 -4.40103
-4.38089 -4.37672
-4.40355 -4.40658
-4.41776 -4.42075
-4.42729 -4.42872
-4.37748 -4.3775
-4.3852 -4.3872
-4.35761 -4.35838
-4.38005 -4.37798
-4.38229 -4.3809
-4.39404 -4.39593
-4.36236 -4.36368
-4.38132 -4.37972
-4.37337 -4.37465
-4.40686 -4.40528
-4.41533 -4.4166
-4.40702 -4.40857
-4.3768 -4.37452
-4.38966 -4.38875
-4.3749 -4.37342
-4.37417 -4.37542
-4.36929 -4.36967
-4.37263 -4.37462
-4.37713 -4.37898
-4.36782 -4.36733
-4.39624 -4.39527
-4.37699 -4.3778
-4.41406 -4.41298
-4.3872 -4.39037
-4.39746 -4.3955
-4.38624 -4.38588
-4.39007 -4.3912
-4.3735 -4.37418
-4.3996 -4.3984
-4.37934 -4.37955
-4.38698 -4.38638
-4.36795 -4.3689
-4.41223 -4.4112
-4.37683 -4.37405
-4.34533 -4.34498
-4.37097 -4.37158
-4.41333 -4.41525
-4.37641 -4.3788
-4.38427 -4.38395
-4.39472 -4.39662
-4.3633 -4.36565
-4.37962 -4.3806
-4.37322 -4.37362
-4.36274 -4.3626
-4.37613 -4.37582
-4.36475 -4.3634
-4.42281 -4.4233
-4.38393 -4.38687
-4.40089 -4.40363
-4.41542 -4.41483
-4.36089 -4.36173
-4.41259 -4.4125
-4.39266 -4.39525
-4.36567 -4.36458
-4.38002 -4.38088
-4.38714 -4.38945
-4.40004 -4.39922
-4.39589 -4.39545
-4.3838 -4.38137
-4.36147 -4.36562
-4.37401 -4.37462
-4.39024 -4.39143
-4.39367 -4.39113
-4.38001 -4.38127
-4.37394 -4.3745
-4.38138 -4.3818
-4.37105 -4.37098
-4.39615 -4.39487
-4.36442 -4.3619
-4.36812 -4.37232
-4.37996 -4.38002
-4.38345 -4.38433
-4.38535 -4.38627
-4.37877 -4.38012
-4.36085 -4.3613
-4.3908 -4.38862
-4.38814 -4.38363
-4.38744 -4.39002
-4.39222 -4.38742
-4.37898 -4.37758
-4.3876 -4.38887
-4.38777 -4.38748
-4.38001 -4.37755
-4.37856 -4.37478
-4.3804 -4.37472
-4.41314 -4.41183
-4.36651 -4.36532
-4.36606 -4.36757
-4.35493 -4.35447
-4.38466 -4.3835
-4.38571 -4.38623
-4.38932 -4.3912
-4.37037 -4.37227
-4.3887 -4.38907
-4.4121 -4.41208
-4.46056 -4.45942
-4.43371 -4.43387
-4.45652 -4.45632
-4.43623 -4.43618
-4.44967 -4.45098
-4.44135 -4.44122
-4.446 -4.4464
-4.43629 -4.43755
